Spectroscopy/data/000.csv

Record Length,Analog:14000
Sample Interval,CH:0.0000049999999
Vertical Units,CH1:V,,,
Vertical Scale,CH1:+2.000000E+00,,,
Vertical Offset,CH1:+1.200000E+00,,,
Horizontal Units,us,,,
Horizontal Scale,5000.0000000000,,,
Model Number,SDS1204X-E,,,
Serial Number,SDSMMEBQ4R4722,,,
Software Version,8.1.6.1.35R2,,,
Source,CH1
Second,Volt
-1.840000E-02,-2.400000E+00
-1.839500E-02,-2.480000E+00
-1.839000E-02,-2.400000E+00
-1.838500E-02,-2.480000E+00
-1.838000E-02,-2.480000E+00
-1.837500E-02,-2.400000E+00
-1.837000E-02,-2.400000E+00
-1.836500E-02,-2.480000E+00
-1.836000E-02,-2.400000E+00
-1.835500E-02,-2.400000E+00
-1.835000E-02,-2.400000E+00
-1.834500E-02,-2.480000E+00
-1.834000E-02,-2.400000E+00
-1.833500E-02,-2.400000E+00
-1.833000E-02,-2.480000E+00
-1.832500E-02,-2.400000E+00
-1.832000E-02,-2.400000E+00
-1.831500E-02,-2.400000E+00
-1.831000E-02,-2.400000E+00
-1.830500E-02,-2.400000E+00
-1.830000E-02,-2.400000E+00
-1.829500E-02,-2.400000E+00
-1.829000E-02,-2.400000E+00
-1.828500E-02,-2.400000E+00
-1.828000E-02,-2.400000E+00
-1.827500E-02,-2.480000E+00
-1.827000E-02,-2.480000E+00
-1.826500E-02,-2.400000E+00
-1.826000E-02,-2.400000E+00
-1.825500E-02,-2.480000E+00
-1.825000E-02,-2.480000E+00
-1.824500E-02,-2.400000E+00
-1.824000E-02,-2.400000E+00
-1.823500E-02,-2.400000E+00
-1.823000E-02,-2.480000E+00
-1.822500E-02,-2.400000E+00
-1.822000E-02,-2.400000E+00
-1.821500E-02,-2.400000E+00
-1.821000E-02,-2.400000E+00
-1.820500E-02,-2.400000E+00
-1.820000E-02,-2.400000E+00
-1.819500E-02,-2.480000E+00
-1.819000E-02,-2.400000E+00
-1.818500E-02,-2.400000E+00
-1.818000E-02,-2.400000E+00
-1.817500E-02,-2.400000E+00
-1.817000E-02,-2.400000E+00
-1.816500E-02,-2.400000E+00
-1.816000E-02,-2.400000E+00
-1.815500E-02,-2.400000E+00
-1.815000E-02,-2.400000E+00
-1.814500E-02,-2.480000E+00
-1.814000E-02,-2.400000E+00
-1.813500E-02,-2.400000E+00
-1.813000E-02,-2.480000E+00
-1.812500E-02,-2.400000E+00
-1.812000E-02,-2.400000E+00
-1.811500E-02,-2.400000E+00
-1.811000E-02,-2.400000E+00
-1.810500E-02,-2.320000E+00
-1.810000E-02,-2.400000E+00
-1.809500E-02,-2.320000E+00
-1.809000E-02,-2.480000E+00
-1.808500E-02,-2.400000E+00
-1.808000E-02,-2.400000E+00
-1.807500E-02,-2.400000E+00
-1.807000E-02,-2.400000E+00
-1.806500E-02,-2.400000E+00
-1.806000E-02,-2.400000E+00
-1.805500E-02,-2.400000E+00
-1.805000E-02,-2.400000E+00
-1.804500E-02,-2.400000E+00
-1.804000E-02,-2.400000E+00
-1.803500E-02,-2.320000E+00
-1.803000E-02,-2.320000E+00
-1.802500E-02,-2.480000E+00
-1.802000E-02,-2.400000E+00
-1.801500E-02,-2.400000E+00
-1.801000E-02,-2.400000E+00
-1.800500E-02,-2.400000E+00
-1.800000E-02,-2.320000E+00
-1.799500E-02,-2.320000E+00
-1.799000E-02,-2.400000E+00
-1.798500E-02,-2.400000E+00
-1.798000E-02,-2.320000E+00
-1.797500E-02,-2.400000E+00
-1.797000E-02,-2.400000E+00
-1.796500E-02,-2.400000E+00
-1.796000E-02,-2.400000E+00
-1.795500E-02,-2.400000E+00
-1.795000E-02,-2.320000E+00
-1.794500E-02,-2.400000E+00
-1.794000E-02,-2.400000E+00
-1.793500E-02,-2.320000E+00
-1.793000E-02,-2.320000E+00
-1.792500E-02,-2.400000E+00
-1.792000E-02,-2.400000E+00
-1.791500E-02,-2.320000E+00
-1.791000E-02,-2.400000E+00
-1.790500E-02,-2.400000E+00
-1.790000E-02,-2.400000E+00
-1.789500E-02,-2.400000E+00
-1.789000E-02,-2.400000E+00
-1.788500E-02,-2.320000E+00
-1.788000E-02,-2.320000E+00
-1.787500E-02,-2.320000E+00
-1.787000E-02,-2.320000E+00
-1.786500E-02,-2.400000E+00
-1.786000E-02,-2.400000E+00
-1.785500E-02,-2.400000E+00
-1.785000E-02,-2.400000E+00
-1.784500E-02,-2.400000E+00
-1.784000E-02,-2.320000E+00
-1.783500E-02,-2.320000E+00
-1.783000E-02,-2.320000E+00
-1.782500E-02,-2.400000E+00
-1.782000E-02,-2.400000E+00
-1.781500E-02,-2.320000E+00
-1.781000E-02,-2.320000E+00
-1.780500E-02,-2.400000E+00
-1.780000E-02,-2.400000E+00
-1.779500E-02,-2.400000E+00
-1.779000E-02,-2.400000E+00
-1.778500E-02,-2.320000E+00
-1.778000E-02,-2.320000E+00
-1.777500E-02,-2.400000E+00
-1.777000E-02,-2.320000E+00
-1.776500E-02,-2.400000E+00
-1.776000E-02,-2.320000E+00
-1.775500E-02,-2.400000E+00
-1.775000E-02,-2.400000E+00
-1.774500E-02,-2.320000E+00
-1.774000E-02,-2.400000E+00
-1.773500E-02,-2.320000E+00
-1.773000E-02,-2.320000E+00
-1.772500E-02,-2.320000E+00
-1.772000E-02,-2.320000E+00
-1.771500E-02,-2.320000E+00
-1.771000E-02,-2.320000E+00
-1.770500E-02,-2.320000E+00
-1.770000E-02,-2.320000E+00
-1.769500E-02,-2.400000E+00
-1.769000E-02,-2.320000E+00
-1.768500E-02,-2.320000E+00
-1.768000E-02,-2.400000E+00
-1.767500E-02,-2.320000E+00
-1.767000E-02,-2.320000E+00
-1.766500E-02,-2.320000E+00
-1.766000E-02,-2.320000E+00
-1.765500E-02,-2.320000E+00
-1.765000E-02,-2.320000E+00
-1.764500E-02,-2.320000E+00
-1.764000E-02,-2.320000E+00
-1.763500E-02,-2.320000E+00
-1.763000E-02,-2.320000E+00
-1.762500E-02,-2.320000E+00
-1.762000E-02,-2.320000E+00
-1.761500E-02,-2.320000E+00
-1.761000E-02,-2.400000E+00
-1.760500E-02,-2.320000E+00
-1.760000E-02,-2.400000E+00
-1.759500E-02,-2.320000E+00
-1.759000E-02,-2.320000E+00
-1.758500E-02,-2.320000E+00
-1.758000E-02,-2.320000E+00
-1.757500E-02,-2.320000E+00
-1.757000E-02,-2.320000E+00
-1.756500E-02,-2.320000E+00
-1.756000E-02,-2.320000E+00
-1.755500E-02,-2.320000E+00
-1.755000E-02,-2.320000E+00
-1.754500E-02,-2.320000E+00
-1.754000E-02,-2.320000E+00
-1.753500E-02,-2.320000E+00
-1.753000E-02,-2.320000E+00
-1.752500E-02,-2.320000E+00
-1.752000E-02,-2.320000E+00
-1.751500E-02,-2.320000E+00
-1.751000E-02,-2.320000E+00
-1.750500E-02,-2.320000E+00
-1.750000E-02,-2.400000E+00
-1.749500E-02,-2.320000E+00
-1.749000E-02,-2.240000E+00
-1.748500E-02,-2.320000E+00
-1.748000E-02,-2.320000E+00
-1.747500E-02,-2.320000E+00
-1.747000E-02,-2.320000E+00
-1.746500E-02,-2.320000E+00
-1.746000E-02,-2.320000E+00
-1.745500E-02,-2.320000E+00
-1.745000E-02,-2.400000E+00
-1.744500E-02,-2.320000E+00
-1.744000E-02,-2.320000E+00
-1.743500E-02,-2.320000E+00
-1.743000E-02,-2.320000E+00
-1.742500E-02,-2.320000E+00
-1.742000E-02,-2.320000E+00
-1.741500E-02,-2.320000E+00
-1.741000E-02,-2.240000E+00
-1.740500E-02,-2.320000E+00
-1.740000E-02,-2.320000E+00
-1.739500E-02,-2.320000E+00
-1.739000E-02,-2.320000E+00
-1.738500E-02,-2.320000E+00
-1.738000E-02,-2.320000E+00
-1.737500E-02,-2.320000E+00
-1.737000E-02,-2.320000E+00
-1.736500E-02,-2.320000E+00
-1.736000E-02,-2.240000E+00
-1.735500E-02,-2.240000E+00
-1.735000E-02,-2.240000E+00
-1.734500E-02,-2.320000E+00
-1.734000E-02,-2.320000E+00
-1.733500E-02,-2.320000E+00
-1.733000E-02,-2.240000E+00
-1.732500E-02,-2.320000E+00
-1.732000E-02,-2.320000E+00
-1.731500E-02,-2.240000E+00
-1.731000E-02,-2.240000E+00
-1.730500E-02,-2.240000E+00
-1.730000E-02,-2.320000E+00
-1.729500E-02,-2.240000E+00
-1.729000E-02,-2.320000E+00
-1.728500E-02,-2.320000E+00
-1.728000E-02,-2.240000E+00
-1.727500E-02,-2.240000E+00
-1.727000E-02,-2.320000E+00
-1.726500E-02,-2.240000E+00
-1.726000E-02,-2.320000E+00
-1.725500E-02,-2.240000E+00
-1.725000E-02,-2.320000E+00
-1.724500E-02,-2.320000E+00
-1.724000E-02,-2.240000E+00
-1.723500E-02,-2.240000E+00
-1.723000E-02,-2.320000E+00
-1.722500E-02,-2.320000E+00
-1.722000E-02,-2.240000E+00
-1.721500E-02,-2.240000E+00
-1.721000E-02,-2.320000E+00
-1.720500E-02,-2.320000E+00
-1.720000E-02,-2.240000E+00
-1.719500E-02,-2.240000E+00
-1.719000E-02,-2.240000E+00
-1.718500E-02,-2.240000E+00
-1.718000E-02,-2.240000E+00
-1.717500E-02,-2.320000E+00
-1.717000E-02,-2.240000E+00
-1.716500E-02,-2.240000E+00
-1.716000E-02,-2.320000E+00
-1.715500E-02,-2.240000E+00
-1.715000E-02,-2.320000E+00
-1.714500E-02,-2.240000E+00
-1.714000E-02,-2.240000E+00
-1.713500E-02,-2.320000E+00
-1.713000E-02,-2.320000E+00
-1.712500E-02,-2.320000E+00
-1.712000E-02,-2.240000E+00
-1.711500E-02,-2.320000E+00
-1.711000E-02,-2.240000E+00
-1.710500E-02,-2.240000E+00
-1.710000E-02,-2.240000E+00
-1.709500E-02,-2.320000E+00
-1.709000E-02,-2.240000E+00
-1.708500E-02,-2.320000E+00
-1.708000E-02,-2.320000E+00
-1.707500E-02,-2.240000E+00
-1.707000E-02,-2.240000E+00
-1.706500E-02,-2.320000E+00
-1.706000E-02,-2.240000E+00
-1.705500E-02,-2.240000E+00
-1.705000E-02,-2.240000E+00
-1.704500E-02,-2.240000E+00
-1.704000E-02,-2.240000E+00
-1.703500E-02,-2.240000E+00
-1.703000E-02,-2.240000E+00
-1.702500E-02,-2.240000E+00
-1.702000E-02,-2.240000E+00
-1.701500E-02,-2.240000E+00
-1.701000E-02,-2.240000E+00
-1.700500E-02,-2.240000E+00
-1.700000E-02,-2.240000E+00
-1.699500E-02,-2.320000E+00
-1.699000E-02,-2.240000E+00
-1.698500E-02,-2.240000E+00
-1.698000E-02,-2.240000E+00
-1.697500E-02,-2.240000E+00
-1.697000E-02,-2.240000E+00
-1.696500E-02,-2.240000E+00
-1.696000E-02,-2.240000E+00
-1.695500E-02,-2.240000E+00
-1.695000E-02,-2.240000E+00
-1.694500E-02,-2.240000E+00
-1.694000E-02,-2.240000E+00
-1.693500E-02,-2.240000E+00
-1.693000E-02,-2.320000E+00
-1.692500E-02,-2.240000E+00
-1.692000E-02,-2.240000E+00
-1.691500E-02,-2.320000E+00
-1.691000E-02,-2.160000E+00
-1.690500E-02,-2.240000E+00
-1.690000E-02,-2.240000E+00
-1.689500E-02,-2.240000E+00
-1.689000E-02,-2.240000E+00
-1.688500E-02,-2.240000E+00
-1.688000E-02,-2.240000E+00
-1.687500E-02,-2.240000E+00
-1.687000E-02,-2.240000E+00
-1.686500E-02,-2.240000E+00
-1.686000E-02,-2.240000E+00
-1.685500E-02,-2.240000E+00
-1.685000E-02,-2.240000E+00
-1.684500E-02,-2.240000E+00
-1.684000E-02,-2.240000E+00
-1.683500E-02,-2.240000E+00
-1.683000E-02,-2.240000E+00
-1.682500E-02,-2.240000E+00
-1.682000E-02,-2.160000E+00
-1.681500E-02,-2.160000E+00
-1.681000E-02,-2.240000E+00
-1.680500E-02,-2.160000E+00
-1.680000E-02,-2.240000E+00
-1.679500E-02,-2.240000E+00
-1.679000E-02,-2.240000E+00
-1.678500E-02,-2.160000E+00
-1.678000E-02,-2.240000E+00
-1.677500E-02,-2.240000E+00
-1.677000E-02,-2.240000E+00
-1.676500E-02,-2.240000E+00
-1.676000E-02,-2.240000E+00
-1.675500E-02,-2.240000E+00
-1.675000E-02,-2.240000E+00
-1.674500E-02,-2.240000E+00
-1.674000E-02,-2.240000E+00
-1.673500E-02,-2.240000E+00
-1.673000E-02,-2.240000E+00
-1.672500E-02,-2.240000E+00
-1.672000E-02,-2.240000E+00
-1.671500E-02,-2.240000E+00
-1.671000E-02,-2.240000E+00
-1.670500E-02,-2.240000E+00
-1.670000E-02,-2.240000E+00
-1.669500E-02,-2.160000E+00
-1.669000E-02,-2.160000E+00
-1.668500E-02,-2.240000E+00
-1.668000E-02,-2.160000E+00
-1.667500E-02,-2.240000E+00
-1.667000E-02,-2.240000E+00
-1.666500E-02,-2.160000E+00
-1.666000E-02,-2.240000E+00
-1.665500E-02,-2.160000E+00
-1.665000E-02,-2.240000E+00
-1.664500E-02,-2.240000E+00
-1.664000E-02,-2.240000E+00
-1.663500E-02,-2.160000E+00
-1.663000E-02,-2.240000E+00
-1.662500E-02,-2.240000E+00
-1.662000E-02,-2.160000E+00
-1.661500E-02,-2.160000E+00
-1.661000E-02,-2.240000E+00
-1.660500E-02,-2.160000E+00
-1.660000E-02,-2.160000E+00
-1.659500E-02,-2.160000E+00
-1.659000E-02,-2.160000E+00
-1.658500E-02,-2.160000E+00
-1.658000E-02,-2.160000E+00
-1.657500E-02,-2.160000E+00
-1.657000E-02,-2.240000E+00
-1.656500E-02,-2.240000E+00
-1.656000E-02,-2.160000E+00
-1.655500E-02,-2.240000E+00
-1.655000E-02,-2.240000E+00
-1.654500E-02,-2.240000E+00
-1.654000E-02,-2.240000E+00
-1.653500E-02,-2.160000E+00
-1.653000E-02,-2.160000E+00
-1.652500E-02,-2.160000E+00
-1.652000E-02,-2.160000E+00
-1.651500E-02,-2.160000E+00
-1.651000E-02,-2.160000E+00
-1.650500E-02,-2.160000E+00
-1.650000E-02,-2.160000E+00
-1.649500E-02,-2.240000E+00
-1.649000E-02,-2.160000E+00
-1.648500E-02,-2.160000E+00
-1.648000E-02,-2.240000E+00
-1.647500E-02,-2.160000E+00
-1.647000E-02,-2.160000E+00
-1.646500E-02,-2.160000E+00
-1.646000E-02,-2.160000E+00
-1.645500E-02,-2.160000E+00
-1.645000E-02,-2.160000E+00
-1.644500E-02,-2.160000E+00
-1.644000E-02,-2.160000E+00
-1.643500E-02,-2.160000E+00
-1.643000E-02,-2.160000E+00
-1.642500E-02,-2.160000E+00
-1.642000E-02,-2.160000E+00
-1.641500E-02,-2.240000E+00
-1.641000E-02,-2.160000E+00
-1.640500E-02,-2.160000E+00
-1.640000E-02,-2.240000E+00
-1.639500E-02,-2.160000E+00
-1.639000E-02,-2.160000E+00
-1.638500E-02,-2.240000E+00
-1.638000E-02,-2.160000E+00
-1.637500E-02,-2.160000E+00
-1.637000E-02,-2.160000E+00
-1.636500E-02,-2.160000E+00
-1.636000E-02,-2.160000E+00
-1.635500E-02,-2.160000E+00
-1.635000E-02,-2.160000E+00
-1.634500E-02,-2.160000E+00
-1.634000E-02,-2.160000E+00
-1.633500E-02,-2.160000E+00
-1.633000E-02,-2.160000E+00
-1.632500E-02,-2.160000E+00
-1.632000E-02,-2.160000E+00
-1.631500E-02,-2.160000E+00
-1.631000E-02,-2.160000E+00
-1.630500E-02,-2.160000E+00
-1.630000E-02,-2.240000E+00
-1.629500E-02,-2.160000E+00
-1.629000E-02,-2.160000E+00
-1.628500E-02,-2.160000E+00
-1.628000E-02,-2.160000E+00
-1.627500E-02,-2.160000E+00
-1.627000E-02,-2.160000E+00
-1.626500E-02,-2.160000E+00
-1.626000E-02,-2.160000E+00
-1.625500E-02,-2.160000E+00
-1.625000E-02,-2.160000E+00
-1.624500E-02,-2.160000E+00
-1.624000E-02,-2.160000E+00
-1.623500E-02,-2.160000E+00
-1.623000E-02,-2.160000E+00
-1.622500E-02,-2.160000E+00
-1.622000E-02,-2.160000E+00
-1.621500E-02,-2.160000E+00
-1.621000E-02,-2.160000E+00
-1.620500E-02,-2.160000E+00
-1.620000E-02,-2.160000E+00
-1.619500E-02,-2.160000E+00
-1.619000E-02,-2.160000E+00
-1.618500E-02,-2.160000E+00
-1.618000E-02,-2.160000E+00
-1.617500E-02,-2.160000E+00
-1.617000E-02,-2.080000E+00
-1.616500E-02,-2.080000E+00
-1.616000E-02,-2.160000E+00
-1.615500E-02,-2.160000E+00
-1.615000E-02,-2.160000E+00
-1.614500E-02,-2.080000E+00
-1.614000E-02,-2.080000E+00
-1.613500E-02,-2.080000E+00
-1.613000E-02,-2.160000E+00
-1.612500E-02,-2.080000E+00
-1.612000E-02,-2.160000E+00
-1.611500E-02,-2.160000E+00
-1.611000E-02,-2.160000E+00
-1.610500E-02,-2.080000E+00
-1.610000E-02,-2.160000E+00
-1.609500E-02,-2.080000E+00
-1.609000E-02,-2.160000E+00
-1.608500E-02,-2.160000E+00
-1.608000E-02,-2.080000E+00
-1.607500E-02,-2.160000E+00
-1.607000E-02,-2.080000E+00
-1.606500E-02,-2.080000E+00
-1.606000E-02,-2.160000E+00
-1.605500E-02,-2.160000E+00
-1.605000E-02,-2.160000E+00
-1.604500E-02,-2.160000E+00
-1.604000E-02,-2.160000E+00
-1.603500E-02,-2.080000E+00
-1.603000E-02,-2.160000E+00
-1.602500E-02,-2.160000E+00
-1.602000E-02,-2.080000E+00
-1.601500E-02,-2.080000E+00
-1.601000E-02,-2.080000E+00
-1.600500E-02,-2.080000E+00
-1.600000E-02,-2.080000E+00
-1.599500E-02,-2.160000E+00
-1.599000E-02,-2.080000E+00
-1.598500E-02,-2.160000E+00
-1.598000E-02,-2.160000E+00
-1.597500E-02,-2.160000E+00
-1.597000E-02,-2.080000E+00
-1.596500E-02,-2.160000E+00
-1.596000E-02,-2.160000E+00
-1.595500E-02,-2.160000E+00
-1.595000E-02,-2.080000E+00
-1.594500E-02,-2.160000E+00
-1.594000E-02,-2.160000E+00
-1.593500E-02,-2.080000E+00
-1.593000E-02,-2.080000E+00
-1.592500E-02,-2.080000E+00
-1.592000E-02,-2.080000E+00
-1.591500E-02,-2.080000E+00
-1.591000E-02,-2.080000E+00
-1.590500E-02,-2.160000E+00
-1.590000E-02,-2.160000E+00
-1.589500E-02,-2.080000E+00
-1.589000E-02,-2.080000E+00
-1.588500E-02,-2.160000E+00
-1.588000E-02,-2.080000E+00
-1.587500E-02,-2.160000E+00
-1.587000E-02,-2.160000E+00
-1.586500E-02,-2.000000E+00
-1.586000E-02,-2.160000E+00
-1.585500E-02,-2.080000E+00
-1.585000E-02,-2.160000E+00
-1.584500E-02,-2.080000E+00
-1.584000E-02,-2.080000E+00
-1.583500E-02,-2.160000E+00
-1.583000E-02,-2.080000E+00
-1.582500E-02,-2.080000E+00
-1.582000E-02,-2.080000E+00
-1.581500E-02,-2.080000E+00
-1.581000E-02,-2.160000E+00
-1.580500E-02,-2.080000E+00
-1.580000E-02,-2.080000E+00
-1.579500E-02,-2.080000E+00
-1.579000E-02,-2.160000E+00
-1.578500E-02,-2.080000E+00
-1.578000E-02,-2.080000E+00
-1.577500E-02,-2.080000E+00
-1.577000E-02,-2.000000E+00
-1.576500E-02,-2.160000E+00
-1.576000E-02,-2.080000E+00
-1.575500E-02,-2.080000E+00
-1.575000E-02,-2.080000E+00
-1.574500E-02,-2.080000E+00
-1.574000E-02,-2.160000E+00
-1.573500E-02,-2.080000E+00
-1.573000E-02,-2.080000E+00
-1.572500E-02,-2.080000E+00
-1.572000E-02,-2.080000E+00
-1.571500E-02,-2.080000E+00
-1.571000E-02,-2.080000E+00
-1.570500E-02,-2.080000E+00
-1.570000E-02,-2.080000E+00
-1.569500E-02,-2.080000E+00
-1.569000E-02,-2.080000E+00
-1.568500E-02,-2.080000E+00
-1.568000E-02,-2.080000E+00
-1.567500E-02,-2.080000E+00
-1.567000E-02,-2.080000E+00
-1.566500E-02,-2.080000E+00
-1.566000E-02,-2.080000E+00
-1.565500E-02,-2.080000E+00
-1.565000E-02,-2.080000E+00
-1.564500E-02,-2.080000E+00
-1.564000E-02,-2.080000E+00
-1.563500E-02,-2.000000E+00
-1.563000E-02,-2.080000E+00
-1.562500E-02,-2.080000E+00
-1.562000E-02,-2.080000E+00
-1.561500E-02,-2.080000E+00
-1.561000E-02,-2.080000E+00
-1.560500E-02,-2.160000E+00
-1.560000E-02,-2.080000E+00
-1.559500E-02,-2.080000E+00
-1.559000E-02,-2.080000E+00
-1.558500E-02,-2.080000E+00
-1.558000E-02,-2.080000E+00
-1.557500E-02,-2.080000E+00
-1.557000E-02,-2.080000E+00
-1.556500E-02,-2.080000E+00
-1.556000E-02,-2.080000E+00
-1.555500E-02,-2.080000E+00
-1.555000E-02,-2.000000E+00
-1.554500E-02,-2.080000E+00
-1.554000E-02,-2.000000E+00
-1.553500E-02,-2.080000E+00
-1.553000E-02,-2.080000E+00
-1.552500E-02,-2.080000E+00
-1.552000E-02,-2.080000E+00
-1.551500E-02,-2.000000E+00
-1.551000E-02,-2.080000E+00
-1.550500E-02,-2.080000E+00
-1.550000E-02,-2.080000E+00
-1.549500E-02,-2.080000E+00
-1.549000E-02,-2.000000E+00
-1.548500E-02,-2.080000E+00
-1.548000E-02,-2.080000E+00
-1.547500E-02,-2.080000E+00
-1.547000E-02,-2.000000E+00
-1.546500E-02,-2.000000E+00
-1.546000E-02,-2.080000E+00
-1.545500E-02,-2.000000E+00
-1.545000E-02,-2.080000E+00
-1.544500E-02,-2.000000E+00
-1.544000E-02,-2.000000E+00
-1.543500E-02,-2.080000E+00
-1.543000E-02,-2.000000E+00
-1.542500E-02,-2.080000E+00
-1.542000E-02,-2.080000E+00
-1.541500E-02,-2.000000E+00
-1.541000E-02,-2.080000E+00
-1.540500E-02,-2.080000E+00
-1.540000E-02,-2.080000E+00
-1.539500E-02,-2.080000E+00
-1.539000E-02,-2.000000E+00
-1.538500E-02,-2.080000E+00
-1.538000E-02,-2.080000E+00
-1.537500E-02,-2.000000E+00
-1.537000E-02,-2.080000E+00
-1.536500E-02,-2.080000E+00
-1.536000E-02,-2.000000E+00
-1.535500E-02,-2.080000E+00
-1.535000E-02,-2.000000E+00
-1.534500E-02,-2.080000E+00
-1.534000E-02,-2.000000E+00
-1.533500E-02,-2.000000E+00
-1.533000E-02,-2.080000E+00
-1.532500E-02,-2.080000E+00
-1.532000E-02,-2.080000E+00
-1.531500E-02,-2.080000E+00
-1.531000E-02,-2.000000E+00
-1.530500E-02,-2.080000E+00
-1.530000E-02,-2.080000E+00
-1.529500E-02,-2.080000E+00
-1.529000E-02,-2.000000E+00
-1.528500E-02,-2.000000E+00
-1.528000E-02,-2.000000E+00
-1.527500E-02,-2.080000E+00
-1.527000E-02,-2.000000E+00
-1.526500E-02,-2.080000E+00
-1.526000E-02,-2.000000E+00
-1.525500E-02,-2.000000E+00
-1.525000E-02,-2.000000E+00
-1.524500E-02,-2.000000E+00
-1.524000E-02,-2.000000E+00
-1.523500E-02,-2.000000E+00
-1.523000E-02,-2.000000E+00
-1.522500E-02,-2.000000E+00
-1.522000E-02,-2.080000E+00
-1.521500E-02,-2.000000E+00
-1.521000E-02,-2.000000E+00
-1.520500E-02,-2.000000E+00
-1.520000E-02,-2.000000E+00
-1.519500E-02,-2.000000E+00
-1.519000E-02,-2.000000E+00
-1.518500E-02,-2.000000E+00
-1.518000E-02,-2.080000E+00
-1.517500E-02,-2.000000E+00
-1.517000E-02,-2.000000E+00
-1.516500E-02,-2.000000E+00
-1.516000E-02,-2.000000E+00
-1.515500E-02,-2.000000E+00
-1.515000E-02,-2.000000E+00
-1.514500E-02,-2.000000E+00
-1.514000E-02,-2.000000E+00
-1.513500E-02,-2.000000E+00
-1.513000E-02,-2.000000E+00
-1.512500E-02,-2.000000E+00
-1.512000E-02,-2.080000E+00
-1.511500E-02,-2.000000E+00
-1.511000E-02,-2.000000E+00
-1.510500E-02,-2.000000E+00
-1.510000E-02,-2.000000E+00
-1.509500E-02,-2.000000E+00
-1.509000E-02,-2.000000E+00
-1.508500E-02,-2.000000E+00
-1.508000E-02,-2.000000E+00
-1.507500E-02,-2.000000E+00
-1.507000E-02,-1.920000E+00
-1.506500E-02,-2.080000E+00
-1.506000E-02,-2.000000E+00
-1.505500E-02,-2.000000E+00
-1.505000E-02,-2.000000E+00
-1.504500E-02,-2.000000E+00
-1.504000E-02,-2.000000E+00
-1.503500E-02,-2.000000E+00
-1.503000E-02,-2.000000E+00
-1.502500E-02,-2.000000E+00
-1.502000E-02,-1.920000E+00
-1.501500E-02,-2.000000E+00
-1.501000E-02,-2.000000E+00
-1.500500E-02,-2.000000E+00
-1.500000E-02,-2.000000E+00
-1.499500E-02,-2.000000E+00
-1.499000E-02,-2.000000E+00
-1.498500E-02,-2.000000E+00
-1.498000E-02,-2.080000E+00
-1.497500E-02,-2.000000E+00
-1.497000E-02,-2.000000E+00
-1.496500E-02,-2.000000E+00
-1.496000E-02,-2.000000E+00
-1.495500E-02,-2.000000E+00
-1.495000E-02,-2.000000E+00
-1.494500E-02,-2.000000E+00
-1.494000E-02,-2.000000E+00
-1.493500E-02,-2.000000E+00
-1.493000E-02,-1.920000E+00
-1.492500E-02,-1.920000E+00
-1.492000E-02,-2.000000E+00
-1.491500E-02,-2.000000E+00
-1.491000E-02,-2.000000E+00
-1.490500E-02,-2.000000E+00
-1.490000E-02,-2.000000E+00
-1.489500E-02,-1.920000E+00
