Spectroscopy/data/doppler1.csv

Record Length,Analog:7000
Sample Interval,CH:0.0000099999997
Vertical Units,CH1:V CH2:V CH4:V,,,
Vertical Scale,CH1:+1.000000E+00 CH2:+1.000000E-01 CH4:+5.000000E-01,,,
Vertical Offset,CH1:-4.000000E+00 CH2:+0.000000E+00 CH4:+0.000000E+00,,,
Horizontal Units,us,,,
Horizontal Scale,5000.0000000000,,,
Model Number,SDS1204X-E,,,
Serial Number,SDSMMEBQ4R4722,,,1
Software Version,8.1.6.1.35R2,,,
Source,CH1,CH2,CH4
Second,Volt,Volt,Volt
-3.500000E-02,+3.600000E+00,-1.960000E-01,+7.000000E-01
-3.499000E-02,+3.640000E+00,-1.920000E-01,+7.200000E-01
-3.498000E-02,+3.680000E+00,-1.920000E-01,+7.200000E-01
-3.497000E-02,+3.720000E+00,-1.920000E-01,+7.200000E-01
-3.496000E-02,+3.720000E+00,-1.920000E-01,+7.400000E-01
-3.495000E-02,+3.760000E+00,-1.920000E-01,+7.200000E-01
-3.494000E-02,+3.800000E+00,-1.920000E-01,+7.200000E-01
-3.493000E-02,+3.800000E+00,-1.960000E-01,+7.200000E-01
-3.492000E-02,+3.840000E+00,-1.920000E-01,+7.200000E-01
-3.491000E-02,+3.840000E+00,-1.960000E-01,+7.200000E-01
-3.490000E-02,+3.880000E+00,-1.960000E-01,+7.200000E-01
-3.489000E-02,+3.880000E+00,-1.920000E-01,+7.200000E-01
-3.488000E-02,+3.920000E+00,-1.920000E-01,+7.000000E-01
-3.487000E-02,+3.920000E+00,-1.960000E-01,+7.000000E-01
-3.486000E-02,+3.920000E+00,-1.920000E-01,+7.200000E-01
-3.485000E-02,+3.920000E+00,-1.960000E-01,+7.200000E-01
-3.484000E-02,+3.920000E+00,-1.960000E-01,+7.200000E-01
-3.483000E-02,+3.920000E+00,-1.960000E-01,+7.200000E-01
-3.482000E-02,+3.960000E+00,-1.960000E-01,+7.200000E-01
-3.481000E-02,+3.920000E+00,-1.920000E-01,+7.400000E-01
-3.480000E-02,+3.920000E+00,-1.920000E-01,+7.200000E-01
-3.479000E-02,+3.920000E+00,-1.880000E-01,+7.200000E-01
-3.478000E-02,+3.880000E+00,-1.920000E-01,+7.400000E-01
-3.477000E-02,+3.880000E+00,-1.920000E-01,+7.200000E-01
-3.476000E-02,+3.840000E+00,-1.880000E-01,+7.200000E-01
-3.475000E-02,+3.840000E+00,-1.920000E-01,+7.200000E-01
-3.474000E-02,+3.800000E+00,-1.920000E-01,+7.200000E-01
-3.473000E-02,+3.800000E+00,-1.920000E-01,+7.200000E-01
-3.472000E-02,+3.760000E+00,-1.920000E-01,+7.200000E-01
-3.471000E-02,+3.760000E+00,-1.880000E-01,+7.200000E-01
-3.470000E-02,+3.720000E+00,-1.880000E-01,+7.200000E-01
-3.469000E-02,+3.680000E+00,-1.880000E-01,+7.200000E-01
-3.468000E-02,+3.640000E+00,-1.920000E-01,+7.200000E-01
-3.467000E-02,+3.600000E+00,-1.920000E-01,+7.200000E-01
-3.466000E-02,+3.560000E+00,-1.880000E-01,+7.400000E-01
-3.465000E-02,+3.480000E+00,-1.920000E-01,+7.200000E-01
-3.464000E-02,+3.480000E+00,-1.920000E-01,+7.200000E-01
-3.463000E-02,+3.440000E+00,-1.920000E-01,+7.200000E-01
-3.462000E-02,+3.360000E+00,-1.880000E-01,+7.200000E-01
-3.461000E-02,+3.320000E+00,-1.920000E-01,+7.200000E-01
-3.460000E-02,+3.280000E+00,-1.920000E-01,+7.200000E-01
-3.459000E-02,+3.280000E+00,-1.880000E-01,+7.200000E-01
-3.458000E-02,+3.160000E+00,-1.880000E-01,+7.200000E-01
-3.457000E-02,+3.080000E+00,-1.920000E-01,+7.200000E-01
-3.456000E-02,+3.040000E+00,-1.920000E-01,+7.200000E-01
-3.455000E-02,+3.000000E+00,-1.920000E-01,+7.200000E-01
-3.454000E-02,+2.960000E+00,-1.920000E-01,+7.400000E-01
-3.453000E-02,+2.880000E+00,-1.920000E-01,+7.200000E-01
-3.452000E-02,+2.800000E+00,-1.920000E-01,+7.200000E-01
-3.451000E-02,+2.720000E+00,-1.920000E-01,+7.200000E-01
-3.450000E-02,+2.720000E+00,-1.880000E-01,+7.200000E-01
-3.449000E-02,+2.680000E+00,-1.840000E-01,+7.200000E-01
-3.448000E-02,+2.560000E+00,-1.840000E-01,+7.200000E-01
-3.447000E-02,+2.520000E+00,-1.840000E-01,+7.200000E-01
-3.446000E-02,+2.440000E+00,-1.840000E-01,+7.200000E-01
-3.445000E-02,+2.400000E+00,-1.880000E-01,+7.200000E-01
-3.444000E-02,+2.400000E+00,-1.880000E-01,+7.200000E-01
-3.443000E-02,+2.280000E+00,-1.880000E-01,+7.200000E-01
-3.442000E-02,+2.240000E+00,-1.880000E-01,+7.200000E-01
-3.441000E-02,+2.160000E+00,-1.840000E-01,+7.200000E-01
-3.440000E-02,+2.120000E+00,-1.840000E-01,+7.200000E-01
-3.439000E-02,+2.080000E+00,-1.880000E-01,+7.200000E-01
-3.438000E-02,+2.000000E+00,-1.840000E-01,+7.200000E-01
-3.437000E-02,+2.000000E+00,-1.880000E-01,+7.400000E-01
-3.436000E-02,+1.920000E+00,-1.840000E-01,+7.200000E-01
-3.435000E-02,+1.920000E+00,-1.880000E-01,+7.200000E-01
-3.434000E-02,+1.840000E+00,-1.840000E-01,+7.200000E-01
-3.433000E-02,+1.840000E+00,-1.880000E-01,+7.200000E-01
-3.432000E-02,+1.760000E+00,-1.880000E-01,+7.200000E-01
-3.431000E-02,+1.720000E+00,-1.840000E-01,+7.200000E-01
-3.430000E-02,+1.680000E+00,-1.840000E-01,+7.200000E-01
-3.429000E-02,+1.680000E+00,-1.880000E-01,+7.200000E-01
-3.428000E-02,+1.640000E+00,-1.880000E-01,+7.200000E-01
-3.427000E-02,+1.640000E+00,-1.840000E-01,+7.200000E-01
-3.426000E-02,+1.560000E+00,-1.880000E-01,+7.200000E-01
-3.425000E-02,+1.560000E+00,-1.880000E-01,+7.200000E-01
-3.424000E-02,+1.520000E+00,-1.840000E-01,+7.200000E-01
-3.423000E-02,+1.560000E+00,-1.840000E-01,+7.200000E-01
-3.422000E-02,+1.520000E+00,-1.880000E-01,+7.200000E-01
-3.421000E-02,+1.520000E+00,-1.800000E-01,+7.200000E-01
-3.420000E-02,+1.480000E+00,-1.840000E-01,+7.200000E-01
-3.419000E-02,+1.520000E+00,-1.840000E-01,+7.200000E-01
-3.418000E-02,+1.560000E+00,-1.800000E-01,+7.400000E-01
-3.417000E-02,+1.560000E+00,-1.800000E-01,+7.200000E-01
-3.416000E-02,+1.560000E+00,-1.800000E-01,+7.200000E-01
-3.415000E-02,+1.560000E+00,-1.840000E-01,+7.400000E-01
-3.414000E-02,+1.600000E+00,-1.840000E-01,+7.200000E-01
-3.413000E-02,+1.560000E+00,-1.840000E-01,+7.200000E-01
-3.412000E-02,+1.600000E+00,-1.800000E-01,+7.200000E-01
-3.411000E-02,+1.600000E+00,-1.840000E-01,+7.200000E-01
-3.410000E-02,+1.680000E+00,-1.840000E-01,+7.200000E-01
-3.409000E-02,+1.680000E+00,-1.840000E-01,+7.200000E-01
-3.408000E-02,+1.720000E+00,-1.840000E-01,+7.200000E-01
-3.407000E-02,+1.760000E+00,-1.800000E-01,+7.200000E-01
-3.406000E-02,+1.760000E+00,-1.840000E-01,+7.200000E-01
-3.405000E-02,+1.840000E+00,-1.840000E-01,+7.200000E-01
-3.404000E-02,+1.840000E+00,-1.840000E-01,+7.200000E-01
-3.403000E-02,+1.920000E+00,-1.800000E-01,+7.200000E-01
-3.402000E-02,+1.960000E+00,-1.800000E-01,+7.200000E-01
-3.401000E-02,+1.960000E+00,-1.840000E-01,+7.200000E-01
-3.400000E-02,+2.040000E+00,-1.800000E-01,+7.400000E-01
-3.399000E-02,+2.080000E+00,-1.840000E-01,+7.200000E-01
-3.398000E-02,+2.160000E+00,-1.800000E-01,+7.200000E-01
-3.397000E-02,+2.200000E+00,-1.840000E-01,+7.200000E-01
-3.396000E-02,+2.320000E+00,-1.840000E-01,+7.400000E-01
-3.395000E-02,+2.360000E+00,-1.840000E-01,+7.400000E-01
-3.394000E-02,+2.400000E+00,-1.800000E-01,+7.200000E-01
-3.393000E-02,+2.440000E+00,-1.800000E-01,+7.200000E-01
-3.392000E-02,+2.520000E+00,-1.800000E-01,+7.200000E-01
-3.391000E-02,+2.600000E+00,-1.800000E-01,+7.200000E-01
-3.390000E-02,+2.640000E+00,-1.800000E-01,+7.200000E-01
-3.389000E-02,+2.680000E+00,-1.800000E-01,+7.200000E-01
-3.388000E-02,+2.760000E+00,-1.760000E-01,+7.200000E-01
-3.387000E-02,+2.800000E+00,-1.800000E-01,+7.200000E-01
-3.386000E-02,+2.920000E+00,-1.760000E-01,+7.200000E-01
-3.385000E-02,+2.920000E+00,-1.800000E-01,+7.200000E-01
-3.384000E-02,+3.000000E+00,-1.800000E-01,+7.200000E-01
-3.383000E-02,+3.080000E+00,-1.760000E-01,+7.400000E-01
-3.382000E-02,+3.120000E+00,-1.800000E-01,+7.200000E-01
-3.381000E-02,+3.160000E+00,-1.800000E-01,+7.200000E-01
-3.380000E-02,+3.240000E+00,-1.760000E-01,+7.200000E-01
-3.379000E-02,+3.280000E+00,-1.760000E-01,+7.200000E-01
-3.378000E-02,+3.360000E+00,-1.800000E-01,+7.200000E-01
-3.377000E-02,+3.400000E+00,-1.800000E-01,+7.400000E-01
-3.376000E-02,+3.480000E+00,-1.800000E-01,+7.200000E-01
-3.375000E-02,+3.520000E+00,-1.760000E-01,+7.400000E-01
-3.374000E-02,+3.560000E+00,-1.760000E-01,+7.400000E-01
-3.373000E-02,+3.600000E+00,-1.800000E-01,+7.200000E-01
-3.372000E-02,+3.680000E+00,-1.800000E-01,+7.200000E-01
-3.371000E-02,+3.680000E+00,-1.800000E-01,+7.200000E-01
-3.370000E-02,+3.720000E+00,-1.800000E-01,+7.200000E-01
-3.369000E-02,+3.800000E+00,-1.760000E-01,+7.200000E-01
-3.368000E-02,+3.800000E+00,-1.800000E-01,+7.200000E-01
-3.367000E-02,+3.840000E+00,-1.720000E-01,+7.200000E-01
-3.366000E-02,+3.880000E+00,-1.800000E-01,+7.200000E-01
-3.365000E-02,+3.880000E+00,-1.760000E-01,+7.200000E-01
-3.364000E-02,+3.920000E+00,-1.800000E-01,+7.200000E-01
-3.363000E-02,+3.960000E+00,-1.720000E-01,+7.200000E-01
-3.362000E-02,+3.960000E+00,-1.800000E-01,+7.400000E-01
-3.361000E-02,+4.000000E+00,-1.760000E-01,+7.400000E-01
-3.360000E-02,+4.000000E+00,-1.760000E-01,+7.200000E-01
-3.359000E-02,+4.000000E+00,-1.720000E-01,+7.200000E-01
-3.358000E-02,+4.000000E+00,-1.720000E-01,+7.200000E-01
-3.357000E-02,+4.000000E+00,-1.760000E-01,+7.200000E-01
-3.356000E-02,+4.000000E+00,-1.720000E-01,+7.200000E-01
-3.355000E-02,+4.000000E+00,-1.720000E-01,+7.200000E-01
-3.354000E-02,+4.000000E+00,-1.720000E-01,+7.200000E-01
-3.353000E-02,+4.000000E+00,-1.760000E-01,+7.200000E-01
-3.352000E-02,+4.000000E+00,-1.720000E-01,+7.200000E-01
-3.351000E-02,+3.960000E+00,-1.720000E-01,+7.400000E-01
-3.350000E-02,+3.960000E+00,-1.720000E-01,+7.400000E-01
-3.349000E-02,+3.960000E+00,-1.720000E-01,+7.400000E-01
-3.348000E-02,+3.920000E+00,-1.760000E-01,+7.200000E-01
-3.347000E-02,+3.960000E+00,-1.720000E-01,+7.200000E-01
-3.346000E-02,+3.920000E+00,-1.720000E-01,+7.200000E-01
-3.345000E-02,+3.880000E+00,-1.720000E-01,+7.400000E-01
-3.344000E-02,+3.840000E+00,-1.720000E-01,+7.200000E-01
-3.343000E-02,+3.800000E+00,-1.720000E-01,+7.400000E-01
-3.342000E-02,+3.760000E+00,-1.720000E-01,+7.400000E-01
-3.341000E-02,+3.720000E+00,-1.720000E-01,+7.200000E-01
-3.340000E-02,+3.720000E+00,-1.680000E-01,+7.400000E-01
-3.339000E-02,+3.680000E+00,-1.720000E-01,+7.200000E-01
-3.338000E-02,+3.600000E+00,-1.760000E-01,+7.600000E-01
-3.337000E-02,+3.560000E+00,-1.720000E-01,+7.400000E-01
-3.336000E-02,+3.520000E+00,-1.760000E-01,+7.400000E-01
-3.335000E-02,+3.480000E+00,-1.680000E-01,+7.200000E-01
-3.334000E-02,+3.480000E+00,-1.680000E-01,+7.600000E-01
-3.333000E-02,+3.360000E+00,-1.720000E-01,+7.400000E-01
-3.332000E-02,+3.320000E+00,-1.680000E-01,+7.400000E-01
-3.331000E-02,+3.280000E+00,-1.720000E-01,+7.400000E-01
-3.330000E-02,+3.200000E+00,-1.680000E-01,+7.200000E-01
-3.329000E-02,+3.160000E+00,-1.720000E-01,+7.400000E-01
-3.328000E-02,+3.080000E+00,-1.720000E-01,+7.400000E-01
-3.327000E-02,+3.040000E+00,-1.680000E-01,+7.400000E-01
-3.326000E-02,+3.000000E+00,-1.720000E-01,+7.400000E-01
-3.325000E-02,+2.920000E+00,-1.680000E-01,+7.400000E-01
-3.324000E-02,+2.880000E+00,-1.680000E-01,+7.400000E-01
-3.323000E-02,+2.880000E+00,-1.680000E-01,+7.400000E-01
-3.322000E-02,+2.760000E+00,-1.680000E-01,+7.400000E-01
-3.321000E-02,+2.760000E+00,-1.680000E-01,+7.400000E-01
-3.320000E-02,+2.640000E+00,-1.720000E-01,+7.600000E-01
-3.319000E-02,+2.600000E+00,-1.720000E-01,+7.400000E-01
-3.318000E-02,+2.560000E+00,-1.680000E-01,+7.400000E-01
-3.317000E-02,+2.520000E+00,-1.720000E-01,+7.400000E-01
-3.316000E-02,+2.440000E+00,-1.720000E-01,+7.400000E-01
-3.315000E-02,+2.400000E+00,-1.680000E-01,+7.600000E-01
-3.314000E-02,+2.320000E+00,-1.680000E-01,+7.400000E-01
-3.313000E-02,+2.320000E+00,-1.640000E-01,+7.400000E-01
-3.312000E-02,+2.240000E+00,-1.680000E-01,+7.400000E-01
-3.311000E-02,+2.160000E+00,-1.680000E-01,+7.400000E-01
-3.310000E-02,+2.120000E+00,-1.680000E-01,+7.400000E-01
-3.309000E-02,+2.080000E+00,-1.680000E-01,+7.400000E-01
-3.308000E-02,+2.080000E+00,-1.680000E-01,+7.400000E-01
-3.307000E-02,+2.000000E+00,-1.680000E-01,+7.400000E-01
-3.306000E-02,+1.960000E+00,-1.720000E-01,+7.400000E-01
-3.305000E-02,+1.920000E+00,-1.680000E-01,+7.400000E-01
-3.304000E-02,+1.920000E+00,-1.680000E-01,+7.400000E-01
-3.303000E-02,+1.880000E+00,-1.680000E-01,+7.400000E-01
-3.302000E-02,+1.800000E+00,-1.680000E-01,+7.400000E-01
-3.301000E-02,+1.800000E+00,-1.640000E-01,+7.400000E-01
-3.300000E-02,+1.760000E+00,-1.640000E-01,+7.400000E-01
-3.299000E-02,+1.720000E+00,-1.680000E-01,+7.400000E-01
-3.298000E-02,+1.680000E+00,-1.680000E-01,+7.400000E-01
-3.297000E-02,+1.640000E+00,-1.680000E-01,+7.400000E-01
-3.296000E-02,+1.600000E+00,-1.680000E-01,+7.400000E-01
-3.295000E-02,+1.640000E+00,-1.680000E-01,+7.400000E-01
-3.294000E-02,+1.640000E+00,-1.680000E-01,+7.400000E-01
-3.293000E-02,+1.600000E+00,-1.640000E-01,+7.600000E-01
-3.292000E-02,+1.600000E+00,-1.680000E-01,+7.400000E-01
-3.291000E-02,+1.560000E+00,-1.680000E-01,+7.400000E-01
-3.290000E-02,+1.560000E+00,-1.640000E-01,+7.400000E-01
-3.289000E-02,+1.520000E+00,-1.640000E-01,+7.400000E-01
-3.288000E-02,+1.520000E+00,-1.640000E-01,+7.600000E-01
-3.287000E-02,+1.520000E+00,-1.680000E-01,+7.400000E-01
-3.286000E-02,+1.520000E+00,-1.680000E-01,+7.400000E-01
-3.285000E-02,+1.520000E+00,-1.680000E-01,+7.400000E-01
-3.284000E-02,+1.560000E+00,-1.680000E-01,+7.400000E-01
-3.283000E-02,+1.560000E+00,-1.680000E-01,+7.400000E-01
-3.282000E-02,+1.600000E+00,-1.680000E-01,+7.400000E-01
-3.281000E-02,+1.560000E+00,-1.640000E-01,+7.400000E-01
-3.280000E-02,+1.600000E+00,-1.640000E-01,+7.400000E-01
-3.279000E-02,+1.640000E+00,-1.640000E-01,+7.600000E-01
-3.278000E-02,+1.680000E+00,-1.600000E-01,+7.400000E-01
-3.277000E-02,+1.640000E+00,-1.640000E-01,+7.400000E-01
-3.276000E-02,+1.680000E+00,-1.600000E-01,+7.600000E-01
-3.275000E-02,+1.720000E+00,-1.640000E-01,+7.400000E-01
-3.274000E-02,+1.720000E+00,-1.640000E-01,+7.400000E-01
-3.273000E-02,+1.800000E+00,-1.600000E-01,+7.400000E-01
-3.272000E-02,+1.800000E+00,-1.600000E-01,+7.400000E-01
-3.271000E-02,+1.840000E+00,-1.600000E-01,+7.400000E-01
-3.270000E-02,+1.920000E+00,-1.640000E-01,+7.400000E-01
-3.269000E-02,+1.920000E+00,-1.600000E-01,+7.400000E-01
-3.268000E-02,+1.960000E+00,-1.600000E-01,+7.400000E-01
-3.267000E-02,+2.040000E+00,-1.640000E-01,+7.400000E-01
-3.266000E-02,+2.040000E+00,-1.640000E-01,+7.400000E-01
-3.265000E-02,+2.120000E+00,-1.600000E-01,+7.400000E-01
-3.264000E-02,+2.120000E+00,-1.600000E-01,+7.400000E-01
-3.263000E-02,+2.240000E+00,-1.640000E-01,+7.400000E-01
-3.262000E-02,+2.200000E+00,-1.640000E-01,+7.400000E-01
-3.261000E-02,+2.320000E+00,-1.640000E-01,+7.400000E-01
-3.260000E-02,+2.360000E+00,-1.600000E-01,+7.400000E-01
-3.259000E-02,+2.400000E+00,-1.640000E-01,+7.400000E-01
-3.258000E-02,+2.480000E+00,-1.600000E-01,+7.400000E-01
-3.257000E-02,+2.560000E+00,-1.600000E-01,+7.400000E-01
-3.256000E-02,+2.600000E+00,-1.640000E-01,+7.400000E-01
-3.255000E-02,+2.640000E+00,-1.600000E-01,+7.400000E-01
-3.254000E-02,+2.680000E+00,-1.640000E-01,+7.400000E-01
-3.253000E-02,+2.760000E+00,-1.640000E-01,+7.400000E-01
-3.252000E-02,+2.760000E+00,-1.640000E-01,+7.400000E-01
-3.251000E-02,+2.840000E+00,-1.600000E-01,+7.600000E-01
-3.250000E-02,+2.880000E+00,-1.560000E-01,+7.400000E-01
-3.249000E-02,+2.920000E+00,-1.640000E-01,+7.400000E-01
-3.248000E-02,+3.000000E+00,-1.600000E-01,+7.400000E-01
-3.247000E-02,+3.080000E+00,-1.600000E-01,+7.400000E-01
-3.246000E-02,+3.120000E+00,-1.560000E-01,+7.400000E-01
-3.245000E-02,+3.200000E+00,-1.600000E-01,+7.400000E-01
-3.244000E-02,+3.240000E+00,-1.560000E-01,+7.400000E-01
-3.243000E-02,+3.320000E+00,-1.600000E-01,+7.400000E-01
-3.242000E-02,+3.360000E+00,-1.600000E-01,+7.400000E-01
-3.241000E-02,+3.400000E+00,-1.600000E-01,+7.400000E-01
-3.240000E-02,+3.440000E+00,-1.600000E-01,+7.400000E-01
-3.239000E-02,+3.520000E+00,-1.560000E-01,+7.400000E-01
-3.238000E-02,+3.560000E+00,-1.600000E-01,+7.400000E-01
-3.237000E-02,+3.600000E+00,-1.600000E-01,+7.400000E-01
-3.236000E-02,+3.640000E+00,-1.600000E-01,+7.400000E-01
-3.235000E-02,+3.680000E+00,-1.560000E-01,+7.400000E-01
-3.234000E-02,+3.720000E+00,-1.600000E-01,+7.400000E-01
-3.233000E-02,+3.760000E+00,-1.600000E-01,+7.400000E-01
-3.232000E-02,+3.800000E+00,-1.600000E-01,+7.400000E-01
-3.231000E-02,+3.880000E+00,-1.600000E-01,+7.600000E-01
-3.230000E-02,+3.880000E+00,-1.600000E-01,+7.400000E-01
-3.229000E-02,+3.920000E+00,-1.560000E-01,+7.400000E-01
-3.228000E-02,+3.960000E+00,-1.560000E-01,+7.400000E-01
-3.227000E-02,+4.000000E+00,-1.600000E-01,+7.400000E-01
-3.226000E-02,+4.000000E+00,-1.600000E-01,+7.400000E-01
-3.225000E-02,+4.040000E+00,-1.600000E-01,+7.400000E-01
-3.224000E-02,+4.040000E+00,-1.600000E-01,+7.400000E-01
-3.223000E-02,+4.080000E+00,-1.600000E-01,+7.400000E-01
-3.222000E-02,+4.080000E+00,-1.560000E-01,+7.600000E-01
-3.221000E-02,+4.080000E+00,-1.600000E-01,+7.400000E-01
-3.220000E-02,+4.080000E+00,-1.600000E-01,+7.400000E-01
-3.219000E-02,+4.120000E+00,-1.560000E-01,+7.400000E-01
-3.218000E-02,+4.120000E+00,-1.560000E-01,+7.400000E-01
-3.217000E-02,+4.120000E+00,-1.600000E-01,+7.400000E-01
-3.216000E-02,+4.080000E+00,-1.560000E-01,+7.400000E-01
-3.215000E-02,+4.080000E+00,-1.560000E-01,+7.400000E-01
-3.214000E-02,+4.080000E+00,-1.560000E-01,+7.400000E-01
-3.213000E-02,+4.080000E+00,-1.560000E-01,+7.400000E-01
-3.212000E-02,+4.080000E+00,-1.560000E-01,+7.600000E-01
-3.211000E-02,+4.040000E+00,-1.520000E-01,+7.400000E-01
-3.210000E-02,+4.000000E+00,-1.560000E-01,+7.400000E-01
-3.209000E-02,+4.000000E+00,-1.560000E-01,+7.400000E-01
-3.208000E-02,+3.960000E+00,-1.560000E-01,+7.400000E-01
-3.207000E-02,+3.960000E+00,-1.520000E-01,+7.400000E-01
-3.206000E-02,+3.880000E+00,-1.520000E-01,+7.400000E-01
-3.205000E-02,+3.880000E+00,-1.520000E-01,+7.400000E-01
-3.204000E-02,+3.840000E+00,-1.560000E-01,+7.400000E-01
-3.203000E-02,+3.840000E+00,-1.560000E-01,+7.400000E-01
-3.202000E-02,+3.760000E+00,-1.560000E-01,+7.400000E-01
-3.201000E-02,+3.720000E+00,-1.520000E-01,+7.400000E-01
-3.200000E-02,+3.680000E+00,-1.520000E-01,+7.400000E-01
-3.199000E-02,+3.600000E+00,-1.560000E-01,+7.400000E-01
-3.198000E-02,+3.600000E+00,-1.560000E-01,+7.400000E-01
-3.197000E-02,+3.520000E+00,-1.560000E-01,+7.400000E-01
-3.196000E-02,+3.440000E+00,-1.560000E-01,+7.400000E-01
-3.195000E-02,+3.400000E+00,-1.520000E-01,+7.400000E-01
-3.194000E-02,+3.360000E+00,-1.520000E-01,+7.400000E-01
-3.193000E-02,+3.280000E+00,-1.560000E-01,+7.400000E-01
-3.192000E-02,+3.200000E+00,-1.520000E-01,+7.400000E-01
-3.191000E-02,+3.160000E+00,-1.520000E-01,+7.400000E-01
-3.190000E-02,+3.080000E+00,-1.560000E-01,+7.600000E-01
-3.189000E-02,+3.040000E+00,-1.560000E-01,+7.600000E-01
-3.188000E-02,+2.960000E+00,-1.520000E-01,+7.400000E-01
-3.187000E-02,+2.880000E+00,-1.480000E-01,+7.400000E-01
-3.186000E-02,+2.840000E+00,-1.480000E-01,+7.600000E-01
-3.185000E-02,+2.760000E+00,-1.520000E-01,+7.600000E-01
-3.184000E-02,+2.680000E+00,-1.520000E-01,+7.600000E-01
-3.183000E-02,+2.600000E+00,-1.480000E-01,+7.600000E-01
-3.182000E-02,+2.600000E+00,-1.520000E-01,+7.600000E-01
-3.181000E-02,+2.480000E+00,-1.520000E-01,+7.400000E-01
-3.180000E-02,+2.480000E+00,-1.520000E-01,+7.600000E-01
-3.179000E-02,+2.360000E+00,-1.480000E-01,+7.400000E-01
-3.178000E-02,+2.320000E+00,-1.520000E-01,+7.600000E-01
-3.177000E-02,+2.240000E+00,-1.480000E-01,+7.600000E-01
-3.176000E-02,+2.200000E+00,-1.520000E-01,+7.400000E-01
-3.175000E-02,+2.120000E+00,-1.520000E-01,+7.600000E-01
-3.174000E-02,+2.120000E+00,-1.520000E-01,+7.600000E-01
-3.173000E-02,+2.000000E+00,-1.520000E-01,+7.600000E-01
-3.172000E-02,+2.040000E+00,-1.480000E-01,+7.800000E-01
-3.171000E-02,+1.920000E+00,-1.520000E-01,+7.400000E-01
-3.170000E-02,+1.880000E+00,-1.520000E-01,+7.600000E-01
-3.169000E-02,+1.840000E+00,-1.480000E-01,+7.600000E-01
-3.168000E-02,+1.800000E+00,-1.480000E-01,+7.600000E-01
-3.167000E-02,+1.760000E+00,-1.520000E-01,+7.600000E-01
-3.166000E-02,+1.720000E+00,-1.520000E-01,+7.600000E-01
-3.165000E-02,+1.680000E+00,-1.520000E-01,+7.600000E-01
-3.164000E-02,+1.640000E+00,-1.480000E-01,+7.600000E-01
-3.163000E-02,+1.680000E+00,-1.520000E-01,+7.600000E-01
-3.162000E-02,+1.680000E+00,-1.520000E-01,+7.600000E-01
-3.161000E-02,+1.600000E+00,-1.480000E-01,+7.600000E-01
-3.160000E-02,+1.600000E+00,-1.480000E-01,+7.600000E-01
-3.159000E-02,+1.560000E+00,-1.480000E-01,+7.600000E-01
-3.158000E-02,+1.560000E+00,-1.520000E-01,+7.600000E-01
-3.157000E-02,+1.600000E+00,-1.520000E-01,+7.600000E-01
-3.156000E-02,+1.560000E+00,-1.480000E-01,+7.600000E-01
-3.155000E-02,+1.560000E+00,-1.440000E-01,+7.600000E-01
-3.154000E-02,+1.600000E+00,-1.440000E-01,+7.600000E-01
-3.153000E-02,+1.600000E+00,-1.440000E-01,+7.600000E-01
-3.152000E-02,+1.640000E+00,-1.480000E-01,+7.800000E-01
