Spectroscopy/data/F_I.csv

Record Length,Analog:7000
Sample Interval,CH:0.0000099999997
Vertical Units,CH1:V,,,
Vertical Scale,CH1:+1.000000E+00,,,
Vertical Offset,CH1:-4.500000E+00,,,
Horizontal Units,us,,,
Horizontal Scale,5000.0000000000,,,
Model Number,SDS1204X-E,,,
Serial Number,SDSMMEBQ4R4722,,,
Software Version,8.1.6.1.35R2,,,
Source,CH1
Second,Volt
-3.500000E-02,+6.180000E+00
-3.499000E-02,+6.180000E+00
-3.498000E-02,+6.180000E+00
-3.497000E-02,+6.180000E+00
-3.496000E-02,+6.180000E+00
-3.495000E-02,+6.180000E+00
-3.494000E-02,+6.180000E+00
-3.493000E-02,+6.180000E+00
-3.492000E-02,+6.180000E+00
-3.491000E-02,+6.180000E+00
-3.490000E-02,+6.180000E+00
-3.489000E-02,+6.180000E+00
-3.488000E-02,+6.180000E+00
-3.487000E-02,+6.180000E+00
-3.486000E-02,+6.180000E+00
-3.485000E-02,+6.180000E+00
-3.484000E-02,+6.220000E+00
-3.483000E-02,+6.220000E+00
-3.482000E-02,+6.220000E+00
-3.481000E-02,+6.220000E+00
-3.480000E-02,+6.220000E+00
-3.479000E-02,+6.220000E+00
-3.478000E-02,+6.220000E+00
-3.477000E-02,+6.220000E+00
-3.476000E-02,+6.220000E+00
-3.475000E-02,+6.220000E+00
-3.474000E-02,+6.220000E+00
-3.473000E-02,+6.220000E+00
-3.472000E-02,+6.220000E+00
-3.471000E-02,+6.220000E+00
-3.470000E-02,+6.220000E+00
-3.469000E-02,+6.220000E+00
-3.468000E-02,+6.260000E+00
-3.467000E-02,+6.260000E+00
-3.466000E-02,+6.260000E+00
-3.465000E-02,+6.260000E+00
-3.464000E-02,+6.260000E+00
-3.463000E-02,+6.260000E+00
-3.462000E-02,+6.260000E+00
-3.461000E-02,+6.260000E+00
-3.460000E-02,+6.260000E+00
-3.459000E-02,+6.260000E+00
-3.458000E-02,+6.260000E+00
-3.457000E-02,+6.260000E+00
-3.456000E-02,+6.260000E+00
-3.455000E-02,+6.260000E+00
-3.454000E-02,+6.260000E+00
-3.453000E-02,+6.300000E+00
-3.452000E-02,+6.340000E+00
-3.451000E-02,+6.300000E+00
-3.450000E-02,+6.300000E+00
-3.449000E-02,+6.300000E+00
-3.448000E-02,+6.300000E+00
-3.447000E-02,+6.300000E+00
-3.446000E-02,+6.300000E+00
-3.445000E-02,+6.300000E+00
-3.444000E-02,+6.300000E+00
-3.443000E-02,+6.300000E+00
-3.442000E-02,+6.300000E+00
-3.441000E-02,+6.300000E+00
-3.440000E-02,+6.300000E+00
-3.439000E-02,+6.300000E+00
-3.438000E-02,+6.300000E+00
-3.437000E-02,+6.340000E+00
-3.436000E-02,+6.340000E+00
-3.435000E-02,+6.340000E+00
-3.434000E-02,+6.380000E+00
-3.433000E-02,+6.340000E+00
-3.432000E-02,+6.340000E+00
-3.431000E-02,+6.340000E+00
-3.430000E-02,+6.380000E+00
-3.429000E-02,+6.340000E+00
-3.428000E-02,+6.340000E+00
-3.427000E-02,+6.340000E+00
-3.426000E-02,+6.340000E+00
-3.425000E-02,+6.340000E+00
-3.424000E-02,+6.340000E+00
-3.423000E-02,+6.380000E+00
-3.422000E-02,+6.380000E+00
-3.421000E-02,+6.380000E+00
-3.420000E-02,+6.380000E+00
-3.419000E-02,+6.380000E+00
-3.418000E-02,+6.380000E+00
-3.417000E-02,+6.380000E+00
-3.416000E-02,+6.380000E+00
-3.415000E-02,+6.380000E+00
-3.414000E-02,+6.380000E+00
-3.413000E-02,+6.420000E+00
-3.412000E-02,+6.380000E+00
-3.411000E-02,+6.380000E+00
-3.410000E-02,+6.380000E+00
-3.409000E-02,+6.380000E+00
-3.408000E-02,+6.380000E+00
-3.407000E-02,+6.460000E+00
-3.406000E-02,+6.420000E+00
-3.405000E-02,+6.420000E+00
-3.404000E-02,+6.420000E+00
-3.403000E-02,+6.420000E+00
-3.402000E-02,+6.420000E+00
-3.401000E-02,+6.420000E+00
-3.400000E-02,+6.460000E+00
-3.399000E-02,+6.460000E+00
-3.398000E-02,+6.420000E+00
-3.397000E-02,+6.420000E+00
-3.396000E-02,+6.460000E+00
-3.395000E-02,+6.420000E+00
-3.394000E-02,+6.420000E+00
-3.393000E-02,+6.460000E+00
-3.392000E-02,+6.460000E+00
-3.391000E-02,+6.500000E+00
-3.390000E-02,+6.460000E+00
-3.389000E-02,+6.460000E+00
-3.388000E-02,+6.460000E+00
-3.387000E-02,+6.460000E+00
-3.386000E-02,+6.460000E+00
-3.385000E-02,+6.460000E+00
-3.384000E-02,+6.460000E+00
-3.383000E-02,+6.460000E+00
-3.382000E-02,+6.460000E+00
-3.381000E-02,+6.460000E+00
-3.380000E-02,+6.460000E+00
-3.379000E-02,+6.460000E+00
-3.378000E-02,+6.460000E+00
-3.377000E-02,+6.500000E+00
-3.376000E-02,+6.500000E+00
-3.375000E-02,+6.500000E+00
-3.374000E-02,+6.500000E+00
-3.373000E-02,+6.500000E+00
-3.372000E-02,+6.500000E+00
-3.371000E-02,+6.500000E+00
-3.370000E-02,+6.540000E+00
-3.369000E-02,+6.500000E+00
-3.368000E-02,+6.500000E+00
-3.367000E-02,+6.500000E+00
-3.366000E-02,+6.500000E+00
-3.365000E-02,+6.500000E+00
-3.364000E-02,+6.500000E+00
-3.363000E-02,+6.500000E+00
-3.362000E-02,+6.580000E+00
-3.361000E-02,+6.540000E+00
-3.360000E-02,+6.540000E+00
-3.359000E-02,+6.580000E+00
-3.358000E-02,+6.540000E+00
-3.357000E-02,+6.580000E+00
-3.356000E-02,+6.540000E+00
-3.355000E-02,+6.540000E+00
-3.354000E-02,+6.540000E+00
-3.353000E-02,+6.540000E+00
-3.352000E-02,+6.540000E+00
-3.351000E-02,+6.540000E+00
-3.350000E-02,+6.540000E+00
-3.349000E-02,+6.540000E+00
-3.348000E-02,+6.540000E+00
-3.347000E-02,+6.580000E+00
-3.346000E-02,+6.580000E+00
-3.345000E-02,+6.580000E+00
-3.344000E-02,+6.580000E+00
-3.343000E-02,+6.580000E+00
-3.342000E-02,+6.580000E+00
-3.341000E-02,+6.580000E+00
-3.340000E-02,+6.580000E+00
-3.339000E-02,+6.580000E+00
-3.338000E-02,+6.580000E+00
-3.337000E-02,+6.580000E+00
-3.336000E-02,+6.580000E+00
-3.335000E-02,+6.580000E+00
-3.334000E-02,+6.580000E+00
-3.333000E-02,+6.580000E+00
-3.332000E-02,+6.620000E+00
-3.331000E-02,+6.620000E+00
-3.330000E-02,+6.620000E+00
-3.329000E-02,+6.620000E+00
-3.328000E-02,+6.620000E+00
-3.327000E-02,+6.620000E+00
-3.326000E-02,+6.620000E+00
-3.325000E-02,+6.620000E+00
-3.324000E-02,+6.620000E+00
-3.323000E-02,+6.620000E+00
-3.322000E-02,+6.620000E+00
-3.321000E-02,+6.620000E+00
-3.320000E-02,+6.620000E+00
-3.319000E-02,+6.620000E+00
-3.318000E-02,+6.620000E+00
-3.317000E-02,+6.660000E+00
-3.316000E-02,+6.660000E+00
-3.315000E-02,+6.660000E+00
-3.314000E-02,+6.660000E+00
-3.313000E-02,+6.700000E+00
-3.312000E-02,+6.660000E+00
-3.311000E-02,+6.660000E+00
-3.310000E-02,+6.660000E+00
-3.309000E-02,+6.660000E+00
-3.308000E-02,+6.700000E+00
-3.307000E-02,+6.660000E+00
-3.306000E-02,+6.660000E+00
-3.305000E-02,+6.660000E+00
-3.304000E-02,+6.660000E+00
-3.303000E-02,+6.660000E+00
-3.302000E-02,+6.660000E+00
-3.301000E-02,+6.700000E+00
-3.300000E-02,+6.740000E+00
-3.299000E-02,+6.740000E+00
-3.298000E-02,+6.700000E+00
-3.297000E-02,+6.700000E+00
-3.296000E-02,+6.700000E+00
-3.295000E-02,+6.700000E+00
-3.294000E-02,+6.700000E+00
-3.293000E-02,+6.700000E+00
-3.292000E-02,+6.740000E+00
-3.291000E-02,+6.700000E+00
-3.290000E-02,+6.700000E+00
-3.289000E-02,+6.740000E+00
-3.288000E-02,+6.700000E+00
-3.287000E-02,+6.700000E+00
-3.286000E-02,+6.780000E+00
-3.285000E-02,+6.740000E+00
-3.284000E-02,+6.740000E+00
-3.283000E-02,+6.740000E+00
-3.282000E-02,+6.740000E+00
-3.281000E-02,+6.740000E+00
-3.280000E-02,+6.740000E+00
-3.279000E-02,+6.740000E+00
-3.278000E-02,+6.740000E+00
-3.277000E-02,+6.740000E+00
-3.276000E-02,+6.740000E+00
-3.275000E-02,+6.740000E+00
-3.274000E-02,+6.740000E+00
-3.273000E-02,+6.740000E+00
-3.272000E-02,+6.740000E+00
-3.271000E-02,+6.740000E+00
-3.270000E-02,+6.780000E+00
-3.269000E-02,+6.780000E+00
-3.268000E-02,+6.780000E+00
-3.267000E-02,+6.780000E+00
-3.266000E-02,+6.820000E+00
-3.265000E-02,+6.780000E+00
-3.264000E-02,+6.780000E+00
-3.263000E-02,+6.780000E+00
-3.262000E-02,+6.780000E+00
-3.261000E-02,+6.780000E+00
-3.260000E-02,+6.780000E+00
-3.259000E-02,+6.780000E+00
-3.258000E-02,+6.780000E+00
-3.257000E-02,+6.780000E+00
-3.256000E-02,+6.820000E+00
-3.255000E-02,+6.820000E+00
-3.254000E-02,+6.860000E+00
-3.253000E-02,+6.820000E+00
-3.252000E-02,+6.820000E+00
-3.251000E-02,+6.820000E+00
-3.250000E-02,+6.820000E+00
-3.249000E-02,+6.860000E+00
-3.248000E-02,+6.820000E+00
-3.247000E-02,+6.820000E+00
-3.246000E-02,+6.820000E+00
-3.245000E-02,+6.820000E+00
-3.244000E-02,+6.820000E+00
-3.243000E-02,+6.820000E+00
-3.242000E-02,+6.820000E+00
-3.241000E-02,+6.860000E+00
-3.240000E-02,+6.860000E+00
-3.239000E-02,+6.860000E+00
-3.238000E-02,+6.860000E+00
-3.237000E-02,+6.860000E+00
-3.236000E-02,+6.860000E+00
-3.235000E-02,+6.860000E+00
-3.234000E-02,+6.860000E+00
-3.233000E-02,+6.860000E+00
-3.232000E-02,+6.860000E+00
-3.231000E-02,+6.860000E+00
-3.230000E-02,+6.860000E+00
-3.229000E-02,+6.860000E+00
-3.228000E-02,+6.860000E+00
-3.227000E-02,+6.860000E+00
-3.226000E-02,+6.900000E+00
-3.225000E-02,+6.860000E+00
-3.224000E-02,+6.900000E+00
-3.223000E-02,+6.900000E+00
-3.222000E-02,+6.900000E+00
-3.221000E-02,+6.900000E+00
-3.220000E-02,+6.900000E+00
-3.219000E-02,+6.900000E+00
-3.218000E-02,+6.940000E+00
-3.217000E-02,+6.900000E+00
-3.216000E-02,+6.900000E+00
-3.215000E-02,+6.900000E+00
-3.214000E-02,+6.900000E+00
-3.213000E-02,+6.900000E+00
-3.212000E-02,+6.900000E+00
-3.211000E-02,+6.940000E+00
-3.210000E-02,+6.980000E+00
-3.209000E-02,+6.940000E+00
-3.208000E-02,+6.940000E+00
-3.207000E-02,+6.940000E+00
-3.206000E-02,+6.940000E+00
-3.205000E-02,+6.980000E+00
-3.204000E-02,+6.980000E+00
-3.203000E-02,+6.940000E+00
-3.202000E-02,+6.940000E+00
-3.201000E-02,+6.980000E+00
-3.200000E-02,+6.940000E+00
-3.199000E-02,+6.940000E+00
-3.198000E-02,+6.940000E+00
-3.197000E-02,+6.940000E+00
-3.196000E-02,+6.940000E+00
-3.195000E-02,+6.940000E+00
-3.194000E-02,+6.980000E+00
-3.193000E-02,+6.980000E+00
-3.192000E-02,+6.980000E+00
-3.191000E-02,+6.980000E+00
-3.190000E-02,+6.980000E+00
-3.189000E-02,+6.980000E+00
-3.188000E-02,+7.020000E+00
-3.187000E-02,+6.980000E+00
-3.186000E-02,+6.980000E+00
-3.185000E-02,+6.980000E+00
-3.184000E-02,+6.980000E+00
-3.183000E-02,+6.980000E+00
-3.182000E-02,+6.980000E+00
-3.181000E-02,+7.020000E+00
-3.180000E-02,+6.980000E+00
-3.179000E-02,+6.980000E+00
-3.178000E-02,+7.020000E+00
-3.177000E-02,+7.060000E+00
-3.176000E-02,+7.020000E+00
-3.175000E-02,+7.020000E+00
-3.174000E-02,+7.020000E+00
-3.173000E-02,+7.060000E+00
-3.172000E-02,+7.020000E+00
-3.171000E-02,+7.020000E+00
-3.170000E-02,+7.020000E+00
-3.169000E-02,+7.060000E+00
-3.168000E-02,+7.020000E+00
-3.167000E-02,+7.020000E+00
-3.166000E-02,+7.020000E+00
-3.165000E-02,+7.020000E+00
-3.164000E-02,+7.020000E+00
-3.163000E-02,+7.060000E+00
-3.162000E-02,+7.060000E+00
-3.161000E-02,+7.060000E+00
-3.160000E-02,+7.060000E+00
-3.159000E-02,+7.100000E+00
-3.158000E-02,+7.060000E+00
-3.157000E-02,+7.060000E+00
-3.156000E-02,+7.100000E+00
-3.155000E-02,+7.100000E+00
-3.154000E-02,+7.060000E+00
-3.153000E-02,+7.060000E+00
-3.152000E-02,+7.060000E+00
-3.151000E-02,+7.060000E+00
-3.150000E-02,+7.100000E+00
-3.149000E-02,+7.060000E+00
-3.148000E-02,+7.100000E+00
-3.147000E-02,+7.100000E+00
-3.146000E-02,+7.140000E+00
-3.145000E-02,+7.100000E+00
-3.144000E-02,+7.100000E+00
-3.143000E-02,+7.100000E+00
-3.142000E-02,+7.060000E+00
-3.141000E-02,+7.060000E+00
-3.140000E-02,+7.060000E+00
-3.139000E-02,+7.100000E+00
-3.138000E-02,+7.060000E+00
-3.137000E-02,+7.060000E+00
-3.136000E-02,+7.060000E+00
-3.135000E-02,+7.060000E+00
-3.134000E-02,+7.060000E+00
-3.133000E-02,+7.060000E+00
-3.132000E-02,+7.060000E+00
-3.131000E-02,+7.060000E+00
-3.130000E-02,+7.060000E+00
-3.129000E-02,+7.020000E+00
-3.128000E-02,+7.020000E+00
-3.127000E-02,+7.060000E+00
-3.126000E-02,+7.020000E+00
-3.125000E-02,+7.020000E+00
-3.124000E-02,+7.020000E+00
-3.123000E-02,+7.020000E+00
-3.122000E-02,+7.060000E+00
-3.121000E-02,+7.020000E+00
-3.120000E-02,+7.060000E+00
-3.119000E-02,+7.020000E+00
-3.118000E-02,+7.020000E+00
-3.117000E-02,+7.060000E+00
-3.116000E-02,+7.020000E+00
-3.115000E-02,+7.020000E+00
-3.114000E-02,+7.020000E+00
-3.113000E-02,+6.980000E+00
-3.112000E-02,+6.980000E+00
-3.111000E-02,+6.980000E+00
-3.110000E-02,+6.980000E+00
-3.109000E-02,+6.980000E+00
-3.108000E-02,+7.020000E+00
-3.107000E-02,+6.980000E+00
-3.106000E-02,+6.980000E+00
-3.105000E-02,+6.980000E+00
-3.104000E-02,+6.980000E+00
-3.103000E-02,+6.980000E+00
-3.102000E-02,+6.980000E+00
-3.101000E-02,+6.980000E+00
-3.100000E-02,+6.980000E+00
-3.099000E-02,+6.980000E+00
-3.098000E-02,+7.020000E+00
-3.097000E-02,+6.980000E+00
-3.096000E-02,+6.940000E+00
-3.095000E-02,+6.940000E+00
-3.094000E-02,+6.940000E+00
-3.093000E-02,+6.940000E+00
-3.092000E-02,+6.940000E+00
-3.091000E-02,+6.940000E+00
-3.090000E-02,+6.940000E+00
-3.089000E-02,+6.940000E+00
-3.088000E-02,+6.940000E+00
-3.087000E-02,+6.940000E+00
-3.086000E-02,+6.940000E+00
-3.085000E-02,+6.940000E+00
-3.084000E-02,+6.940000E+00
-3.083000E-02,+6.900000E+00
-3.082000E-02,+6.900000E+00
-3.081000E-02,+6.900000E+00
-3.080000E-02,+6.940000E+00
-3.079000E-02,+6.900000E+00
-3.078000E-02,+6.900000E+00
-3.077000E-02,+6.900000E+00
-3.076000E-02,+6.900000E+00
-3.075000E-02,+6.900000E+00
-3.074000E-02,+6.940000E+00
-3.073000E-02,+6.900000E+00
-3.072000E-02,+6.900000E+00
-3.071000E-02,+6.900000E+00
-3.070000E-02,+6.900000E+00
-3.069000E-02,+6.900000E+00
-3.068000E-02,+6.900000E+00
-3.067000E-02,+6.860000E+00
-3.066000E-02,+6.860000E+00
-3.065000E-02,+6.860000E+00
-3.064000E-02,+6.860000E+00
-3.063000E-02,+6.900000E+00
-3.062000E-02,+6.860000E+00
-3.061000E-02,+6.860000E+00
-3.060000E-02,+6.860000E+00
-3.059000E-02,+6.860000E+00
-3.058000E-02,+6.860000E+00
-3.057000E-02,+6.860000E+00
-3.056000E-02,+6.860000E+00
-3.055000E-02,+6.860000E+00
-3.054000E-02,+6.860000E+00
-3.053000E-02,+6.860000E+00
-3.052000E-02,+6.860000E+00
-3.051000E-02,+6.820000E+00
-3.050000E-02,+6.820000E+00
-3.049000E-02,+6.820000E+00
-3.048000E-02,+6.860000E+00
-3.047000E-02,+6.820000E+00
-3.046000E-02,+6.820000E+00
-3.045000E-02,+6.860000E+00
-3.044000E-02,+6.820000E+00
-3.043000E-02,+6.820000E+00
-3.042000E-02,+6.820000E+00
-3.041000E-02,+6.820000E+00
-3.040000E-02,+6.820000E+00
-3.039000E-02,+6.860000E+00
-3.038000E-02,+6.820000E+00
-3.037000E-02,+6.780000E+00
-3.036000E-02,+6.780000E+00
-3.035000E-02,+6.780000E+00
-3.034000E-02,+6.780000E+00
-3.033000E-02,+6.780000E+00
-3.032000E-02,+6.780000E+00
-3.031000E-02,+6.780000E+00
-3.030000E-02,+6.780000E+00
-3.029000E-02,+6.820000E+00
-3.028000E-02,+6.780000E+00
-3.027000E-02,+6.780000E+00
-3.026000E-02,+6.780000E+00
-3.025000E-02,+6.780000E+00
-3.024000E-02,+6.780000E+00
-3.023000E-02,+6.820000E+00
-3.022000E-02,+6.740000E+00
-3.021000E-02,+6.780000E+00
-3.020000E-02,+6.740000E+00
-3.019000E-02,+6.740000E+00
-3.018000E-02,+6.740000E+00
-3.017000E-02,+6.740000E+00
-3.016000E-02,+6.740000E+00
-3.015000E-02,+6.740000E+00
-3.014000E-02,+6.740000E+00
-3.013000E-02,+6.740000E+00
-3.012000E-02,+6.740000E+00
-3.011000E-02,+6.740000E+00
-3.010000E-02,+6.740000E+00
-3.009000E-02,+6.740000E+00
-3.008000E-02,+6.740000E+00
-3.007000E-02,+6.700000E+00
-3.006000E-02,+6.700000E+00
-3.005000E-02,+6.700000E+00
-3.004000E-02,+6.700000E+00
-3.003000E-02,+6.700000E+00
-3.002000E-02,+6.700000E+00
-3.001000E-02,+6.700000E+00
-3.000000E-02,+6.700000E+00
-2.999000E-02,+6.700000E+00
-2.998000E-02,+6.700000E+00
-2.997000E-02,+6.700000E+00
-2.996000E-02,+6.700000E+00
-2.995000E-02,+6.700000E+00
-2.994000E-02,+6.700000E+00
-2.993000E-02,+6.700000E+00
-2.992000E-02,+6.700000E+00
-2.991000E-02,+6.700000E+00
-2.990000E-02,+6.660000E+00
-2.989000E-02,+6.660000E+00
-2.988000E-02,+6.660000E+00
-2.987000E-02,+6.660000E+00
-2.986000E-02,+6.660000E+00
-2.985000E-02,+6.660000E+00
-2.984000E-02,+6.660000E+00
-2.983000E-02,+6.660000E+00
-2.982000E-02,+6.660000E+00
-2.981000E-02,+6.660000E+00
-2.980000E-02,+6.660000E+00
-2.979000E-02,+6.660000E+00
-2.978000E-02,+6.660000E+00
-2.977000E-02,+6.660000E+00
-2.976000E-02,+6.660000E+00
-2.975000E-02,+6.620000E+00
-2.974000E-02,+6.620000E+00
-2.973000E-02,+6.620000E+00
-2.972000E-02,+6.620000E+00
-2.971000E-02,+6.620000E+00
-2.970000E-02,+6.620000E+00
-2.969000E-02,+6.620000E+00
-2.968000E-02,+6.620000E+00
-2.967000E-02,+6.620000E+00
-2.966000E-02,+6.620000E+00
-2.965000E-02,+6.620000E+00
-2.964000E-02,+6.620000E+00
-2.963000E-02,+6.660000E+00
-2.962000E-02,+6.620000E+00
-2.961000E-02,+6.660000E+00
-2.960000E-02,+6.580000E+00
-2.959000E-02,+6.620000E+00
-2.958000E-02,+6.580000E+00
-2.957000E-02,+6.580000E+00
-2.956000E-02,+6.580000E+00
-2.955000E-02,+6.580000E+00
-2.954000E-02,+6.580000E+00
-2.953000E-02,+6.580000E+00
-2.952000E-02,+6.580000E+00
-2.951000E-02,+6.580000E+00
-2.950000E-02,+6.580000E+00
-2.949000E-02,+6.580000E+00
-2.948000E-02,+6.580000E+00
-2.947000E-02,+6.580000E+00
-2.946000E-02,+6.580000E+00
-2.945000E-02,+6.580000E+00
-2.944000E-02,+6.540000E+00
-2.943000E-02,+6.540000E+00
-2.942000E-02,+6.540000E+00
-2.941000E-02,+6.540000E+00
-2.940000E-02,+6.540000E+00
-2.939000E-02,+6.540000E+00
-2.938000E-02,+6.540000E+00
-2.937000E-02,+6.580000E+00
-2.936000E-02,+6.540000E+00
-2.935000E-02,+6.540000E+00
-2.934000E-02,+6.540000E+00
-2.933000E-02,+6.540000E+00
-2.932000E-02,+6.540000E+00
-2.931000E-02,+6.540000E+00
-2.930000E-02,+6.540000E+00
-2.929000E-02,+6.500000E+00
-2.928000E-02,+6.500000E+00
-2.927000E-02,+6.500000E+00
-2.926000E-02,+6.540000E+00
-2.925000E-02,+6.500000E+00
-2.924000E-02,+6.500000E+00
-2.923000E-02,+6.500000E+00
-2.922000E-02,+6.500000E+00
-2.921000E-02,+6.500000E+00
-2.920000E-02,+6.500000E+00
-2.919000E-02,+6.500000E+00
-2.918000E-02,+6.500000E+00
-2.917000E-02,+6.500000E+00
-2.916000E-02,+6.500000E+00
-2.915000E-02,+6.500000E+00
-2.914000E-02,+6.500000E+00
-2.913000E-02,+6.500000E+00
-2.912000E-02,+6.460000E+00
-2.911000E-02,+6.460000E+00
-2.910000E-02,+6.500000E+00
-2.909000E-02,+6.460000E+00
-2.908000E-02,+6.460000E+00
-2.907000E-02,+6.460000E+00
-2.906000E-02,+6.460000E+00
-2.905000E-02,+6.460000E+00
-2.904000E-02,+6.460000E+00
-2.903000E-02,+6.460000E+00
-2.902000E-02,+6.460000E+00
-2.901000E-02,+6.460000E+00
-2.900000E-02,+6.460000E+00
-2.899000E-02,+6.460000E+00
-2.898000E-02,+6.500000E+00
-2.897000E-02,+6.420000E+00
-2.896000E-02,+6.420000E+00
-2.895000E-02,+6.420000E+00
-2.894000E-02,+6.420000E+00
-2.893000E-02,+6.420000E+00
-2.892000E-02,+6.420000E+00
-2.891000E-02,+6.420000E+00
-2.890000E-02,+6.420000E+00
-2.889000E-02,+6.420000E+00
-2.888000E-02,+6.420000E+00
-2.887000E-02,+6.460000E+00
-2.886000E-02,+6.420000E+00
-2.885000E-02,+6.420000E+00
-2.884000E-02,+6.460000E+00
-2.883000E-02,+6.420000E+00
-2.882000E-02,+6.380000E+00
-2.881000E-02,+6.380000E+00
-2.880000E-02,+6.380000E+00
-2.879000E-02,+6.380000E+00
-2.878000E-02,+6.380000E+00
-2.877000E-02,+6.380000E+00
-2.876000E-02,+6.420000E+00
-2.875000E-02,+6.420000E+00
-2.874000E-02,+6.380000E+00
-2.873000E-02,+6.420000E+00
-2.872000E-02,+6.380000E+00
-2.871000E-02,+6.380000E+00
-2.870000E-02,+6.380000E+00
-2.869000E-02,+6.380000E+00
-2.868000E-02,+6.380000E+00
-2.867000E-02,+6.340000E+00
-2.866000E-02,+6.340000E+00
-2.865000E-02,+6.340000E+00
-2.864000E-02,+6.340000E+00
-2.863000E-02,+6.380000E+00
-2.862000E-02,+6.340000E+00
-2.861000E-02,+6.340000E+00
-2.860000E-02,+6.340000E+00
-2.859000E-02,+6.340000E+00
-2.858000E-02,+6.340000E+00
-2.857000E-02,+6.340000E+00
-2.856000E-02,+6.340000E+00
-2.855000E-02,+6.340000E+00
-2.854000E-02,+6.340000E+00
-2.853000E-02,+6.340000E+00
-2.852000E-02,+6.340000E+00
-2.851000E-02,+6.300000E+00
-2.850000E-02,+6.300000E+00
-2.849000E-02,+6.300000E+00
-2.848000E-02,+6.300000E+00
-2.847000E-02,+6.300000E+00
-2.846000E-02,+6.300000E+00
-2.845000E-02,+6.300000E+00
-2.844000E-02,+6.340000E+00
-2.843000E-02,+6.300000E+00
-2.842000E-02,+6.300000E+00
-2.841000E-02,+6.340000E+00
-2.840000E-02,+6.300000E+00
-2.839000E-02,+6.300000E+00
-2.838000E-02,+6.300000E+00
-2.837000E-02,+6.260000E+00
-2.836000E-02,+6.300000E+00
-2.835000E-02,+6.260000E+00
-2.834000E-02,+6.260000E+00
-2.833000E-02,+6.300000E+00
-2.832000E-02,+6.260000E+00
-2.831000E-02,+6.260000E+00
-2.830000E-02,+6.260000E+00
-2.829000E-02,+6.260000E+00
-2.828000E-02,+6.260000E+00
-2.827000E-02,+6.260000E+00
-2.826000E-02,+6.300000E+00
-2.825000E-02,+6.260000E+00
-2.824000E-02,+6.260000E+00
-2.823000E-02,+6.260000E+00
-2.822000E-02,+6.220000E+00
-2.821000E-02,+6.220000E+00
-2.820000E-02,+6.220000E+00
-2.819000E-02,+6.220000E+00
-2.818000E-02,+6.220000E+00
-2.817000E-02,+6.220000E+00
-2.816000E-02,+6.220000E+00
-2.815000E-02,+6.260000E+00
-2.814000E-02,+6.220000E+00
-2.813000E-02,+6.220000E+00
-2.812000E-02,+6.220000E+00
-2.811000E-02,+6.260000E+00
-2.810000E-02,+6.220000E+00
-2.809000E-02,+6.260000E+00
-2.808000E-02,+6.220000E+00
-2.807000E-02,+6.180000E+00
-2.806000E-02,+6.180000E+00
-2.805000E-02,+6.180000E+00
-2.804000E-02,+6.180000E+00
-2.803000E-02,+6.180000E+00
-2.802000E-02,+6.180000E+00
-2.801000E-02,+6.220000E+00
-2.800000E-02,+6.220000E+00
-2.799000E-02,+6.220000E+00
