Spectroscopy/data/L1.csv

Record Length,Analog:14000
Sample Interval,CH:0.0000199999995
Vertical Units,CH1:V,,,
Vertical Scale,CH1:+1.000000E+00,,,
Vertical Offset,CH1:-6.000000E-01,,,
Horizontal Units,us,,,
Horizontal Scale,20000.0000000000,,,
Model Number,SDS1204X-E,,,
Serial Number,SDSMMEBQ4R4722,,,
Software Version,8.1.6.1.35R2,,,
Source,CH1
Second,Volt
-1.400000E-01,+6.000000E-01
-1.399800E-01,+6.000000E-01
-1.399600E-01,+6.000000E-01
-1.399400E-01,+6.000000E-01
-1.399200E-01,+6.000000E-01
-1.399000E-01,+6.000000E-01
-1.398800E-01,+6.000000E-01
-1.398600E-01,+6.000000E-01
-1.398400E-01,+6.000000E-01
-1.398200E-01,+6.000000E-01
-1.398000E-01,+6.400000E-01
-1.397800E-01,+6.000000E-01
-1.397600E-01,+6.000000E-01
-1.397400E-01,+6.000000E-01
-1.397200E-01,+6.000000E-01
-1.397000E-01,+6.000000E-01
-1.396800E-01,+6.000000E-01
-1.396600E-01,+6.000000E-01
-1.396400E-01,+6.000000E-01
-1.396200E-01,+6.000000E-01
-1.396000E-01,+6.000000E-01
-1.395800E-01,+6.000000E-01
-1.395600E-01,+6.000000E-01
-1.395400E-01,+6.000000E-01
-1.395200E-01,+6.400000E-01
-1.395000E-01,+6.000000E-01
-1.394800E-01,+6.000000E-01
-1.394600E-01,+6.400000E-01
-1.394400E-01,+6.000000E-01
-1.394200E-01,+6.400000E-01
-1.394000E-01,+6.400000E-01
-1.393800E-01,+6.000000E-01
-1.393600E-01,+6.000000E-01
-1.393400E-01,+6.400000E-01
-1.393200E-01,+6.000000E-01
-1.393000E-01,+6.000000E-01
-1.392800E-01,+6.000000E-01
-1.392600E-01,+6.000000E-01
-1.392400E-01,+6.400000E-01
-1.392200E-01,+6.000000E-01
-1.392000E-01,+6.000000E-01
-1.391800E-01,+6.400000E-01
-1.391600E-01,+6.000000E-01
-1.391400E-01,+6.400000E-01
-1.391200E-01,+6.000000E-01
-1.391000E-01,+6.000000E-01
-1.390800E-01,+6.000000E-01
-1.390600E-01,+6.000000E-01
-1.390400E-01,+6.000000E-01
-1.390200E-01,+6.000000E-01
-1.390000E-01,+6.400000E-01
-1.389800E-01,+6.000000E-01
-1.389600E-01,+6.000000E-01
-1.389400E-01,+5.600000E-01
-1.389200E-01,+5.600000E-01
-1.389000E-01,+5.600000E-01
-1.388800E-01,+6.000000E-01
-1.388600E-01,+5.600000E-01
-1.388400E-01,+6.000000E-01
-1.388200E-01,+6.000000E-01
-1.388000E-01,+5.600000E-01
-1.387800E-01,+5.600000E-01
-1.387600E-01,+5.600000E-01
-1.387400E-01,+6.000000E-01
-1.387200E-01,+6.000000E-01
-1.387000E-01,+5.600000E-01
-1.386800E-01,+5.600000E-01
-1.386600E-01,+6.000000E-01
-1.386400E-01,+5.600000E-01
-1.386200E-01,+6.000000E-01
-1.386000E-01,+5.600000E-01
-1.385800E-01,+5.600000E-01
-1.385600E-01,+5.600000E-01
-1.385400E-01,+5.600000E-01
-1.385200E-01,+5.600000E-01
-1.385000E-01,+5.600000E-01
-1.384800E-01,+5.600000E-01
-1.384600E-01,+5.600000E-01
-1.384400E-01,+5.600000E-01
-1.384200E-01,+6.000000E-01
-1.384000E-01,+5.600000E-01
-1.383800E-01,+5.600000E-01
-1.383600E-01,+5.600000E-01
-1.383400E-01,+5.600000E-01
-1.383200E-01,+5.600000E-01
-1.383000E-01,+5.600000E-01
-1.382800E-01,+5.600000E-01
-1.382600E-01,+5.600000E-01
-1.382400E-01,+5.600000E-01
-1.382200E-01,+5.600000E-01
-1.382000E-01,+5.600000E-01
-1.381800E-01,+5.600000E-01
-1.381600E-01,+5.600000E-01
-1.381400E-01,+6.000000E-01
-1.381200E-01,+6.000000E-01
-1.381000E-01,+6.000000E-01
-1.380800E-01,+5.600000E-01
-1.380600E-01,+5.600000E-01
-1.380400E-01,+5.600000E-01
-1.380200E-01,+5.600000E-01
-1.380000E-01,+5.600000E-01
-1.379800E-01,+6.000000E-01
-1.379600E-01,+5.600000E-01
-1.379400E-01,+5.600000E-01
-1.379200E-01,+5.600000E-01
-1.379000E-01,+5.600000E-01
-1.378800E-01,+5.600000E-01
-1.378600E-01,+5.600000E-01
-1.378400E-01,+5.600000E-01
-1.378200E-01,+5.600000E-01
-1.378000E-01,+6.000000E-01
-1.377800E-01,+5.600000E-01
-1.377600E-01,+6.000000E-01
-1.377400E-01,+5.600000E-01
-1.377200E-01,+5.600000E-01
-1.377000E-01,+5.600000E-01
-1.376800E-01,+5.600000E-01
-1.376600E-01,+6.000000E-01
-1.376400E-01,+5.600000E-01
-1.376200E-01,+5.600000E-01
-1.376000E-01,+5.600000E-01
-1.375800E-01,+5.600000E-01
-1.375600E-01,+5.600000E-01
-1.375400E-01,+5.200000E-01
-1.375200E-01,+5.600000E-01
-1.375000E-01,+5.600000E-01
-1.374800E-01,+5.200000E-01
-1.374600E-01,+5.200000E-01
-1.374400E-01,+5.600000E-01
-1.374200E-01,+5.200000E-01
-1.374000E-01,+5.200000E-01
-1.373800E-01,+5.200000E-01
-1.373600E-01,+5.600000E-01
-1.373400E-01,+5.600000E-01
-1.373200E-01,+5.200000E-01
-1.373000E-01,+5.200000E-01
-1.372800E-01,+5.200000E-01
-1.372600E-01,+5.200000E-01
-1.372400E-01,+5.200000E-01
-1.372200E-01,+5.200000E-01
-1.372000E-01,+5.200000E-01
-1.371800E-01,+5.200000E-01
-1.371600E-01,+5.200000E-01
-1.371400E-01,+5.200000E-01
-1.371200E-01,+5.200000E-01
-1.371000E-01,+5.200000E-01
-1.370800E-01,+5.200000E-01
-1.370600E-01,+5.200000E-01
-1.370400E-01,+5.200000E-01
-1.370200E-01,+5.200000E-01
-1.370000E-01,+5.200000E-01
-1.369800E-01,+5.200000E-01
-1.369600E-01,+5.200000E-01
-1.369400E-01,+5.200000E-01
-1.369200E-01,+5.200000E-01
-1.369000E-01,+5.200000E-01
-1.368800E-01,+5.200000E-01
-1.368600E-01,+5.200000E-01
-1.368400E-01,+5.200000E-01
-1.368200E-01,+5.200000E-01
-1.368000E-01,+5.200000E-01
-1.367800E-01,+5.200000E-01
-1.367600E-01,+5.600000E-01
-1.367400E-01,+5.200000E-01
-1.367200E-01,+5.200000E-01
-1.367000E-01,+5.200000E-01
-1.366800E-01,+5.200000E-01
-1.366600E-01,+5.200000E-01
-1.366400E-01,+5.200000E-01
-1.366200E-01,+5.200000E-01
-1.366000E-01,+5.200000E-01
-1.365800E-01,+5.200000E-01
-1.365600E-01,+5.200000E-01
-1.365400E-01,+5.600000E-01
-1.365200E-01,+5.200000E-01
-1.365000E-01,+5.200000E-01
-1.364800E-01,+5.200000E-01
-1.364600E-01,+5.200000E-01
-1.364400E-01,+5.200000E-01
-1.364200E-01,+5.200000E-01
-1.364000E-01,+5.200000E-01
-1.363800E-01,+5.200000E-01
-1.363600E-01,+5.200000E-01
-1.363400E-01,+5.200000E-01
-1.363200E-01,+5.200000E-01
-1.363000E-01,+5.200000E-01
-1.362800E-01,+5.200000E-01
-1.362600E-01,+5.200000E-01
-1.362400E-01,+5.600000E-01
-1.362200E-01,+5.200000E-01
-1.362000E-01,+5.200000E-01
-1.361800E-01,+5.600000E-01
-1.361600E-01,+5.200000E-01
-1.361400E-01,+5.200000E-01
-1.361200E-01,+5.200000E-01
-1.361000E-01,+4.800000E-01
-1.360800E-01,+5.200000E-01
-1.360600E-01,+5.200000E-01
-1.360400E-01,+4.800000E-01
-1.360200E-01,+5.200000E-01
-1.360000E-01,+5.200000E-01
-1.359800E-01,+5.200000E-01
-1.359600E-01,+4.800000E-01
-1.359400E-01,+4.800000E-01
-1.359200E-01,+4.800000E-01
-1.359000E-01,+4.800000E-01
-1.358800E-01,+4.800000E-01
-1.358600E-01,+5.600000E-01
-1.358400E-01,+4.800000E-01
-1.358200E-01,+4.800000E-01
-1.358000E-01,+5.200000E-01
-1.357800E-01,+4.800000E-01
-1.357600E-01,+4.800000E-01
-1.357400E-01,+4.800000E-01
-1.357200E-01,+4.800000E-01
-1.357000E-01,+4.800000E-01
-1.356800E-01,+4.800000E-01
-1.356600E-01,+4.800000E-01
-1.356400E-01,+4.800000E-01
-1.356200E-01,+5.200000E-01
-1.356000E-01,+4.800000E-01
-1.355800E-01,+4.800000E-01
-1.355600E-01,+4.800000E-01
-1.355400E-01,+4.800000E-01
-1.355200E-01,+4.800000E-01
-1.355000E-01,+4.800000E-01
-1.354800E-01,+4.800000E-01
-1.354600E-01,+4.800000E-01
-1.354400E-01,+5.200000E-01
-1.354200E-01,+4.800000E-01
-1.354000E-01,+4.800000E-01
-1.353800E-01,+4.800000E-01
-1.353600E-01,+4.800000E-01
-1.353400E-01,+4.800000E-01
-1.353200E-01,+4.800000E-01
-1.353000E-01,+4.800000E-01
-1.352800E-01,+4.800000E-01
-1.352600E-01,+4.800000E-01
-1.352400E-01,+4.800000E-01
-1.352200E-01,+4.800000E-01
-1.352000E-01,+5.200000E-01
-1.351800E-01,+5.200000E-01
-1.351600E-01,+5.200000E-01
-1.351400E-01,+4.800000E-01
-1.351200E-01,+4.800000E-01
-1.351000E-01,+4.800000E-01
-1.350800E-01,+4.800000E-01
-1.350600E-01,+4.800000E-01
-1.350400E-01,+4.800000E-01
-1.350200E-01,+5.200000E-01
-1.350000E-01,+4.800000E-01
-1.349800E-01,+4.800000E-01
-1.349600E-01,+4.800000E-01
-1.349400E-01,+4.800000E-01
-1.349200E-01,+4.800000E-01
-1.349000E-01,+4.800000E-01
-1.348800E-01,+4.800000E-01
-1.348600E-01,+4.800000E-01
-1.348400E-01,+5.200000E-01
-1.348200E-01,+4.800000E-01
-1.348000E-01,+5.200000E-01
-1.347800E-01,+4.800000E-01
-1.347600E-01,+4.800000E-01
-1.347400E-01,+4.800000E-01
-1.347200E-01,+4.800000E-01
-1.347000E-01,+4.800000E-01
-1.346800E-01,+4.800000E-01
-1.346600E-01,+4.800000E-01
-1.346400E-01,+4.800000E-01
-1.346200E-01,+4.800000E-01
-1.346000E-01,+4.400000E-01
-1.345800E-01,+4.800000E-01
-1.345600E-01,+4.400000E-01
-1.345400E-01,+4.400000E-01
-1.345200E-01,+4.400000E-01
-1.345000E-01,+4.400000E-01
-1.344800E-01,+4.800000E-01
-1.344600E-01,+4.800000E-01
-1.344400E-01,+4.400000E-01
-1.344200E-01,+4.400000E-01
-1.344000E-01,+4.400000E-01
-1.343800E-01,+4.400000E-01
-1.343600E-01,+4.400000E-01
-1.343400E-01,+4.400000E-01
-1.343200E-01,+4.400000E-01
-1.343000E-01,+4.400000E-01
-1.342800E-01,+4.400000E-01
-1.342600E-01,+4.800000E-01
-1.342400E-01,+4.400000E-01
-1.342200E-01,+4.400000E-01
-1.342000E-01,+4.400000E-01
-1.341800E-01,+4.800000E-01
-1.341600E-01,+4.400000E-01
-1.341400E-01,+4.400000E-01
-1.341200E-01,+4.400000E-01
-1.341000E-01,+4.800000E-01
-1.340800E-01,+4.800000E-01
-1.340600E-01,+4.800000E-01
-1.340400E-01,+4.400000E-01
-1.340200E-01,+4.400000E-01
-1.340000E-01,+4.800000E-01
-1.339800E-01,+4.400000E-01
-1.339600E-01,+4.400000E-01
-1.339400E-01,+4.800000E-01
-1.339200E-01,+4.400000E-01
-1.339000E-01,+4.400000E-01
-1.338800E-01,+4.400000E-01
-1.338600E-01,+4.400000E-01
-1.338400E-01,+4.400000E-01
-1.338200E-01,+4.400000E-01
-1.338000E-01,+4.400000E-01
-1.337800E-01,+4.400000E-01
-1.337600E-01,+4.400000E-01
-1.337400E-01,+4.400000E-01
-1.337200E-01,+4.400000E-01
-1.337000E-01,+4.800000E-01
-1.336800E-01,+4.400000E-01
-1.336600E-01,+4.400000E-01
-1.336400E-01,+4.400000E-01
-1.336200E-01,+4.400000E-01
-1.336000E-01,+4.800000E-01
-1.335800E-01,+4.400000E-01
-1.335600E-01,+4.400000E-01
-1.335400E-01,+4.400000E-01
-1.335200E-01,+4.400000E-01
-1.335000E-01,+4.400000E-01
-1.334800E-01,+4.400000E-01
-1.334600E-01,+4.400000E-01
-1.334400E-01,+4.400000E-01
-1.334200E-01,+4.400000E-01
-1.334000E-01,+4.400000E-01
-1.333800E-01,+4.400000E-01
-1.333600E-01,+4.800000E-01
-1.333400E-01,+4.400000E-01
-1.333200E-01,+4.400000E-01
-1.333000E-01,+4.400000E-01
-1.332800E-01,+4.400000E-01
-1.332600E-01,+4.400000E-01
-1.332400E-01,+4.400000E-01
-1.332200E-01,+4.400000E-01
-1.332000E-01,+4.400000E-01
-1.331800E-01,+4.400000E-01
-1.331600E-01,+4.000000E-01
-1.331400E-01,+4.000000E-01
-1.331200E-01,+4.000000E-01
-1.331000E-01,+4.000000E-01
-1.330800E-01,+4.000000E-01
-1.330600E-01,+4.000000E-01
-1.330400E-01,+4.000000E-01
-1.330200E-01,+4.000000E-01
-1.330000E-01,+4.000000E-01
-1.329800E-01,+4.000000E-01
-1.329600E-01,+4.400000E-01
-1.329400E-01,+4.000000E-01
-1.329200E-01,+4.000000E-01
-1.329000E-01,+4.000000E-01
-1.328800E-01,+4.000000E-01
-1.328600E-01,+4.000000E-01
-1.328400E-01,+4.000000E-01
-1.328200E-01,+4.000000E-01
-1.328000E-01,+4.000000E-01
-1.327800E-01,+4.000000E-01
-1.327600E-01,+4.000000E-01
-1.327400E-01,+4.000000E-01
-1.327200E-01,+4.000000E-01
-1.327000E-01,+4.000000E-01
-1.326800E-01,+4.000000E-01
-1.326600E-01,+4.000000E-01
-1.326400E-01,+4.000000E-01
-1.326200E-01,+4.000000E-01
-1.326000E-01,+4.000000E-01
-1.325800E-01,+4.400000E-01
-1.325600E-01,+4.000000E-01
-1.325400E-01,+4.400000E-01
-1.325200E-01,+4.000000E-01
-1.325000E-01,+4.000000E-01
-1.324800E-01,+4.000000E-01
-1.324600E-01,+4.000000E-01
-1.324400E-01,+4.000000E-01
-1.324200E-01,+4.000000E-01
-1.324000E-01,+4.400000E-01
-1.323800E-01,+4.000000E-01
-1.323600E-01,+4.000000E-01
-1.323400E-01,+4.000000E-01
-1.323200E-01,+4.000000E-01
-1.323000E-01,+4.000000E-01
-1.322800E-01,+4.000000E-01
-1.322600E-01,+4.000000E-01
-1.322400E-01,+4.000000E-01
-1.322200E-01,+4.000000E-01
-1.322000E-01,+4.000000E-01
-1.321800E-01,+4.000000E-01
-1.321600E-01,+4.000000E-01
-1.321400E-01,+4.000000E-01
-1.321200E-01,+4.000000E-01
-1.321000E-01,+4.000000E-01
-1.320800E-01,+4.000000E-01
-1.320600E-01,+4.000000E-01
-1.320400E-01,+4.000000E-01
-1.320200E-01,+4.000000E-01
-1.320000E-01,+4.000000E-01
-1.319800E-01,+4.000000E-01
-1.319600E-01,+4.000000E-01
-1.319400E-01,+4.000000E-01
-1.319200E-01,+4.000000E-01
-1.319000E-01,+4.000000E-01
-1.318800E-01,+4.400000E-01
-1.318600E-01,+4.400000E-01
-1.318400E-01,+4.000000E-01
-1.318200E-01,+4.000000E-01
-1.318000E-01,+4.000000E-01
-1.317800E-01,+4.000000E-01
-1.317600E-01,+4.000000E-01
-1.317400E-01,+4.000000E-01
-1.317200E-01,+4.000000E-01
-1.317000E-01,+3.600000E-01
-1.316800E-01,+4.000000E-01
-1.316600E-01,+4.000000E-01
-1.316400E-01,+4.000000E-01
-1.316200E-01,+3.600000E-01
-1.316000E-01,+3.600000E-01
-1.315800E-01,+4.000000E-01
-1.315600E-01,+3.600000E-01
-1.315400E-01,+3.600000E-01
-1.315200E-01,+3.600000E-01
-1.315000E-01,+3.600000E-01
-1.314800E-01,+3.600000E-01
-1.314600E-01,+3.600000E-01
-1.314400E-01,+3.600000E-01
-1.314200E-01,+3.600000E-01
-1.314000E-01,+3.600000E-01
-1.313800E-01,+3.600000E-01
-1.313600E-01,+3.600000E-01
-1.313400E-01,+3.600000E-01
-1.313200E-01,+3.600000E-01
-1.313000E-01,+3.600000E-01
-1.312800E-01,+3.600000E-01
-1.312600E-01,+3.600000E-01
-1.312400E-01,+3.600000E-01
-1.312200E-01,+3.600000E-01
-1.312000E-01,+3.600000E-01
-1.311800E-01,+3.600000E-01
-1.311600E-01,+3.600000E-01
-1.311400E-01,+3.600000E-01
-1.311200E-01,+3.600000E-01
-1.311000E-01,+3.600000E-01
-1.310800E-01,+3.600000E-01
-1.310600E-01,+3.600000E-01
-1.310400E-01,+3.600000E-01
-1.310200E-01,+3.600000E-01
-1.310000E-01,+3.600000E-01
-1.309800E-01,+3.600000E-01
-1.309600E-01,+3.600000E-01
-1.309400E-01,+3.600000E-01
-1.309200E-01,+4.000000E-01
-1.309000E-01,+3.600000E-01
-1.308800E-01,+3.600000E-01
-1.308600E-01,+3.600000E-01
-1.308400E-01,+4.000000E-01
-1.308200E-01,+3.600000E-01
-1.308000E-01,+3.600000E-01
-1.307800E-01,+3.600000E-01
-1.307600E-01,+3.600000E-01
-1.307400E-01,+3.600000E-01
-1.307200E-01,+3.600000E-01
-1.307000E-01,+3.600000E-01
-1.306800E-01,+4.000000E-01
-1.306600E-01,+3.600000E-01
-1.306400E-01,+3.600000E-01
-1.306200E-01,+4.000000E-01
-1.306000E-01,+3.600000E-01
-1.305800E-01,+3.600000E-01
-1.305600E-01,+3.600000E-01
-1.305400E-01,+3.600000E-01
-1.305200E-01,+3.600000E-01
-1.305000E-01,+3.600000E-01
-1.304800E-01,+3.600000E-01
-1.304600E-01,+3.600000E-01
-1.304400E-01,+3.600000E-01
-1.304200E-01,+3.600000E-01
-1.304000E-01,+4.000000E-01
-1.303800E-01,+4.000000E-01
-1.303600E-01,+3.600000E-01
-1.303400E-01,+3.600000E-01
-1.303200E-01,+4.000000E-01
-1.303000E-01,+3.600000E-01
-1.302800E-01,+3.600000E-01
-1.302600E-01,+3.600000E-01
-1.302400E-01,+4.000000E-01
-1.302200E-01,+4.000000E-01
-1.302000E-01,+3.600000E-01
-1.301800E-01,+3.600000E-01
-1.301600E-01,+3.600000E-01
-1.301400E-01,+3.600000E-01
-1.301200E-01,+3.600000E-01
-1.301000E-01,+3.600000E-01
-1.300800E-01,+3.600000E-01
-1.300600E-01,+3.600000E-01
-1.300400E-01,+3.200000E-01
-1.300200E-01,+3.600000E-01
-1.300000E-01,+3.600000E-01
-1.299800E-01,+3.200000E-01
-1.299600E-01,+3.200000E-01
-1.299400E-01,+3.200000E-01
-1.299200E-01,+3.200000E-01
-1.299000E-01,+3.200000E-01
-1.298800E-01,+3.200000E-01
-1.298600E-01,+3.200000E-01
-1.298400E-01,+3.200000E-01
-1.298200E-01,+3.200000E-01
-1.298000E-01,+3.200000E-01
-1.297800E-01,+3.200000E-01
-1.297600E-01,+3.200000E-01
-1.297400E-01,+3.200000E-01
-1.297200E-01,+3.600000E-01
-1.297000E-01,+3.200000E-01
-1.296800E-01,+3.600000E-01
-1.296600E-01,+3.200000E-01
-1.296400E-01,+3.200000E-01
-1.296200E-01,+3.200000E-01
-1.296000E-01,+3.200000E-01
-1.295800E-01,+3.200000E-01
-1.295600E-01,+3.200000E-01
-1.295400E-01,+3.600000E-01
-1.295200E-01,+3.200000E-01
-1.295000E-01,+3.200000E-01
-1.294800E-01,+3.200000E-01
-1.294600E-01,+3.200000E-01
-1.294400E-01,+3.200000E-01
-1.294200E-01,+3.200000E-01
-1.294000E-01,+3.200000E-01
-1.293800E-01,+3.200000E-01
-1.293600E-01,+3.200000E-01
-1.293400E-01,+3.200000E-01
-1.293200E-01,+3.200000E-01
-1.293000E-01,+3.200000E-01
-1.292800E-01,+3.200000E-01
-1.292600E-01,+3.200000E-01
-1.292400E-01,+3.200000E-01
-1.292200E-01,+3.200000E-01
-1.292000E-01,+3.200000E-01
-1.291800E-01,+3.200000E-01
-1.291600E-01,+3.200000E-01
-1.291400E-01,+3.200000E-01
-1.291200E-01,+3.200000E-01
-1.291000E-01,+3.200000E-01
-1.290800E-01,+3.200000E-01
-1.290600E-01,+3.200000E-01
-1.290400E-01,+3.200000E-01
-1.290200E-01,+3.200000E-01
-1.290000E-01,+3.200000E-01
-1.289800E-01,+3.200000E-01
-1.289600E-01,+3.200000E-01
-1.289400E-01,+3.200000E-01
-1.289200E-01,+3.200000E-01
-1.289000E-01,+3.200000E-01
-1.288800E-01,+3.200000E-01
-1.288600E-01,+3.200000E-01
-1.288400E-01,+3.200000E-01
-1.288200E-01,+3.200000E-01
-1.288000E-01,+3.200000E-01
-1.287800E-01,+3.200000E-01
-1.287600E-01,+3.200000E-01
-1.287400E-01,+3.200000E-01
-1.287200E-01,+3.200000E-01
-1.287000E-01,+3.200000E-01
-1.286800E-01,+3.200000E-01
-1.286600E-01,+3.200000E-01
-1.286400E-01,+2.800000E-01
-1.286200E-01,+2.800000E-01
-1.286000E-01,+3.200000E-01
-1.285800E-01,+3.200000E-01
-1.285600E-01,+3.200000E-01
-1.285400E-01,+3.600000E-01
-1.285200E-01,+2.800000E-01
-1.285000E-01,+3.200000E-01
-1.284800E-01,+2.800000E-01
-1.284600E-01,+2.800000E-01
-1.284400E-01,+3.200000E-01
-1.284200E-01,+2.800000E-01
-1.284000E-01,+3.600000E-01
-1.283800E-01,+2.800000E-01
-1.283600E-01,+3.200000E-01
-1.283400E-01,+2.800000E-01
-1.283200E-01,+2.800000E-01
-1.283000E-01,+2.800000E-01
-1.282800E-01,+2.800000E-01
-1.282600E-01,+2.800000E-01
-1.282400E-01,+2.800000E-01
-1.282200E-01,+3.200000E-01
-1.282000E-01,+2.800000E-01
-1.281800E-01,+2.800000E-01
-1.281600E-01,+2.800000E-01
-1.281400E-01,+2.800000E-01
-1.281200E-01,+2.800000E-01
-1.281000E-01,+2.800000E-01
-1.280800E-01,+2.800000E-01
-1.280600E-01,+2.800000E-01
-1.280400E-01,+2.800000E-01
-1.280200E-01,+3.200000E-01
-1.280000E-01,+2.800000E-01
-1.279800E-01,+2.800000E-01
-1.279600E-01,+3.200000E-01
-1.279400E-01,+2.800000E-01
-1.279200E-01,+2.800000E-01
-1.279000E-01,+2.800000E-01
-1.278800E-01,+2.800000E-01
-1.278600E-01,+2.800000E-01
-1.278400E-01,+2.800000E-01
-1.278200E-01,+3.200000E-01
-1.278000E-01,+2.800000E-01
-1.277800E-01,+2.800000E-01
-1.277600E-01,+2.800000E-01
-1.277400E-01,+2.800000E-01
-1.277200E-01,+2.800000E-01
-1.277000E-01,+2.800000E-01
-1.276800E-01,+2.800000E-01
-1.276600E-01,+2.800000E-01
-1.276400E-01,+2.800000E-01
-1.276200E-01,+2.800000E-01
-1.276000E-01,+2.800000E-01
-1.275800E-01,+2.800000E-01
-1.275600E-01,+2.800000E-01
-1.275400E-01,+2.800000E-01
-1.275200E-01,+2.800000E-01
-1.275000E-01,+2.800000E-01
-1.274800E-01,+2.800000E-01
-1.274600E-01,+2.800000E-01
-1.274400E-01,+2.800000E-01
-1.274200E-01,+2.800000E-01
-1.274000E-01,+2.800000E-01
-1.273800E-01,+2.800000E-01
-1.273600E-01,+3.200000E-01
-1.273400E-01,+2.800000E-01
-1.273200E-01,+3.200000E-01
-1.273000E-01,+2.800000E-01
-1.272800E-01,+3.200000E-01
-1.272600E-01,+2.800000E-01
-1.272400E-01,+2.800000E-01
-1.272200E-01,+2.800000E-01
-1.272000E-01,+2.800000E-01
-1.271800E-01,+2.800000E-01
-1.271600E-01,+2.800000E-01
-1.271400E-01,+2.800000E-01
-1.271200E-01,+3.200000E-01
-1.271000E-01,+2.800000E-01
-1.270800E-01,+2.800000E-01
-1.270600E-01,+2.400000E-01
-1.270400E-01,+2.400000E-01
-1.270200E-01,+2.800000E-01
-1.270000E-01,+2.400000E-01
-1.269800E-01,+2.400000E-01
-1.269600E-01,+2.400000E-01
-1.269400E-01,+2.800000E-01
-1.269200E-01,+2.800000E-01
-1.269000E-01,+2.400000E-01
-1.268800E-01,+2.400000E-01
-1.268600E-01,+2.400000E-01
-1.268400E-01,+2.400000E-01
-1.268200E-01,+2.400000E-01
-1.268000E-01,+2.400000E-01
-1.267800E-01,+2.400000E-01
-1.267600E-01,+2.400000E-01
-1.267400E-01,+2.400000E-01
-1.267200E-01,+2.400000E-01
-1.267000E-01,+2.400000E-01
-1.266800E-01,+2.400000E-01
-1.266600E-01,+2.400000E-01
-1.266400E-01,+2.400000E-01
-1.266200E-01,+2.400000E-01
-1.266000E-01,+2.800000E-01
-1.265800E-01,+2.800000E-01
-1.265600E-01,+2.400000E-01
-1.265400E-01,+2.400000E-01
-1.265200E-01,+2.400000E-01
-1.265000E-01,+2.400000E-01
-1.264800E-01,+2.400000E-01
-1.264600E-01,+2.800000E-01
-1.264400E-01,+2.800000E-01
-1.264200E-01,+2.400000E-01
-1.264000E-01,+2.400000E-01
-1.263800E-01,+2.400000E-01
-1.263600E-01,+2.400000E-01
-1.263400E-01,+2.800000E-01
-1.263200E-01,+2.400000E-01
-1.263000E-01,+2.400000E-01
-1.262800E-01,+2.400000E-01
-1.262600E-01,+2.800000E-01
-1.262400E-01,+2.400000E-01
-1.262200E-01,+2.800000E-01
-1.262000E-01,+2.400000E-01
-1.261800E-01,+2.400000E-01
-1.261600E-01,+2.400000E-01
-1.261400E-01,+2.400000E-01
-1.261200E-01,+2.400000E-01
-1.261000E-01,+2.400000E-01
-1.260800E-01,+2.400000E-01
-1.260600E-01,+2.400000E-01
-1.260400E-01,+2.400000E-01
-1.260200E-01,+2.800000E-01
-1.260000E-01,+2.400000E-01
-1.259800E-01,+2.400000E-01
