Spectroscopy/data/PICCHI.csv

Record Length,Analog:14000
Sample Interval,CH:0.0000010000000
Vertical Units, CH4:V,,,
Vertical Scale, CH4:+2.000000E-01,,,
Vertical Offset, CH4:-8.296000E+00,,,
Horizontal Units,us,,,
Horizontal Scale,1000.0000000000,,,
Model Number,SDS1204X-E,,,
Serial Number,SDSMMEBQ4R4722,,,
Software Version,8.1.6.1.35R2,,,
Source,CH4
Second,Volt
-1.050000E-02,+7.808000E+00
-1.049900E-02,+7.808000E+00
-1.049800E-02,+7.808000E+00
-1.049700E-02,+7.808000E+00
-1.049600E-02,+7.808000E+00
-1.049500E-02,+7.808000E+00
-1.049400E-02,+7.808000E+00
-1.049300E-02,+7.808000E+00
-1.049200E-02,+7.808000E+00
-1.049100E-02,+7.808000E+00
-1.049000E-02,+7.808000E+00
-1.048900E-02,+7.808000E+00
-1.048800E-02,+7.808000E+00
-1.048700E-02,+7.808000E+00
-1.048600E-02,+7.808000E+00
-1.048500E-02,+7.808000E+00
-1.048400E-02,+7.808000E+00
-1.048300E-02,+7.808000E+00
-1.048200E-02,+7.808000E+00
-1.048100E-02,+7.808000E+00
-1.048000E-02,+7.808000E+00
-1.047900E-02,+7.808000E+00
-1.047800E-02,+7.808000E+00
-1.047700E-02,+7.808000E+00
-1.047600E-02,+7.808000E+00
-1.047500E-02,+7.808000E+00
-1.047400E-02,+7.808000E+00
-1.047300E-02,+7.808000E+00
-1.047200E-02,+7.808000E+00
-1.047100E-02,+7.808000E+00
-1.047000E-02,+7.808000E+00
-1.046900E-02,+7.808000E+00
-1.046800E-02,+7.808000E+00
-1.046700E-02,+7.808000E+00
-1.046600E-02,+7.808000E+00
-1.046500E-02,+7.808000E+00
-1.046400E-02,+7.816000E+00
-1.046300E-02,+7.808000E+00
-1.046200E-02,+7.808000E+00
-1.046100E-02,+7.808000E+00
-1.046000E-02,+7.808000E+00
-1.045900E-02,+7.808000E+00
-1.045800E-02,+7.816000E+00
-1.045700E-02,+7.808000E+00
-1.045600E-02,+7.808000E+00
-1.045500E-02,+7.808000E+00
-1.045400E-02,+7.816000E+00
-1.045300E-02,+7.808000E+00
-1.045200E-02,+7.808000E+00
-1.045100E-02,+7.808000E+00
-1.045000E-02,+7.816000E+00
-1.044900E-02,+7.808000E+00
-1.044800E-02,+7.816000E+00
-1.044700E-02,+7.808000E+00
-1.044600E-02,+7.816000E+00
-1.044500E-02,+7.808000E+00
-1.044400E-02,+7.816000E+00
-1.044300E-02,+7.808000E+00
-1.044200E-02,+7.816000E+00
-1.044100E-02,+7.808000E+00
-1.044000E-02,+7.816000E+00
-1.043900E-02,+7.816000E+00
-1.043800E-02,+7.816000E+00
-1.043700E-02,+7.816000E+00
-1.043600E-02,+7.816000E+00
-1.043500E-02,+7.816000E+00
-1.043400E-02,+7.816000E+00
-1.043300E-02,+7.816000E+00
-1.043200E-02,+7.816000E+00
-1.043100E-02,+7.808000E+00
-1.043000E-02,+7.816000E+00
-1.042900E-02,+7.816000E+00
-1.042800E-02,+7.816000E+00
-1.042700E-02,+7.816000E+00
-1.042600E-02,+7.816000E+00
-1.042500E-02,+7.816000E+00
-1.042400E-02,+7.816000E+00
-1.042300E-02,+7.816000E+00
-1.042200E-02,+7.816000E+00
-1.042100E-02,+7.816000E+00
-1.042000E-02,+7.816000E+00
-1.041900E-02,+7.816000E+00
-1.041800E-02,+7.816000E+00
-1.041700E-02,+7.816000E+00
-1.041600E-02,+7.816000E+00
-1.041500E-02,+7.816000E+00
-1.041400E-02,+7.816000E+00
-1.041300E-02,+7.816000E+00
-1.041200E-02,+7.816000E+00
-1.041100E-02,+7.816000E+00
-1.041000E-02,+7.816000E+00
-1.040900E-02,+7.816000E+00
-1.040800E-02,+7.816000E+00
-1.040700E-02,+7.816000E+00
-1.040600E-02,+7.816000E+00
-1.040500E-02,+7.816000E+00
-1.040400E-02,+7.816000E+00
-1.040300E-02,+7.816000E+00
-1.040200E-02,+7.816000E+00
-1.040100E-02,+7.816000E+00
-1.040000E-02,+7.816000E+00
-1.039900E-02,+7.816000E+00
-1.039800E-02,+7.816000E+00
-1.039700E-02,+7.816000E+00
-1.039600E-02,+7.816000E+00
-1.039500E-02,+7.816000E+00
-1.039400E-02,+7.816000E+00
-1.039300E-02,+7.816000E+00
-1.039200E-02,+7.816000E+00
-1.039100E-02,+7.816000E+00
-1.039000E-02,+7.823999E+00
-1.038900E-02,+7.816000E+00
-1.038800E-02,+7.816000E+00
-1.038700E-02,+7.816000E+00
-1.038600E-02,+7.816000E+00
-1.038500E-02,+7.816000E+00
-1.038400E-02,+7.816000E+00
-1.038300E-02,+7.823999E+00
-1.038200E-02,+7.823999E+00
-1.038100E-02,+7.816000E+00
-1.038000E-02,+7.816000E+00
-1.037900E-02,+7.816000E+00
-1.037800E-02,+7.816000E+00
-1.037700E-02,+7.823999E+00
-1.037600E-02,+7.823999E+00
-1.037500E-02,+7.816000E+00
-1.037400E-02,+7.816000E+00
-1.037300E-02,+7.816000E+00
-1.037200E-02,+7.816000E+00
-1.037100E-02,+7.823999E+00
-1.037000E-02,+7.816000E+00
-1.036900E-02,+7.816000E+00
-1.036800E-02,+7.816000E+00
-1.036700E-02,+7.823999E+00
-1.036600E-02,+7.823999E+00
-1.036500E-02,+7.823999E+00
-1.036400E-02,+7.823999E+00
-1.036300E-02,+7.823999E+00
-1.036200E-02,+7.823999E+00
-1.036100E-02,+7.816000E+00
-1.036000E-02,+7.823999E+00
-1.035900E-02,+7.823999E+00
-1.035800E-02,+7.823999E+00
-1.035700E-02,+7.823999E+00
-1.035600E-02,+7.823999E+00
-1.035500E-02,+7.823999E+00
-1.035400E-02,+7.823999E+00
-1.035300E-02,+7.823999E+00
-1.035200E-02,+7.823999E+00
-1.035100E-02,+7.823999E+00
-1.035000E-02,+7.823999E+00
-1.034900E-02,+7.823999E+00
-1.034800E-02,+7.823999E+00
-1.034700E-02,+7.823999E+00
-1.034600E-02,+7.823999E+00
-1.034500E-02,+7.816000E+00
-1.034400E-02,+7.823999E+00
-1.034300E-02,+7.823999E+00
-1.034200E-02,+7.823999E+00
-1.034100E-02,+7.823999E+00
-1.034000E-02,+7.823999E+00
-1.033900E-02,+7.823999E+00
-1.033800E-02,+7.823999E+00
-1.033700E-02,+7.823999E+00
-1.033600E-02,+7.823999E+00
-1.033500E-02,+7.823999E+00
-1.033400E-02,+7.823999E+00
-1.033300E-02,+7.823999E+00
-1.033200E-02,+7.823999E+00
-1.033100E-02,+7.823999E+00
-1.033000E-02,+7.823999E+00
-1.032900E-02,+7.823999E+00
-1.032800E-02,+7.823999E+00
-1.032700E-02,+7.823999E+00
-1.032600E-02,+7.823999E+00
-1.032500E-02,+7.823999E+00
-1.032400E-02,+7.823999E+00
-1.032300E-02,+7.823999E+00
-1.032200E-02,+7.823999E+00
-1.032100E-02,+7.823999E+00
-1.032000E-02,+7.823999E+00
-1.031900E-02,+7.823999E+00
-1.031800E-02,+7.823999E+00
-1.031700E-02,+7.823999E+00
-1.031600E-02,+7.823999E+00
-1.031500E-02,+7.823999E+00
-1.031400E-02,+7.823999E+00
-1.031300E-02,+7.823999E+00
-1.031200E-02,+7.823999E+00
-1.031100E-02,+7.823999E+00
-1.031000E-02,+7.823999E+00
-1.030900E-02,+7.823999E+00
-1.030800E-02,+7.823999E+00
-1.030700E-02,+7.823999E+00
-1.030600E-02,+7.823999E+00
-1.030500E-02,+7.823999E+00
-1.030400E-02,+7.823999E+00
-1.030300E-02,+7.823999E+00
-1.030200E-02,+7.823999E+00
-1.030100E-02,+7.823999E+00
-1.030000E-02,+7.823999E+00
-1.029900E-02,+7.823999E+00
-1.029800E-02,+7.823999E+00
-1.029700E-02,+7.823999E+00
-1.029600E-02,+7.823999E+00
-1.029500E-02,+7.823999E+00
-1.029400E-02,+7.823999E+00
-1.029300E-02,+7.823999E+00
-1.029200E-02,+7.823999E+00
-1.029100E-02,+7.823999E+00
-1.029000E-02,+7.823999E+00
-1.028900E-02,+7.823999E+00
-1.028800E-02,+7.823999E+00
-1.028700E-02,+7.823999E+00
-1.028600E-02,+7.823999E+00
-1.028500E-02,+7.823999E+00
-1.028400E-02,+7.823999E+00
-1.028300E-02,+7.823999E+00
-1.028200E-02,+7.823999E+00
-1.028100E-02,+7.823999E+00
-1.028000E-02,+7.823999E+00
-1.027900E-02,+7.823999E+00
-1.027800E-02,+7.823999E+00
-1.027700E-02,+7.823999E+00
-1.027600E-02,+7.823999E+00
-1.027500E-02,+7.823999E+00
-1.027400E-02,+7.823999E+00
-1.027300E-02,+7.823999E+00
-1.027200E-02,+7.823999E+00
-1.027100E-02,+7.823999E+00
-1.027000E-02,+7.823999E+00
-1.026900E-02,+7.823999E+00
-1.026800E-02,+7.831999E+00
-1.026700E-02,+7.823999E+00
-1.026600E-02,+7.823999E+00
-1.026500E-02,+7.823999E+00
-1.026400E-02,+7.831999E+00
-1.026300E-02,+7.823999E+00
-1.026200E-02,+7.823999E+00
-1.026100E-02,+7.823999E+00
-1.026000E-02,+7.823999E+00
-1.025900E-02,+7.823999E+00
-1.025800E-02,+7.823999E+00
-1.025700E-02,+7.823999E+00
-1.025600E-02,+7.823999E+00
-1.025500E-02,+7.823999E+00
-1.025400E-02,+7.831999E+00
-1.025300E-02,+7.831999E+00
-1.025200E-02,+7.823999E+00
-1.025100E-02,+7.823999E+00
-1.025000E-02,+7.823999E+00
-1.024900E-02,+7.831999E+00
-1.024800E-02,+7.823999E+00
-1.024700E-02,+7.823999E+00
-1.024600E-02,+7.823999E+00
-1.024500E-02,+7.823999E+00
-1.024400E-02,+7.823999E+00
-1.024300E-02,+7.823999E+00
-1.024200E-02,+7.831999E+00
-1.024100E-02,+7.823999E+00
-1.024000E-02,+7.831999E+00
-1.023900E-02,+7.823999E+00
-1.023800E-02,+7.831999E+00
-1.023700E-02,+7.831999E+00
-1.023600E-02,+7.823999E+00
-1.023500E-02,+7.831999E+00
-1.023400E-02,+7.831999E+00
-1.023300E-02,+7.823999E+00
-1.023200E-02,+7.831999E+00
-1.023100E-02,+7.831999E+00
-1.023000E-02,+7.831999E+00
-1.022900E-02,+7.831999E+00
-1.022800E-02,+7.831999E+00
-1.022700E-02,+7.831999E+00
-1.022600E-02,+7.831999E+00
-1.022500E-02,+7.831999E+00
-1.022400E-02,+7.831999E+00
-1.022300E-02,+7.831999E+00
-1.022200E-02,+7.831999E+00
-1.022100E-02,+7.831999E+00
-1.022000E-02,+7.831999E+00
-1.021900E-02,+7.831999E+00
-1.021800E-02,+7.831999E+00
-1.021700E-02,+7.831999E+00
-1.021600E-02,+7.831999E+00
-1.021500E-02,+7.831999E+00
-1.021400E-02,+7.831999E+00
-1.021300E-02,+7.831999E+00
-1.021200E-02,+7.831999E+00
-1.021100E-02,+7.831999E+00
-1.021000E-02,+7.831999E+00
-1.020900E-02,+7.831999E+00
-1.020800E-02,+7.831999E+00
-1.020700E-02,+7.831999E+00
-1.020600E-02,+7.831999E+00
-1.020500E-02,+7.831999E+00
-1.020400E-02,+7.831999E+00
-1.020300E-02,+7.831999E+00
-1.020200E-02,+7.831999E+00
-1.020100E-02,+7.831999E+00
-1.020000E-02,+7.831999E+00
-1.019900E-02,+7.831999E+00
-1.019800E-02,+7.831999E+00
-1.019700E-02,+7.831999E+00
-1.019600E-02,+7.831999E+00
-1.019500E-02,+7.831999E+00
-1.019400E-02,+7.831999E+00
-1.019300E-02,+7.831999E+00
-1.019200E-02,+7.831999E+00
-1.019100E-02,+7.831999E+00
-1.019000E-02,+7.831999E+00
-1.018900E-02,+7.831999E+00
-1.018800E-02,+7.831999E+00
-1.018700E-02,+7.831999E+00
-1.018600E-02,+7.831999E+00
-1.018500E-02,+7.831999E+00
-1.018400E-02,+7.831999E+00
-1.018300E-02,+7.831999E+00
-1.018200E-02,+7.831999E+00
-1.018100E-02,+7.831999E+00
-1.018000E-02,+7.831999E+00
-1.017900E-02,+7.831999E+00
-1.017800E-02,+7.840000E+00
-1.017700E-02,+7.831999E+00
-1.017600E-02,+7.831999E+00
-1.017500E-02,+7.831999E+00
-1.017400E-02,+7.831999E+00
-1.017300E-02,+7.831999E+00
-1.017200E-02,+7.831999E+00
-1.017100E-02,+7.831999E+00
-1.017000E-02,+7.831999E+00
-1.016900E-02,+7.831999E+00
-1.016800E-02,+7.831999E+00
-1.016700E-02,+7.831999E+00
-1.016600E-02,+7.831999E+00
-1.016500E-02,+7.831999E+00
-1.016400E-02,+7.831999E+00
-1.016300E-02,+7.831999E+00
-1.016200E-02,+7.831999E+00
-1.016100E-02,+7.840000E+00
-1.016000E-02,+7.831999E+00
-1.015900E-02,+7.840000E+00
-1.015800E-02,+7.840000E+00
-1.015700E-02,+7.831999E+00
-1.015600E-02,+7.840000E+00
-1.015500E-02,+7.840000E+00
-1.015400E-02,+7.831999E+00
-1.015300E-02,+7.831999E+00
-1.015200E-02,+7.831999E+00
-1.015100E-02,+7.840000E+00
-1.015000E-02,+7.831999E+00
-1.014900E-02,+7.840000E+00
-1.014800E-02,+7.831999E+00
-1.014700E-02,+7.840000E+00
-1.014600E-02,+7.840000E+00
-1.014500E-02,+7.840000E+00
-1.014400E-02,+7.840000E+00
-1.014300E-02,+7.840000E+00
-1.014200E-02,+7.840000E+00
-1.014100E-02,+7.840000E+00
-1.014000E-02,+7.840000E+00
-1.013900E-02,+7.840000E+00
-1.013800E-02,+7.840000E+00
-1.013700E-02,+7.840000E+00
-1.013600E-02,+7.840000E+00
-1.013500E-02,+7.840000E+00
-1.013400E-02,+7.840000E+00
-1.013300E-02,+7.840000E+00
-1.013200E-02,+7.840000E+00
-1.013100E-02,+7.840000E+00
-1.013000E-02,+7.840000E+00
-1.012900E-02,+7.831999E+00
-1.012800E-02,+7.840000E+00
-1.012700E-02,+7.840000E+00
-1.012600E-02,+7.840000E+00
-1.012500E-02,+7.840000E+00
-1.012400E-02,+7.840000E+00
-1.012300E-02,+7.840000E+00
-1.012200E-02,+7.840000E+00
-1.012100E-02,+7.840000E+00
-1.012000E-02,+7.840000E+00
-1.011900E-02,+7.840000E+00
-1.011800E-02,+7.840000E+00
-1.011700E-02,+7.840000E+00
-1.011600E-02,+7.840000E+00
-1.011500E-02,+7.840000E+00
-1.011400E-02,+7.840000E+00
-1.011300E-02,+7.840000E+00
-1.011200E-02,+7.840000E+00
-1.011100E-02,+7.840000E+00
-1.011000E-02,+7.840000E+00
-1.010900E-02,+7.840000E+00
-1.010800E-02,+7.840000E+00
-1.010700E-02,+7.840000E+00
-1.010600E-02,+7.840000E+00
-1.010500E-02,+7.840000E+00
-1.010400E-02,+7.840000E+00
-1.010300E-02,+7.840000E+00
-1.010200E-02,+7.840000E+00
-1.010100E-02,+7.840000E+00
-1.010000E-02,+7.840000E+00
-1.009900E-02,+7.840000E+00
-1.009800E-02,+7.840000E+00
-1.009700E-02,+7.840000E+00
-1.009600E-02,+7.840000E+00
-1.009500E-02,+7.840000E+00
-1.009400E-02,+7.840000E+00
-1.009300E-02,+7.840000E+00
-1.009200E-02,+7.840000E+00
-1.009100E-02,+7.840000E+00
-1.009000E-02,+7.840000E+00
-1.008900E-02,+7.840000E+00
-1.008800E-02,+7.840000E+00
-1.008700E-02,+7.840000E+00
-1.008600E-02,+7.840000E+00
-1.008500E-02,+7.840000E+00
-1.008400E-02,+7.840000E+00
-1.008300E-02,+7.840000E+00
-1.008200E-02,+7.840000E+00
-1.008100E-02,+7.840000E+00
-1.008000E-02,+7.840000E+00
-1.007900E-02,+7.840000E+00
-1.007800E-02,+7.840000E+00
-1.007700E-02,+7.840000E+00
-1.007600E-02,+7.840000E+00
-1.007500E-02,+7.840000E+00
-1.007400E-02,+7.840000E+00
-1.007300E-02,+7.840000E+00
-1.007200E-02,+7.840000E+00
-1.007100E-02,+7.840000E+00
-1.007000E-02,+7.840000E+00
-1.006900E-02,+7.840000E+00
-1.006800E-02,+7.840000E+00
-1.006700E-02,+7.840000E+00
-1.006600E-02,+7.848000E+00
-1.006500E-02,+7.840000E+00
-1.006400E-02,+7.840000E+00
-1.006300E-02,+7.840000E+00
-1.006200E-02,+7.840000E+00
-1.006100E-02,+7.840000E+00
-1.006000E-02,+7.840000E+00
-1.005900E-02,+7.848000E+00
-1.005800E-02,+7.840000E+00
-1.005700E-02,+7.840000E+00
-1.005600E-02,+7.848000E+00
-1.005500E-02,+7.848000E+00
-1.005400E-02,+7.840000E+00
-1.005300E-02,+7.840000E+00
-1.005200E-02,+7.840000E+00
-1.005100E-02,+7.848000E+00
-1.005000E-02,+7.848000E+00
-1.004900E-02,+7.848000E+00
-1.004800E-02,+7.848000E+00
-1.004700E-02,+7.848000E+00
-1.004600E-02,+7.848000E+00
-1.004500E-02,+7.848000E+00
-1.004400E-02,+7.848000E+00
-1.004300E-02,+7.848000E+00
-1.004200E-02,+7.840000E+00
-1.004100E-02,+7.848000E+00
-1.004000E-02,+7.848000E+00
-1.003900E-02,+7.840000E+00
-1.003800E-02,+7.848000E+00
-1.003700E-02,+7.840000E+00
-1.003600E-02,+7.848000E+00
-1.003500E-02,+7.848000E+00
-1.003400E-02,+7.848000E+00
-1.003300E-02,+7.840000E+00
-1.003200E-02,+7.848000E+00
-1.003100E-02,+7.848000E+00
-1.003000E-02,+7.848000E+00
-1.002900E-02,+7.848000E+00
-1.002800E-02,+7.848000E+00
-1.002700E-02,+7.848000E+00
-1.002600E-02,+7.848000E+00
-1.002500E-02,+7.848000E+00
-1.002400E-02,+7.848000E+00
-1.002300E-02,+7.840000E+00
-1.002200E-02,+7.848000E+00
-1.002100E-02,+7.848000E+00
-1.002000E-02,+7.848000E+00
-1.001900E-02,+7.848000E+00
-1.001800E-02,+7.848000E+00
-1.001700E-02,+7.848000E+00
-1.001600E-02,+7.848000E+00
-1.001500E-02,+7.848000E+00
-1.001400E-02,+7.848000E+00
-1.001300E-02,+7.848000E+00
-1.001200E-02,+7.848000E+00
-1.001100E-02,+7.848000E+00
-1.001000E-02,+7.848000E+00
-1.000900E-02,+7.848000E+00
-1.000800E-02,+7.848000E+00
-1.000700E-02,+7.848000E+00
-1.000600E-02,+7.848000E+00
-1.000500E-02,+7.848000E+00
-1.000400E-02,+7.848000E+00
-1.000300E-02,+7.848000E+00
-1.000200E-02,+7.848000E+00
-1.000100E-02,+7.848000E+00
-1.000000E-02,+7.848000E+00
-9.999000E-03,+7.848000E+00
-9.998000E-03,+7.848000E+00
-9.997000E-03,+7.848000E+00
-9.996000E-03,+7.848000E+00
-9.995000E-03,+7.848000E+00
-9.994000E-03,+7.848000E+00
-9.993000E-03,+7.848000E+00
-9.992000E-03,+7.848000E+00
-9.991000E-03,+7.848000E+00
-9.990000E-03,+7.848000E+00
-9.989000E-03,+7.848000E+00
-9.988000E-03,+7.848000E+00
-9.987000E-03,+7.848000E+00
-9.986000E-03,+7.848000E+00
-9.985000E-03,+7.848000E+00
-9.984000E-03,+7.848000E+00
-9.983000E-03,+7.848000E+00
-9.982000E-03,+7.848000E+00
-9.981000E-03,+7.848000E+00
-9.980000E-03,+7.848000E+00
-9.979000E-03,+7.848000E+00
-9.978000E-03,+7.848000E+00
-9.977000E-03,+7.848000E+00
-9.976000E-03,+7.848000E+00
-9.975000E-03,+7.848000E+00
-9.974000E-03,+7.848000E+00
-9.973000E-03,+7.848000E+00
-9.972000E-03,+7.848000E+00
-9.971000E-03,+7.848000E+00
-9.970000E-03,+7.855999E+00
-9.969000E-03,+7.848000E+00
-9.968000E-03,+7.848000E+00
-9.967000E-03,+7.848000E+00
-9.966000E-03,+7.848000E+00
-9.965000E-03,+7.848000E+00
-9.964000E-03,+7.848000E+00
-9.963000E-03,+7.848000E+00
-9.962000E-03,+7.848000E+00
-9.961000E-03,+7.848000E+00
-9.960000E-03,+7.855999E+00
-9.959000E-03,+7.848000E+00
-9.958000E-03,+7.848000E+00
-9.957000E-03,+7.848000E+00
-9.956000E-03,+7.855999E+00
-9.955000E-03,+7.855999E+00
-9.954000E-03,+7.855999E+00
-9.953000E-03,+7.855999E+00
-9.952000E-03,+7.855999E+00
-9.951000E-03,+7.848000E+00
-9.950000E-03,+7.848000E+00
-9.949000E-03,+7.848000E+00
-9.948000E-03,+7.855999E+00
-9.947000E-03,+7.855999E+00
-9.946000E-03,+7.855999E+00
-9.945000E-03,+7.855999E+00
-9.944000E-03,+7.855999E+00
-9.943000E-03,+7.855999E+00
-9.942000E-03,+7.855999E+00
-9.941000E-03,+7.855999E+00
-9.940000E-03,+7.855999E+00
-9.939000E-03,+7.855999E+00
-9.938000E-03,+7.848000E+00
-9.937000E-03,+7.855999E+00
-9.936000E-03,+7.855999E+00
-9.935000E-03,+7.855999E+00
-9.934000E-03,+7.855999E+00
-9.933000E-03,+7.855999E+00
-9.932000E-03,+7.855999E+00
-9.931000E-03,+7.855999E+00
-9.930000E-03,+7.855999E+00
-9.929000E-03,+7.848000E+00
-9.928000E-03,+7.855999E+00
-9.927000E-03,+7.855999E+00
-9.926000E-03,+7.855999E+00
-9.925000E-03,+7.855999E+00
-9.924000E-03,+7.855999E+00
-9.923000E-03,+7.855999E+00
-9.922000E-03,+7.855999E+00
-9.921000E-03,+7.855999E+00
-9.920000E-03,+7.855999E+00
-9.919000E-03,+7.855999E+00
-9.918000E-03,+7.855999E+00
-9.917000E-03,+7.855999E+00
-9.916000E-03,+7.855999E+00
-9.915000E-03,+7.855999E+00
-9.914000E-03,+7.855999E+00
-9.913000E-03,+7.855999E+00
-9.912000E-03,+7.855999E+00
-9.911000E-03,+7.855999E+00
-9.910000E-03,+7.855999E+00
-9.909000E-03,+7.855999E+00
-9.908000E-03,+7.855999E+00
-9.907000E-03,+7.855999E+00
-9.906000E-03,+7.855999E+00
-9.905000E-03,+7.855999E+00
-9.904000E-03,+7.855999E+00
-9.903000E-03,+7.855999E+00
-9.902000E-03,+7.855999E+00
-9.901000E-03,+7.855999E+00
-9.900000E-03,+7.855999E+00
-9.899000E-03,+7.855999E+00
-9.898000E-03,+7.855999E+00
-9.897000E-03,+7.855999E+00
-9.896000E-03,+7.855999E+00
-9.895000E-03,+7.855999E+00
-9.894000E-03,+7.855999E+00
-9.893000E-03,+7.863999E+00
-9.892000E-03,+7.855999E+00
-9.891000E-03,+7.855999E+00
-9.890000E-03,+7.855999E+00
-9.889000E-03,+7.855999E+00
-9.888000E-03,+7.855999E+00
-9.887000E-03,+7.855999E+00
-9.886000E-03,+7.855999E+00
-9.885000E-03,+7.863999E+00
-9.884000E-03,+7.855999E+00
-9.883000E-03,+7.855999E+00
-9.882000E-03,+7.855999E+00
-9.881000E-03,+7.863999E+00
-9.880000E-03,+7.855999E+00
-9.879000E-03,+7.855999E+00
-9.878000E-03,+7.855999E+00
-9.877000E-03,+7.855999E+00
-9.876000E-03,+7.863999E+00
-9.875000E-03,+7.855999E+00
-9.874000E-03,+7.863999E+00
-9.873000E-03,+7.855999E+00
-9.872000E-03,+7.855999E+00
-9.871000E-03,+7.855999E+00
-9.870000E-03,+7.855999E+00
-9.869000E-03,+7.855999E+00
-9.868000E-03,+7.863999E+00
-9.867000E-03,+7.855999E+00
-9.866000E-03,+7.855999E+00
-9.865000E-03,+7.855999E+00
-9.864000E-03,+7.863999E+00
-9.863000E-03,+7.855999E+00
-9.862000E-03,+7.863999E+00
-9.861000E-03,+7.855999E+00
-9.860000E-03,+7.855999E+00
-9.859000E-03,+7.855999E+00
-9.858000E-03,+7.855999E+00
-9.857000E-03,+7.855999E+00
-9.856000E-03,+7.863999E+00
-9.855000E-03,+7.855999E+00
-9.854000E-03,+7.863999E+00
-9.853000E-03,+7.855999E+00
-9.852000E-03,+7.855999E+00
-9.851000E-03,+7.863999E+00
-9.850000E-03,+7.863999E+00
-9.849000E-03,+7.855999E+00
-9.848000E-03,+7.855999E+00
-9.847000E-03,+7.855999E+00
-9.846000E-03,+7.863999E+00
-9.845000E-03,+7.863999E+00
-9.844000E-03,+7.863999E+00
-9.843000E-03,+7.863999E+00
-9.842000E-03,+7.863999E+00
-9.841000E-03,+7.863999E+00
-9.840000E-03,+7.855999E+00
-9.839000E-03,+7.863999E+00
-9.838000E-03,+7.863999E+00
-9.837000E-03,+7.863999E+00
-9.836000E-03,+7.863999E+00
-9.835000E-03,+7.863999E+00
-9.834000E-03,+7.863999E+00
-9.833000E-03,+7.863999E+00
-9.832000E-03,+7.863999E+00
-9.831000E-03,+7.863999E+00
-9.830000E-03,+7.863999E+00
-9.829000E-03,+7.863999E+00
-9.828000E-03,+7.863999E+00
-9.827000E-03,+7.863999E+00
-9.826000E-03,+7.863999E+00
-9.825000E-03,+7.863999E+00
-9.824000E-03,+7.863999E+00
-9.823000E-03,+7.863999E+00
-9.822000E-03,+7.863999E+00
-9.821000E-03,+7.863999E+00
-9.820000E-03,+7.863999E+00
-9.819000E-03,+7.863999E+00
-9.818000E-03,+7.863999E+00
-9.817000E-03,+7.863999E+00
-9.816000E-03,+7.863999E+00
-9.815000E-03,+7.863999E+00
-9.814000E-03,+7.863999E+00
-9.813000E-03,+7.863999E+00
-9.812000E-03,+7.863999E+00
-9.811000E-03,+7.863999E+00
-9.810000E-03,+7.863999E+00
-9.809000E-03,+7.863999E+00
-9.808000E-03,+7.863999E+00
-9.807000E-03,+7.863999E+00
-9.806000E-03,+7.863999E+00
-9.805000E-03,+7.863999E+00
-9.804000E-03,+7.863999E+00
-9.803000E-03,+7.863999E+00
-9.802000E-03,+7.863999E+00
-9.801000E-03,+7.863999E+00
-9.800000E-03,+7.863999E+00
-9.799000E-03,+7.863999E+00
