Spectroscopy/data/S1.csv

Record Length,Analog:7000
Sample Interval,CH:0.0000040000000
Vertical Units,CH1:V CH2:V CH4:V,,,
Vertical Scale,CH1:+1.000000E+00 CH2:+5.000000E-02 CH4:+1.000000E-01,,,
Vertical Offset,CH1:-4.000000E+00 CH2:+1.710000E-01 CH4:-2.000000E+00,,,
Horizontal Units,us,,,
Horizontal Scale,2000.0000000000,,,
Model Number,SDS1204X-E,,,
Serial Number,SDSMMEBQ4R4722,,,
Software Version,8.1.6.1.35R2,,,
Source,CH1,CH2,CH4
Second,Volt,Volt,Volt
+1.060000E-02,+1.840000E+00,-3.750000E-01,+2.036000E+00
+1.060400E-02,+1.880000E+00,-3.750000E-01,+2.032000E+00
+1.060800E-02,+1.920000E+00,-3.750000E-01,+2.032000E+00
+1.061200E-02,+1.920000E+00,-3.730000E-01,+2.036000E+00
+1.061600E-02,+1.960000E+00,-3.750000E-01,+2.036000E+00
+1.062000E-02,+1.920000E+00,-3.730000E-01,+2.032000E+00
+1.062400E-02,+1.920000E+00,-3.750000E-01,+2.036000E+00
+1.062800E-02,+1.920000E+00,-3.730000E-01,+2.036000E+00
+1.063200E-02,+1.960000E+00,-3.730000E-01,+2.036000E+00
+1.063600E-02,+2.000000E+00,-3.730000E-01,+2.036000E+00
+1.064000E-02,+1.960000E+00,-3.730000E-01,+2.036000E+00
+1.064400E-02,+2.000000E+00,-3.750000E-01,+2.036000E+00
+1.064800E-02,+1.960000E+00,-3.730000E-01,+2.036000E+00
+1.065200E-02,+2.000000E+00,-3.730000E-01,+2.036000E+00
+1.065600E-02,+2.000000E+00,-3.750000E-01,+2.036000E+00
+1.066000E-02,+2.000000E+00,-3.730000E-01,+2.036000E+00
+1.066400E-02,+2.040000E+00,-3.750000E-01,+2.036000E+00
+1.066800E-02,+2.040000E+00,-3.750000E-01,+2.036000E+00
+1.067200E-02,+2.040000E+00,-3.730000E-01,+2.036000E+00
+1.067600E-02,+2.080000E+00,-3.730000E-01,+2.036000E+00
+1.068000E-02,+2.080000E+00,-3.730000E-01,+2.036000E+00
+1.068400E-02,+2.120000E+00,-3.730000E-01,+2.036000E+00
+1.068800E-02,+2.080000E+00,-3.730000E-01,+2.036000E+00
+1.069200E-02,+2.120000E+00,-3.710000E-01,+2.036000E+00
+1.069600E-02,+2.120000E+00,-3.710000E-01,+2.036000E+00
+1.070000E-02,+2.120000E+00,-3.710000E-01,+2.036000E+00
+1.070400E-02,+2.160000E+00,-3.710000E-01,+2.036000E+00
+1.070800E-02,+2.160000E+00,-3.710000E-01,+2.036000E+00
+1.071200E-02,+2.200000E+00,-3.730000E-01,+2.036000E+00
+1.071600E-02,+2.160000E+00,-3.730000E-01,+2.036000E+00
+1.072000E-02,+2.240000E+00,-3.710000E-01,+2.036000E+00
+1.072400E-02,+2.200000E+00,-3.710000E-01,+2.036000E+00
+1.072800E-02,+2.200000E+00,-3.710000E-01,+2.036000E+00
+1.073200E-02,+2.200000E+00,-3.730000E-01,+2.036000E+00
+1.073600E-02,+2.280000E+00,-3.710000E-01,+2.036000E+00
+1.074000E-02,+2.240000E+00,-3.710000E-01,+2.036000E+00
+1.074400E-02,+2.280000E+00,-3.710000E-01,+2.036000E+00
+1.074800E-02,+2.320000E+00,-3.710000E-01,+2.036000E+00
+1.075200E-02,+2.280000E+00,-3.730000E-01,+2.036000E+00
+1.075600E-02,+2.360000E+00,-3.690000E-01,+2.036000E+00
+1.076000E-02,+2.360000E+00,-3.710000E-01,+2.036000E+00
+1.076400E-02,+2.320000E+00,-3.690000E-01,+2.036000E+00
+1.076800E-02,+2.400000E+00,-3.690000E-01,+2.036000E+00
+1.077200E-02,+2.360000E+00,-3.690000E-01,+2.040000E+00
+1.077600E-02,+2.440000E+00,-3.690000E-01,+2.036000E+00
+1.078000E-02,+2.360000E+00,-3.710000E-01,+2.036000E+00
+1.078400E-02,+2.400000E+00,-3.690000E-01,+2.036000E+00
+1.078800E-02,+2.440000E+00,-3.710000E-01,+2.036000E+00
+1.079200E-02,+2.480000E+00,-3.710000E-01,+2.040000E+00
+1.079600E-02,+2.440000E+00,-3.690000E-01,+2.040000E+00
+1.080000E-02,+2.480000E+00,-3.710000E-01,+2.036000E+00
+1.080400E-02,+2.480000E+00,-3.690000E-01,+2.040000E+00
+1.080800E-02,+2.520000E+00,-3.690000E-01,+2.040000E+00
+1.081200E-02,+2.480000E+00,-3.710000E-01,+2.040000E+00
+1.081600E-02,+2.520000E+00,-3.670000E-01,+2.040000E+00
+1.082000E-02,+2.520000E+00,-3.690000E-01,+2.040000E+00
+1.082400E-02,+2.600000E+00,-3.690000E-01,+2.040000E+00
+1.082800E-02,+2.600000E+00,-3.670000E-01,+2.040000E+00
+1.083200E-02,+2.560000E+00,-3.710000E-01,+2.040000E+00
+1.083600E-02,+2.600000E+00,-3.710000E-01,+2.040000E+00
+1.084000E-02,+2.600000E+00,-3.670000E-01,+2.040000E+00
+1.084400E-02,+2.680000E+00,-3.670000E-01,+2.040000E+00
+1.084800E-02,+2.640000E+00,-3.710000E-01,+2.040000E+00
+1.085200E-02,+2.640000E+00,-3.690000E-01,+2.040000E+00
+1.085600E-02,+2.680000E+00,-3.670000E-01,+2.040000E+00
+1.086000E-02,+2.720000E+00,-3.690000E-01,+2.040000E+00
+1.086400E-02,+2.720000E+00,-3.710000E-01,+2.040000E+00
+1.086800E-02,+2.720000E+00,-3.690000E-01,+2.040000E+00
+1.087200E-02,+2.760000E+00,-3.690000E-01,+2.040000E+00
+1.087600E-02,+2.760000E+00,-3.670000E-01,+2.040000E+00
+1.088000E-02,+2.760000E+00,-3.670000E-01,+2.040000E+00
+1.088400E-02,+2.760000E+00,-3.670000E-01,+2.040000E+00
+1.088800E-02,+2.840000E+00,-3.670000E-01,+2.040000E+00
+1.089200E-02,+2.800000E+00,-3.670000E-01,+2.040000E+00
+1.089600E-02,+2.840000E+00,-3.670000E-01,+2.040000E+00
+1.090000E-02,+2.840000E+00,-3.670000E-01,+2.040000E+00
+1.090400E-02,+2.840000E+00,-3.690000E-01,+2.040000E+00
+1.090800E-02,+2.880000E+00,-3.670000E-01,+2.040000E+00
+1.091200E-02,+2.880000E+00,-3.690000E-01,+2.040000E+00
+1.091600E-02,+2.920000E+00,-3.690000E-01,+2.040000E+00
+1.092000E-02,+2.960000E+00,-3.690000E-01,+2.040000E+00
+1.092400E-02,+2.960000E+00,-3.670000E-01,+2.040000E+00
+1.092800E-02,+2.920000E+00,-3.650000E-01,+2.040000E+00
+1.093200E-02,+3.000000E+00,-3.670000E-01,+2.040000E+00
+1.093600E-02,+3.040000E+00,-3.690000E-01,+2.040000E+00
+1.094000E-02,+3.000000E+00,-3.670000E-01,+2.040000E+00
+1.094400E-02,+3.000000E+00,-3.650000E-01,+2.040000E+00
+1.094800E-02,+3.040000E+00,-3.670000E-01,+2.040000E+00
+1.095200E-02,+3.040000E+00,-3.650000E-01,+2.040000E+00
+1.095600E-02,+3.080000E+00,-3.650000E-01,+2.040000E+00
+1.096000E-02,+3.080000E+00,-3.650000E-01,+2.040000E+00
+1.096400E-02,+3.080000E+00,-3.650000E-01,+2.040000E+00
+1.096800E-02,+3.120000E+00,-3.650000E-01,+2.040000E+00
+1.097200E-02,+3.120000E+00,-3.650000E-01,+2.040000E+00
+1.097600E-02,+3.120000E+00,-3.650000E-01,+2.040000E+00
+1.098000E-02,+3.160000E+00,-3.670000E-01,+2.040000E+00
+1.098400E-02,+3.160000E+00,-3.650000E-01,+2.044000E+00
+1.098800E-02,+3.200000E+00,-3.650000E-01,+2.044000E+00
+1.099200E-02,+3.240000E+00,-3.650000E-01,+2.040000E+00
+1.099600E-02,+3.200000E+00,-3.650000E-01,+2.044000E+00
+1.100000E-02,+3.240000E+00,-3.670000E-01,+2.044000E+00
+1.100400E-02,+3.240000E+00,-3.670000E-01,+2.044000E+00
+1.100800E-02,+3.280000E+00,-3.650000E-01,+2.044000E+00
+1.101200E-02,+3.280000E+00,-3.630000E-01,+2.044000E+00
+1.101600E-02,+3.280000E+00,-3.670000E-01,+2.044000E+00
+1.102000E-02,+3.320000E+00,-3.670000E-01,+2.044000E+00
+1.102400E-02,+3.320000E+00,-3.670000E-01,+2.044000E+00
+1.102800E-02,+3.360000E+00,-3.630000E-01,+2.044000E+00
+1.103200E-02,+3.360000E+00,-3.650000E-01,+2.040000E+00
+1.103600E-02,+3.400000E+00,-3.650000E-01,+2.044000E+00
+1.104000E-02,+3.400000E+00,-3.630000E-01,+2.044000E+00
+1.104400E-02,+3.400000E+00,-3.630000E-01,+2.044000E+00
+1.104800E-02,+3.440000E+00,-3.630000E-01,+2.044000E+00
+1.105200E-02,+3.440000E+00,-3.650000E-01,+2.044000E+00
+1.105600E-02,+3.480000E+00,-3.650000E-01,+2.044000E+00
+1.106000E-02,+3.520000E+00,-3.650000E-01,+2.044000E+00
+1.106400E-02,+3.480000E+00,-3.630000E-01,+2.044000E+00
+1.106800E-02,+3.520000E+00,-3.630000E-01,+2.044000E+00
+1.107200E-02,+3.520000E+00,-3.650000E-01,+2.044000E+00
+1.107600E-02,+3.560000E+00,-3.650000E-01,+2.044000E+00
+1.108000E-02,+3.520000E+00,-3.650000E-01,+2.044000E+00
+1.108400E-02,+3.600000E+00,-3.630000E-01,+2.044000E+00
+1.108800E-02,+3.600000E+00,-3.630000E-01,+2.044000E+00
+1.109200E-02,+3.600000E+00,-3.630000E-01,+2.044000E+00
+1.109600E-02,+3.600000E+00,-3.650000E-01,+2.044000E+00
+1.110000E-02,+3.600000E+00,-3.630000E-01,+2.044000E+00
+1.110400E-02,+3.640000E+00,-3.630000E-01,+2.044000E+00
+1.110800E-02,+3.640000E+00,-3.630000E-01,+2.044000E+00
+1.111200E-02,+3.680000E+00,-3.610000E-01,+2.044000E+00
+1.111600E-02,+3.680000E+00,-3.610000E-01,+2.044000E+00
+1.112000E-02,+3.680000E+00,-3.630000E-01,+2.044000E+00
+1.112400E-02,+3.720000E+00,-3.610000E-01,+2.044000E+00
+1.112800E-02,+3.720000E+00,-3.630000E-01,+2.044000E+00
+1.113200E-02,+3.760000E+00,-3.610000E-01,+2.044000E+00
+1.113600E-02,+3.800000E+00,-3.610000E-01,+2.044000E+00
+1.114000E-02,+3.760000E+00,-3.610000E-01,+2.044000E+00
+1.114400E-02,+3.760000E+00,-3.650000E-01,+2.044000E+00
+1.114800E-02,+3.800000E+00,-3.610000E-01,+2.044000E+00
+1.115200E-02,+3.800000E+00,-3.610000E-01,+2.044000E+00
+1.115600E-02,+3.840000E+00,-3.630000E-01,+2.044000E+00
+1.116000E-02,+3.800000E+00,-3.610000E-01,+2.044000E+00
+1.116400E-02,+3.840000E+00,-3.610000E-01,+2.044000E+00
+1.116800E-02,+3.880000E+00,-3.630000E-01,+2.044000E+00
+1.117200E-02,+3.880000E+00,-3.630000E-01,+2.044000E+00
+1.117600E-02,+3.880000E+00,-3.630000E-01,+2.048000E+00
+1.118000E-02,+3.920000E+00,-3.610000E-01,+2.048000E+00
+1.118400E-02,+3.920000E+00,-3.610000E-01,+2.044000E+00
+1.118800E-02,+3.960000E+00,-3.610000E-01,+2.048000E+00
+1.119200E-02,+3.920000E+00,-3.610000E-01,+2.048000E+00
+1.119600E-02,+3.960000E+00,-3.590000E-01,+2.048000E+00
+1.120000E-02,+3.960000E+00,-3.630000E-01,+2.048000E+00
+1.120400E-02,+4.000000E+00,-3.610000E-01,+2.048000E+00
+1.120800E-02,+4.000000E+00,-3.610000E-01,+2.048000E+00
+1.121200E-02,+4.000000E+00,-3.590000E-01,+2.048000E+00
+1.121600E-02,+4.040000E+00,-3.610000E-01,+2.048000E+00
+1.122000E-02,+4.040000E+00,-3.610000E-01,+2.048000E+00
+1.122400E-02,+4.040000E+00,-3.590000E-01,+2.048000E+00
+1.122800E-02,+4.040000E+00,-3.590000E-01,+2.048000E+00
+1.123200E-02,+4.080000E+00,-3.610000E-01,+2.048000E+00
+1.123600E-02,+4.080000E+00,-3.610000E-01,+2.048000E+00
+1.124000E-02,+4.080000E+00,-3.590000E-01,+2.048000E+00
+1.124400E-02,+4.080000E+00,-3.590000E-01,+2.048000E+00
+1.124800E-02,+4.120000E+00,-3.610000E-01,+2.048000E+00
+1.125200E-02,+4.120000E+00,-3.590000E-01,+2.048000E+00
+1.125600E-02,+4.120000E+00,-3.610000E-01,+2.048000E+00
+1.126000E-02,+4.160000E+00,-3.590000E-01,+2.048000E+00
+1.126400E-02,+4.160000E+00,-3.610000E-01,+2.048000E+00
+1.126800E-02,+4.160000E+00,-3.590000E-01,+2.048000E+00
+1.127200E-02,+4.160000E+00,-3.590000E-01,+2.048000E+00
+1.127600E-02,+4.160000E+00,-3.570000E-01,+2.048000E+00
+1.128000E-02,+4.200000E+00,-3.590000E-01,+2.048000E+00
+1.128400E-02,+4.200000E+00,-3.570000E-01,+2.048000E+00
+1.128800E-02,+4.200000E+00,-3.590000E-01,+2.048000E+00
+1.129200E-02,+4.240000E+00,-3.590000E-01,+2.048000E+00
+1.129600E-02,+4.240000E+00,-3.570000E-01,+2.048000E+00
+1.130000E-02,+4.240000E+00,-3.590000E-01,+2.048000E+00
+1.130400E-02,+4.240000E+00,-3.570000E-01,+2.048000E+00
+1.130800E-02,+4.280000E+00,-3.590000E-01,+2.048000E+00
+1.131200E-02,+4.240000E+00,-3.570000E-01,+2.048000E+00
+1.131600E-02,+4.280000E+00,-3.570000E-01,+2.048000E+00
+1.132000E-02,+4.280000E+00,-3.590000E-01,+2.048000E+00
+1.132400E-02,+4.280000E+00,-3.590000E-01,+2.048000E+00
+1.132800E-02,+4.320000E+00,-3.590000E-01,+2.048000E+00
+1.133200E-02,+4.320000E+00,-3.570000E-01,+2.048000E+00
+1.133600E-02,+4.320000E+00,-3.570000E-01,+2.048000E+00
+1.134000E-02,+4.360000E+00,-3.570000E-01,+2.048000E+00
+1.134400E-02,+4.360000E+00,-3.590000E-01,+2.048000E+00
+1.134800E-02,+4.360000E+00,-3.590000E-01,+2.048000E+00
+1.135200E-02,+4.360000E+00,-3.590000E-01,+2.052000E+00
+1.135600E-02,+4.360000E+00,-3.570000E-01,+2.052000E+00
+1.136000E-02,+4.360000E+00,-3.570000E-01,+2.052000E+00
+1.136400E-02,+4.400000E+00,-3.570000E-01,+2.048000E+00
+1.136800E-02,+4.400000E+00,-3.570000E-01,+2.048000E+00
+1.137200E-02,+4.400000E+00,-3.590000E-01,+2.052000E+00
+1.137600E-02,+4.400000E+00,-3.570000E-01,+2.048000E+00
+1.138000E-02,+4.440000E+00,-3.550000E-01,+2.052000E+00
+1.138400E-02,+4.440000E+00,-3.590000E-01,+2.052000E+00
+1.138800E-02,+4.440000E+00,-3.570000E-01,+2.052000E+00
+1.139200E-02,+4.440000E+00,-3.570000E-01,+2.052000E+00
+1.139600E-02,+4.440000E+00,-3.570000E-01,+2.052000E+00
+1.140000E-02,+4.440000E+00,-3.550000E-01,+2.052000E+00
+1.140400E-02,+4.480000E+00,-3.550000E-01,+2.052000E+00
+1.140800E-02,+4.480000E+00,-3.570000E-01,+2.052000E+00
+1.141200E-02,+4.480000E+00,-3.550000E-01,+2.052000E+00
+1.141600E-02,+4.480000E+00,-3.550000E-01,+2.052000E+00
+1.142000E-02,+4.480000E+00,-3.550000E-01,+2.052000E+00
+1.142400E-02,+4.480000E+00,-3.550000E-01,+2.052000E+00
+1.142800E-02,+4.520000E+00,-3.550000E-01,+2.052000E+00
+1.143200E-02,+4.480000E+00,-3.550000E-01,+2.052000E+00
+1.143600E-02,+4.520000E+00,-3.550000E-01,+2.052000E+00
+1.144000E-02,+4.520000E+00,-3.550000E-01,+2.052000E+00
+1.144400E-02,+4.520000E+00,-3.570000E-01,+2.052000E+00
+1.144800E-02,+4.520000E+00,-3.550000E-01,+2.052000E+00
+1.145200E-02,+4.520000E+00,-3.550000E-01,+2.052000E+00
+1.145600E-02,+4.560000E+00,-3.550000E-01,+2.052000E+00
+1.146000E-02,+4.560000E+00,-3.570000E-01,+2.052000E+00
+1.146400E-02,+4.560000E+00,-3.530000E-01,+2.052000E+00
+1.146800E-02,+4.560000E+00,-3.530000E-01,+2.052000E+00
+1.147200E-02,+4.560000E+00,-3.550000E-01,+2.052000E+00
+1.147600E-02,+4.560000E+00,-3.550000E-01,+2.052000E+00
+1.148000E-02,+4.560000E+00,-3.550000E-01,+2.052000E+00
+1.148400E-02,+4.560000E+00,-3.550000E-01,+2.052000E+00
+1.148800E-02,+4.600000E+00,-3.530000E-01,+2.052000E+00
+1.149200E-02,+4.600000E+00,-3.530000E-01,+2.052000E+00
+1.149600E-02,+4.600000E+00,-3.550000E-01,+2.052000E+00
+1.150000E-02,+4.600000E+00,-3.530000E-01,+2.052000E+00
+1.150400E-02,+4.600000E+00,-3.550000E-01,+2.052000E+00
+1.150800E-02,+4.600000E+00,-3.550000E-01,+2.052000E+00
+1.151200E-02,+4.600000E+00,-3.550000E-01,+2.052000E+00
+1.151600E-02,+4.600000E+00,-3.530000E-01,+2.052000E+00
+1.152000E-02,+4.600000E+00,-3.530000E-01,+2.052000E+00
+1.152400E-02,+4.600000E+00,-3.530000E-01,+2.052000E+00
+1.152800E-02,+4.600000E+00,-3.530000E-01,+2.052000E+00
+1.153200E-02,+4.600000E+00,-3.550000E-01,+2.052000E+00
+1.153600E-02,+4.600000E+00,-3.550000E-01,+2.052000E+00
+1.154000E-02,+4.600000E+00,-3.530000E-01,+2.056000E+00
+1.154400E-02,+4.640000E+00,-3.530000E-01,+2.056000E+00
+1.154800E-02,+4.640000E+00,-3.510000E-01,+2.056000E+00
+1.155200E-02,+4.640000E+00,-3.510000E-01,+2.056000E+00
+1.155600E-02,+4.640000E+00,-3.510000E-01,+2.056000E+00
+1.156000E-02,+4.640000E+00,-3.510000E-01,+2.056000E+00
+1.156400E-02,+4.640000E+00,-3.530000E-01,+2.056000E+00
+1.156800E-02,+4.640000E+00,-3.530000E-01,+2.052000E+00
+1.157200E-02,+4.640000E+00,-3.530000E-01,+2.056000E+00
+1.157600E-02,+4.640000E+00,-3.530000E-01,+2.056000E+00
+1.158000E-02,+4.640000E+00,-3.510000E-01,+2.056000E+00
+1.158400E-02,+4.640000E+00,-3.510000E-01,+2.056000E+00
+1.158800E-02,+4.640000E+00,-3.510000E-01,+2.056000E+00
+1.159200E-02,+4.640000E+00,-3.510000E-01,+2.056000E+00
+1.159600E-02,+4.640000E+00,-3.530000E-01,+2.056000E+00
+1.160000E-02,+4.640000E+00,-3.530000E-01,+2.056000E+00
+1.160400E-02,+4.640000E+00,-3.530000E-01,+2.056000E+00
+1.160800E-02,+4.640000E+00,-3.510000E-01,+2.056000E+00
+1.161200E-02,+4.640000E+00,-3.510000E-01,+2.056000E+00
+1.161600E-02,+4.640000E+00,-3.510000E-01,+2.056000E+00
+1.162000E-02,+4.640000E+00,-3.510000E-01,+2.056000E+00
+1.162400E-02,+4.640000E+00,-3.510000E-01,+2.056000E+00
+1.162800E-02,+4.640000E+00,-3.510000E-01,+2.056000E+00
+1.163200E-02,+4.640000E+00,-3.530000E-01,+2.056000E+00
+1.163600E-02,+4.640000E+00,-3.510000E-01,+2.056000E+00
+1.164000E-02,+4.640000E+00,-3.510000E-01,+2.056000E+00
+1.164400E-02,+4.640000E+00,-3.510000E-01,+2.056000E+00
+1.164800E-02,+4.640000E+00,-3.510000E-01,+2.056000E+00
+1.165200E-02,+4.640000E+00,-3.510000E-01,+2.056000E+00
+1.165600E-02,+4.640000E+00,-3.490000E-01,+2.056000E+00
+1.166000E-02,+4.640000E+00,-3.510000E-01,+2.056000E+00
+1.166400E-02,+4.640000E+00,-3.510000E-01,+2.056000E+00
+1.166800E-02,+4.640000E+00,-3.510000E-01,+2.056000E+00
+1.167200E-02,+4.640000E+00,-3.490000E-01,+2.056000E+00
+1.167600E-02,+4.600000E+00,-3.510000E-01,+2.056000E+00
+1.168000E-02,+4.600000E+00,-3.490000E-01,+2.056000E+00
+1.168400E-02,+4.600000E+00,-3.490000E-01,+2.056000E+00
+1.168800E-02,+4.600000E+00,-3.490000E-01,+2.056000E+00
+1.169200E-02,+4.600000E+00,-3.510000E-01,+2.056000E+00
+1.169600E-02,+4.600000E+00,-3.490000E-01,+2.056000E+00
+1.170000E-02,+4.600000E+00,-3.490000E-01,+2.056000E+00
+1.170400E-02,+4.600000E+00,-3.470000E-01,+2.056000E+00
+1.170800E-02,+4.600000E+00,-3.490000E-01,+2.056000E+00
+1.171200E-02,+4.600000E+00,-3.510000E-01,+2.056000E+00
+1.171600E-02,+4.600000E+00,-3.510000E-01,+2.056000E+00
+1.172000E-02,+4.600000E+00,-3.510000E-01,+2.056000E+00
+1.172400E-02,+4.600000E+00,-3.470000E-01,+2.056000E+00
+1.172800E-02,+4.600000E+00,-3.490000E-01,+2.056000E+00
+1.173200E-02,+4.560000E+00,-3.470000E-01,+2.060000E+00
+1.173600E-02,+4.600000E+00,-3.490000E-01,+2.060000E+00
+1.174000E-02,+4.560000E+00,-3.490000E-01,+2.056000E+00
+1.174400E-02,+4.560000E+00,-3.470000E-01,+2.060000E+00
+1.174800E-02,+4.560000E+00,-3.490000E-01,+2.056000E+00
+1.175200E-02,+4.560000E+00,-3.470000E-01,+2.060000E+00
+1.175600E-02,+4.520000E+00,-3.470000E-01,+2.060000E+00
+1.176000E-02,+4.560000E+00,-3.490000E-01,+2.060000E+00
+1.176400E-02,+4.560000E+00,-3.470000E-01,+2.060000E+00
+1.176800E-02,+4.520000E+00,-3.470000E-01,+2.060000E+00
+1.177200E-02,+4.520000E+00,-3.470000E-01,+2.060000E+00
+1.177600E-02,+4.520000E+00,-3.490000E-01,+2.060000E+00
+1.178000E-02,+4.520000E+00,-3.470000E-01,+2.060000E+00
+1.178400E-02,+4.520000E+00,-3.490000E-01,+2.060000E+00
+1.178800E-02,+4.520000E+00,-3.490000E-01,+2.060000E+00
+1.179200E-02,+4.520000E+00,-3.470000E-01,+2.060000E+00
+1.179600E-02,+4.480000E+00,-3.470000E-01,+2.060000E+00
+1.180000E-02,+4.480000E+00,-3.470000E-01,+2.060000E+00
+1.180400E-02,+4.480000E+00,-3.470000E-01,+2.060000E+00
+1.180800E-02,+4.480000E+00,-3.470000E-01,+2.060000E+00
+1.181200E-02,+4.480000E+00,-3.470000E-01,+2.060000E+00
+1.181600E-02,+4.480000E+00,-3.450000E-01,+2.060000E+00
+1.182000E-02,+4.440000E+00,-3.470000E-01,+2.060000E+00
+1.182400E-02,+4.440000E+00,-3.450000E-01,+2.060000E+00
+1.182800E-02,+4.440000E+00,-3.470000E-01,+2.060000E+00
+1.183200E-02,+4.440000E+00,-3.450000E-01,+2.060000E+00
+1.183600E-02,+4.440000E+00,-3.470000E-01,+2.060000E+00
+1.184000E-02,+4.400000E+00,-3.450000E-01,+2.060000E+00
+1.184400E-02,+4.440000E+00,-3.470000E-01,+2.060000E+00
+1.184800E-02,+4.400000E+00,-3.450000E-01,+2.060000E+00
+1.185200E-02,+4.400000E+00,-3.450000E-01,+2.060000E+00
+1.185600E-02,+4.400000E+00,-3.470000E-01,+2.060000E+00
+1.186000E-02,+4.400000E+00,-3.470000E-01,+2.060000E+00
+1.186400E-02,+4.360000E+00,-3.450000E-01,+2.060000E+00
+1.186800E-02,+4.360000E+00,-3.470000E-01,+2.060000E+00
+1.187200E-02,+4.360000E+00,-3.450000E-01,+2.060000E+00
+1.187600E-02,+4.360000E+00,-3.430000E-01,+2.060000E+00
+1.188000E-02,+4.360000E+00,-3.470000E-01,+2.060000E+00
+1.188400E-02,+4.360000E+00,-3.450000E-01,+2.060000E+00
+1.188800E-02,+4.320000E+00,-3.430000E-01,+2.060000E+00
+1.189200E-02,+4.320000E+00,-3.450000E-01,+2.060000E+00
+1.189600E-02,+4.320000E+00,-3.450000E-01,+2.060000E+00
+1.190000E-02,+4.320000E+00,-3.450000E-01,+2.060000E+00
+1.190400E-02,+4.280000E+00,-3.470000E-01,+2.060000E+00
+1.190800E-02,+4.280000E+00,-3.430000E-01,+2.060000E+00
+1.191200E-02,+4.280000E+00,-3.430000E-01,+2.060000E+00
+1.191600E-02,+4.280000E+00,-3.430000E-01,+2.064000E+00
+1.192000E-02,+4.280000E+00,-3.430000E-01,+2.060000E+00
+1.192400E-02,+4.240000E+00,-3.430000E-01,+2.064000E+00
+1.192800E-02,+4.240000E+00,-3.430000E-01,+2.064000E+00
+1.193200E-02,+4.240000E+00,-3.450000E-01,+2.064000E+00
+1.193600E-02,+4.240000E+00,-3.450000E-01,+2.060000E+00
+1.194000E-02,+4.200000E+00,-3.450000E-01,+2.064000E+00
+1.194400E-02,+4.200000E+00,-3.430000E-01,+2.064000E+00
+1.194800E-02,+4.200000E+00,-3.430000E-01,+2.064000E+00
+1.195200E-02,+4.160000E+00,-3.430000E-01,+2.064000E+00
+1.195600E-02,+4.160000E+00,-3.430000E-01,+2.064000E+00
+1.196000E-02,+4.160000E+00,-3.410000E-01,+2.064000E+00
+1.196400E-02,+4.120000E+00,-3.410000E-01,+2.064000E+00
+1.196800E-02,+4.160000E+00,-3.410000E-01,+2.064000E+00
+1.197200E-02,+4.120000E+00,-3.410000E-01,+2.064000E+00
+1.197600E-02,+4.120000E+00,-3.410000E-01,+2.064000E+00
+1.198000E-02,+4.080000E+00,-3.430000E-01,+2.064000E+00
+1.198400E-02,+4.120000E+00,-3.430000E-01,+2.064000E+00
+1.198800E-02,+4.080000E+00,-3.430000E-01,+2.064000E+00
+1.199200E-02,+4.080000E+00,-3.430000E-01,+2.064000E+00
