Spectroscopy/data/S1_BIG.csv

Record Length,Analog:7000
Sample Interval,CH:0.0000199999995
Vertical Units,CH1:V CH2:V CH4:V,,,
Vertical Scale,CH1:+1.000000E+00 CH2:+2.000000E-01 CH4:+2.000000E-01,,,
Vertical Offset,CH1:-3.920000E+00 CH2:+0.000000E+00 CH4:-2.656000E+00,,,
Horizontal Units,us,,,
Horizontal Scale,10000.0000000000,,,
Model Number,SDS1204X-E,,,
Serial Number,SDSMMEBQ4R4722,,,
Software Version,8.1.6.1.35R2,,,
Source,CH1,CH2,CH4
Second,Volt,Volt,Volt
-6.420000E-02,+3.560000E+00,+2.160000E-01,+2.600000E+00
-6.418000E-02,+3.680000E+00,+2.240000E-01,+2.608000E+00
-6.416000E-02,+3.840000E+00,+2.240000E-01,+2.608000E+00
-6.414000E-02,+3.960000E+00,+2.160000E-01,+2.600000E+00
-6.412000E-02,+4.040000E+00,+2.160000E-01,+2.600000E+00
-6.410000E-02,+4.240000E+00,+2.240000E-01,+2.608000E+00
-6.408000E-02,+4.360000E+00,+2.240000E-01,+2.600000E+00
-6.406000E-02,+4.520000E+00,+2.240000E-01,+2.608000E+00
-6.404000E-02,+4.640000E+00,+2.240000E-01,+2.608000E+00
-6.402000E-02,+4.760000E+00,+2.240000E-01,+2.608000E+00
-6.400000E-02,+4.880000E+00,+2.240000E-01,+2.608000E+00
-6.398000E-02,+5.000000E+00,+2.240000E-01,+2.608000E+00
-6.396000E-02,+5.120000E+00,+2.240000E-01,+2.608000E+00
-6.394000E-02,+5.240000E+00,+2.240000E-01,+2.608000E+00
-6.392000E-02,+5.360000E+00,+2.240000E-01,+2.608000E+00
-6.390000E-02,+5.440000E+00,+2.240000E-01,+2.608000E+00
-6.388000E-02,+5.520000E+00,+2.240000E-01,+2.608000E+00
-6.386000E-02,+5.600000E+00,+2.320000E-01,+2.608000E+00
-6.384000E-02,+5.640000E+00,+2.240000E-01,+2.608000E+00
-6.382000E-02,+5.760000E+00,+2.160000E-01,+2.608000E+00
-6.380000E-02,+5.800000E+00,+2.240000E-01,+2.608000E+00
-6.378000E-02,+5.840000E+00,+2.320000E-01,+2.616000E+00
-6.376000E-02,+5.840000E+00,+2.320000E-01,+2.608000E+00
-6.374000E-02,+5.840000E+00,+2.240000E-01,+2.608000E+00
-6.372000E-02,+5.880000E+00,+2.320000E-01,+2.616000E+00
-6.370000E-02,+5.880000E+00,+2.240000E-01,+2.616000E+00
-6.368000E-02,+5.840000E+00,+2.320000E-01,+2.616000E+00
-6.366000E-02,+5.800000E+00,+2.320000E-01,+2.616000E+00
-6.364000E-02,+5.760000E+00,+2.320000E-01,+2.616000E+00
-6.362000E-02,+5.680000E+00,+2.400000E-01,+2.608000E+00
-6.360000E-02,+5.640000E+00,+2.320000E-01,+2.616000E+00
-6.358000E-02,+5.560000E+00,+2.320000E-01,+2.616000E+00
-6.356000E-02,+5.480000E+00,+2.320000E-01,+2.616000E+00
-6.354000E-02,+5.400000E+00,+2.320000E-01,+2.616000E+00
-6.352000E-02,+5.280000E+00,+2.320000E-01,+2.616000E+00
-6.350000E-02,+5.160000E+00,+2.400000E-01,+2.616000E+00
-6.348000E-02,+5.040000E+00,+2.320000E-01,+2.616000E+00
-6.346000E-02,+4.920000E+00,+2.400000E-01,+2.624000E+00
-6.344000E-02,+4.760000E+00,+2.320000E-01,+2.616000E+00
-6.342000E-02,+4.680000E+00,+2.400000E-01,+2.624000E+00
-6.340000E-02,+4.480000E+00,+2.400000E-01,+2.624000E+00
-6.338000E-02,+4.360000E+00,+2.400000E-01,+2.624000E+00
-6.336000E-02,+4.240000E+00,+2.320000E-01,+2.624000E+00
-6.334000E-02,+4.080000E+00,+2.320000E-01,+2.624000E+00
-6.332000E-02,+3.960000E+00,+2.320000E-01,+2.624000E+00
-6.330000E-02,+3.800000E+00,+2.400000E-01,+2.624000E+00
-6.328000E-02,+3.640000E+00,+2.480000E-01,+2.624000E+00
-6.326000E-02,+3.520000E+00,+2.400000E-01,+2.624000E+00
-6.324000E-02,+3.360000E+00,+2.400000E-01,+2.624000E+00
-6.322000E-02,+3.240000E+00,+2.400000E-01,+2.624000E+00
-6.320000E-02,+3.080000E+00,+2.400000E-01,+2.624000E+00
-6.318000E-02,+2.960000E+00,+2.400000E-01,+2.624000E+00
-6.316000E-02,+2.880000E+00,+2.400000E-01,+2.624000E+00
-6.314000E-02,+2.760000E+00,+2.480000E-01,+2.632000E+00
-6.312000E-02,+2.600000E+00,+2.480000E-01,+2.632000E+00
-6.310000E-02,+2.480000E+00,+2.480000E-01,+2.624000E+00
-6.308000E-02,+2.400000E+00,+2.400000E-01,+2.632000E+00
-6.306000E-02,+2.280000E+00,+2.480000E-01,+2.632000E+00
-6.304000E-02,+2.200000E+00,+2.480000E-01,+2.632000E+00
-6.302000E-02,+2.160000E+00,+2.480000E-01,+2.632000E+00
-6.300000E-02,+2.080000E+00,+2.400000E-01,+2.632000E+00
-6.298000E-02,+2.040000E+00,+2.480000E-01,+2.632000E+00
-6.296000E-02,+1.960000E+00,+2.480000E-01,+2.632000E+00
-6.294000E-02,+1.960000E+00,+2.480000E-01,+2.632000E+00
-6.292000E-02,+1.960000E+00,+2.480000E-01,+2.632000E+00
-6.290000E-02,+1.920000E+00,+2.480000E-01,+2.632000E+00
-6.288000E-02,+1.920000E+00,+2.480000E-01,+2.632000E+00
-6.286000E-02,+1.920000E+00,+2.480000E-01,+2.632000E+00
-6.284000E-02,+2.000000E+00,+2.560000E-01,+2.632000E+00
-6.282000E-02,+2.000000E+00,+2.480000E-01,+2.632000E+00
-6.280000E-02,+2.080000E+00,+2.480000E-01,+2.632000E+00
-6.278000E-02,+2.080000E+00,+2.480000E-01,+2.632000E+00
-6.276000E-02,+2.120000E+00,+2.560000E-01,+2.640000E+00
-6.274000E-02,+2.200000E+00,+2.480000E-01,+2.632000E+00
-6.272000E-02,+2.280000E+00,+2.480000E-01,+2.632000E+00
-6.270000E-02,+2.400000E+00,+2.560000E-01,+2.640000E+00
-6.268000E-02,+2.480000E+00,+2.480000E-01,+2.640000E+00
-6.266000E-02,+2.600000E+00,+2.480000E-01,+2.640000E+00
-6.264000E-02,+2.720000E+00,+2.560000E-01,+2.640000E+00
-6.262000E-02,+2.800000E+00,+2.560000E-01,+2.640000E+00
-6.260000E-02,+2.960000E+00,+2.480000E-01,+2.640000E+00
-6.258000E-02,+3.040000E+00,+2.560000E-01,+2.640000E+00
-6.256000E-02,+3.160000E+00,+2.560000E-01,+2.640000E+00
-6.254000E-02,+3.320000E+00,+2.560000E-01,+2.640000E+00
-6.252000E-02,+3.440000E+00,+2.560000E-01,+2.640000E+00
-6.250000E-02,+3.560000E+00,+2.560000E-01,+2.640000E+00
-6.248000E-02,+3.720000E+00,+2.560000E-01,+2.640000E+00
-6.246000E-02,+3.840000E+00,+2.560000E-01,+2.640000E+00
-6.244000E-02,+3.960000E+00,+2.560000E-01,+2.640000E+00
-6.242000E-02,+4.120000E+00,+2.560000E-01,+2.640000E+00
-6.240000E-02,+4.280000E+00,+2.560000E-01,+2.640000E+00
-6.238000E-02,+4.360000E+00,+2.560000E-01,+2.648000E+00
-6.236000E-02,+4.520000E+00,+2.640000E-01,+2.648000E+00
-6.234000E-02,+4.680000E+00,+2.640000E-01,+2.648000E+00
-6.232000E-02,+4.760000E+00,+2.640000E-01,+2.648000E+00
-6.230000E-02,+4.880000E+00,+2.640000E-01,+2.648000E+00
-6.228000E-02,+5.000000E+00,+2.560000E-01,+2.648000E+00
-6.226000E-02,+5.120000E+00,+2.560000E-01,+2.648000E+00
-6.224000E-02,+5.240000E+00,+2.560000E-01,+2.648000E+00
-6.222000E-02,+5.320000E+00,+2.640000E-01,+2.648000E+00
-6.220000E-02,+5.440000E+00,+2.640000E-01,+2.648000E+00
-6.218000E-02,+5.560000E+00,+2.640000E-01,+2.648000E+00
-6.216000E-02,+5.600000E+00,+2.560000E-01,+2.648000E+00
-6.214000E-02,+5.680000E+00,+2.640000E-01,+2.656000E+00
-6.212000E-02,+5.720000E+00,+2.560000E-01,+2.648000E+00
-6.210000E-02,+5.800000E+00,+2.560000E-01,+2.648000E+00
-6.208000E-02,+5.840000E+00,+2.640000E-01,+2.648000E+00
-6.206000E-02,+5.920000E+00,+2.560000E-01,+2.656000E+00
-6.204000E-02,+5.920000E+00,+2.640000E-01,+2.648000E+00
-6.202000E-02,+5.960000E+00,+2.640000E-01,+2.664000E+00
-6.200000E-02,+5.920000E+00,+2.640000E-01,+2.656000E+00
-6.198000E-02,+5.960000E+00,+2.640000E-01,+2.656000E+00
-6.196000E-02,+5.960000E+00,+2.720000E-01,+2.656000E+00
-6.194000E-02,+5.960000E+00,+2.720000E-01,+2.656000E+00
-6.192000E-02,+5.880000E+00,+2.720000E-01,+2.656000E+00
-6.190000E-02,+5.880000E+00,+2.720000E-01,+2.656000E+00
-6.188000E-02,+5.800000E+00,+2.720000E-01,+2.656000E+00
-6.186000E-02,+5.760000E+00,+2.720000E-01,+2.656000E+00
-6.184000E-02,+5.680000E+00,+2.640000E-01,+2.656000E+00
-6.182000E-02,+5.600000E+00,+2.720000E-01,+2.656000E+00
-6.180000E-02,+5.520000E+00,+2.720000E-01,+2.656000E+00
-6.178000E-02,+5.400000E+00,+2.720000E-01,+2.664000E+00
-6.176000E-02,+5.280000E+00,+2.720000E-01,+2.656000E+00
-6.174000E-02,+5.240000E+00,+2.720000E-01,+2.664000E+00
-6.172000E-02,+5.160000E+00,+2.720000E-01,+2.664000E+00
-6.170000E-02,+5.040000E+00,+2.720000E-01,+2.664000E+00
-6.168000E-02,+4.920000E+00,+2.720000E-01,+2.664000E+00
-6.166000E-02,+4.760000E+00,+2.800000E-01,+2.664000E+00
-6.164000E-02,+4.640000E+00,+2.800000E-01,+2.664000E+00
-6.162000E-02,+4.520000E+00,+2.800000E-01,+2.664000E+00
-6.160000E-02,+4.400000E+00,+2.800000E-01,+2.664000E+00
-6.158000E-02,+4.240000E+00,+2.720000E-01,+2.664000E+00
-6.156000E-02,+4.120000E+00,+2.720000E-01,+2.664000E+00
-6.154000E-02,+4.000000E+00,+2.800000E-01,+2.672000E+00
-6.152000E-02,+3.880000E+00,+2.640000E-01,+2.664000E+00
-6.150000E-02,+3.720000E+00,+2.720000E-01,+2.664000E+00
-6.148000E-02,+3.560000E+00,+2.800000E-01,+2.664000E+00
-6.146000E-02,+3.440000E+00,+2.800000E-01,+2.672000E+00
-6.144000E-02,+3.320000E+00,+2.800000E-01,+2.664000E+00
-6.142000E-02,+3.160000E+00,+2.800000E-01,+2.664000E+00
-6.140000E-02,+3.080000E+00,+2.800000E-01,+2.664000E+00
-6.138000E-02,+2.920000E+00,+2.720000E-01,+2.672000E+00
-6.136000E-02,+2.840000E+00,+2.880000E-01,+2.672000E+00
-6.134000E-02,+2.720000E+00,+2.880000E-01,+2.672000E+00
-6.132000E-02,+2.600000E+00,+2.800000E-01,+2.680000E+00
-6.130000E-02,+2.480000E+00,+2.720000E-01,+2.672000E+00
-6.128000E-02,+2.400000E+00,+2.880000E-01,+2.680000E+00
-6.126000E-02,+2.320000E+00,+2.880000E-01,+2.680000E+00
-6.124000E-02,+2.240000E+00,+2.880000E-01,+2.672000E+00
-6.122000E-02,+2.160000E+00,+2.800000E-01,+2.672000E+00
-6.120000E-02,+2.120000E+00,+2.880000E-01,+2.680000E+00
-6.118000E-02,+2.040000E+00,+2.880000E-01,+2.672000E+00
-6.116000E-02,+2.040000E+00,+2.880000E-01,+2.672000E+00
-6.114000E-02,+1.960000E+00,+2.880000E-01,+2.672000E+00
-6.112000E-02,+1.960000E+00,+2.880000E-01,+2.680000E+00
-6.110000E-02,+1.920000E+00,+2.880000E-01,+2.680000E+00
-6.108000E-02,+1.960000E+00,+2.960000E-01,+2.680000E+00
-6.106000E-02,+1.960000E+00,+2.880000E-01,+2.680000E+00
-6.104000E-02,+2.000000E+00,+2.800000E-01,+2.680000E+00
-6.102000E-02,+2.040000E+00,+2.880000E-01,+2.680000E+00
-6.100000E-02,+2.080000E+00,+2.880000E-01,+2.680000E+00
-6.098000E-02,+2.120000E+00,+2.880000E-01,+2.680000E+00
-6.096000E-02,+2.200000E+00,+2.960000E-01,+2.680000E+00
-6.094000E-02,+2.280000E+00,+2.880000E-01,+2.680000E+00
-6.092000E-02,+2.400000E+00,+2.960000E-01,+2.688000E+00
-6.090000E-02,+2.480000E+00,+2.880000E-01,+2.688000E+00
-6.088000E-02,+2.560000E+00,+2.960000E-01,+2.688000E+00
-6.086000E-02,+2.680000E+00,+2.960000E-01,+2.688000E+00
-6.084000E-02,+2.800000E+00,+2.960000E-01,+2.680000E+00
-6.082000E-02,+2.920000E+00,+2.880000E-01,+2.688000E+00
-6.080000E-02,+3.080000E+00,+2.880000E-01,+2.688000E+00
-6.078000E-02,+3.200000E+00,+2.960000E-01,+2.688000E+00
-6.076000E-02,+3.360000E+00,+2.960000E-01,+2.696000E+00
-6.074000E-02,+3.440000E+00,+2.960000E-01,+2.688000E+00
-6.072000E-02,+3.560000E+00,+2.960000E-01,+2.688000E+00
-6.070000E-02,+3.720000E+00,+3.040000E-01,+2.688000E+00
-6.068000E-02,+3.880000E+00,+2.960000E-01,+2.688000E+00
-6.066000E-02,+4.040000E+00,+3.040000E-01,+2.688000E+00
-6.064000E-02,+4.160000E+00,+2.960000E-01,+2.688000E+00
-6.062000E-02,+4.320000E+00,+2.880000E-01,+2.688000E+00
-6.060000E-02,+4.480000E+00,+3.040000E-01,+2.696000E+00
-6.058000E-02,+4.600000E+00,+3.040000E-01,+2.688000E+00
-6.056000E-02,+4.760000E+00,+2.960000E-01,+2.696000E+00
-6.054000E-02,+4.920000E+00,+3.040000E-01,+2.696000E+00
-6.052000E-02,+5.040000E+00,+3.040000E-01,+2.688000E+00
-6.050000E-02,+5.160000E+00,+2.880000E-01,+2.688000E+00
-6.048000E-02,+5.320000E+00,+2.960000E-01,+2.704000E+00
-6.046000E-02,+5.400000E+00,+2.960000E-01,+2.688000E+00
-6.044000E-02,+5.520000E+00,+2.960000E-01,+2.688000E+00
-6.042000E-02,+5.640000E+00,+3.040000E-01,+2.696000E+00
-6.040000E-02,+5.720000E+00,+2.960000E-01,+2.696000E+00
-6.038000E-02,+5.800000E+00,+3.040000E-01,+2.696000E+00
-6.036000E-02,+5.880000E+00,+3.040000E-01,+2.696000E+00
-6.034000E-02,+5.960000E+00,+2.960000E-01,+2.696000E+00
-6.032000E-02,+5.960000E+00,+3.040000E-01,+2.696000E+00
-6.030000E-02,+6.040000E+00,+3.040000E-01,+2.696000E+00
-6.028000E-02,+6.040000E+00,+2.960000E-01,+2.696000E+00
-6.026000E-02,+6.000000E+00,+3.040000E-01,+2.696000E+00
-6.024000E-02,+6.080000E+00,+2.960000E-01,+2.704000E+00
-6.022000E-02,+6.040000E+00,+3.040000E-01,+2.696000E+00
-6.020000E-02,+6.000000E+00,+3.120000E-01,+2.696000E+00
-6.018000E-02,+5.960000E+00,+3.120000E-01,+2.704000E+00
-6.016000E-02,+5.880000E+00,+3.120000E-01,+2.696000E+00
-6.014000E-02,+5.840000E+00,+3.040000E-01,+2.696000E+00
-6.012000E-02,+5.760000E+00,+3.120000E-01,+2.696000E+00
-6.010000E-02,+5.640000E+00,+3.120000E-01,+2.696000E+00
-6.008000E-02,+5.600000E+00,+3.200000E-01,+2.704000E+00
-6.006000E-02,+5.440000E+00,+3.120000E-01,+2.696000E+00
-6.004000E-02,+5.400000E+00,+3.120000E-01,+2.704000E+00
-6.002000E-02,+5.240000E+00,+3.040000E-01,+2.704000E+00
-6.000000E-02,+5.120000E+00,+3.120000E-01,+2.704000E+00
-5.998000E-02,+5.000000E+00,+3.120000E-01,+2.704000E+00
-5.996000E-02,+4.880000E+00,+3.120000E-01,+2.704000E+00
-5.994000E-02,+4.720000E+00,+3.120000E-01,+2.704000E+00
-5.992000E-02,+4.600000E+00,+3.040000E-01,+2.704000E+00
-5.990000E-02,+4.440000E+00,+3.120000E-01,+2.704000E+00
-5.988000E-02,+4.280000E+00,+3.040000E-01,+2.704000E+00
-5.986000E-02,+4.160000E+00,+3.120000E-01,+2.712000E+00
-5.984000E-02,+3.960000E+00,+3.200000E-01,+2.704000E+00
-5.982000E-02,+3.840000E+00,+3.200000E-01,+2.704000E+00
-5.980000E-02,+3.680000E+00,+3.200000E-01,+2.712000E+00
-5.978000E-02,+3.520000E+00,+3.120000E-01,+2.704000E+00
-5.976000E-02,+3.440000E+00,+3.120000E-01,+2.720000E+00
-5.974000E-02,+3.240000E+00,+3.200000E-01,+2.704000E+00
-5.972000E-02,+3.080000E+00,+3.200000E-01,+2.712000E+00
-5.970000E-02,+2.960000E+00,+3.200000E-01,+2.712000E+00
-5.968000E-02,+2.840000E+00,+3.200000E-01,+2.704000E+00
-5.966000E-02,+2.720000E+00,+3.280000E-01,+2.712000E+00
-5.964000E-02,+2.600000E+00,+3.200000E-01,+2.712000E+00
-5.962000E-02,+2.480000E+00,+3.120000E-01,+2.712000E+00
-5.960000E-02,+2.360000E+00,+3.120000E-01,+2.712000E+00
-5.958000E-02,+2.320000E+00,+3.200000E-01,+2.712000E+00
-5.956000E-02,+2.240000E+00,+3.200000E-01,+2.712000E+00
-5.954000E-02,+2.120000E+00,+3.280000E-01,+2.712000E+00
-5.952000E-02,+2.080000E+00,+3.280000E-01,+2.712000E+00
-5.950000E-02,+2.080000E+00,+3.200000E-01,+2.728000E+00
-5.948000E-02,+2.000000E+00,+3.280000E-01,+2.712000E+00
-5.946000E-02,+1.960000E+00,+3.280000E-01,+2.712000E+00
-5.944000E-02,+1.960000E+00,+3.280000E-01,+2.712000E+00
-5.942000E-02,+1.960000E+00,+3.120000E-01,+2.720000E+00
-5.940000E-02,+2.000000E+00,+3.360000E-01,+2.720000E+00
-5.938000E-02,+2.080000E+00,+3.280000E-01,+2.720000E+00
-5.936000E-02,+2.080000E+00,+3.200000E-01,+2.728000E+00
-5.934000E-02,+2.160000E+00,+3.280000E-01,+2.720000E+00
-5.932000E-02,+2.280000E+00,+3.280000E-01,+2.720000E+00
-5.930000E-02,+2.320000E+00,+3.280000E-01,+2.720000E+00
-5.928000E-02,+2.400000E+00,+3.280000E-01,+2.720000E+00
-5.926000E-02,+2.520000E+00,+3.280000E-01,+2.728000E+00
-5.924000E-02,+2.640000E+00,+3.200000E-01,+2.720000E+00
-5.922000E-02,+2.760000E+00,+3.280000E-01,+2.720000E+00
-5.920000E-02,+2.880000E+00,+3.360000E-01,+2.720000E+00
-5.918000E-02,+3.080000E+00,+3.360000E-01,+2.720000E+00
-5.916000E-02,+3.200000E+00,+3.360000E-01,+2.720000E+00
-5.914000E-02,+3.320000E+00,+3.280000E-01,+2.720000E+00
-5.912000E-02,+3.480000E+00,+3.360000E-01,+2.720000E+00
-5.910000E-02,+3.600000E+00,+3.280000E-01,+2.728000E+00
-5.908000E-02,+3.760000E+00,+3.360000E-01,+2.736000E+00
-5.906000E-02,+3.920000E+00,+3.280000E-01,+2.728000E+00
-5.904000E-02,+4.120000E+00,+3.280000E-01,+2.728000E+00
-5.902000E-02,+4.240000E+00,+3.280000E-01,+2.728000E+00
-5.900000E-02,+4.400000E+00,+3.280000E-01,+2.728000E+00
-5.898000E-02,+4.560000E+00,+3.280000E-01,+2.736000E+00
-5.896000E-02,+4.680000E+00,+3.280000E-01,+2.728000E+00
-5.894000E-02,+4.840000E+00,+3.360000E-01,+2.736000E+00
-5.892000E-02,+4.960000E+00,+3.280000E-01,+2.728000E+00
-5.890000E-02,+5.080000E+00,+3.360000E-01,+2.728000E+00
-5.888000E-02,+5.200000E+00,+3.360000E-01,+2.728000E+00
-5.886000E-02,+5.360000E+00,+3.360000E-01,+2.736000E+00
-5.884000E-02,+5.440000E+00,+3.280000E-01,+2.728000E+00
-5.882000E-02,+5.600000E+00,+3.360000E-01,+2.728000E+00
-5.880000E-02,+5.640000E+00,+3.360000E-01,+2.736000E+00
-5.878000E-02,+5.760000E+00,+3.360000E-01,+2.728000E+00
-5.876000E-02,+5.840000E+00,+3.440000E-01,+2.736000E+00
-5.874000E-02,+5.880000E+00,+3.360000E-01,+2.728000E+00
-5.872000E-02,+5.960000E+00,+3.280000E-01,+2.728000E+00
-5.870000E-02,+6.040000E+00,+3.440000E-01,+2.736000E+00
-5.868000E-02,+6.080000E+00,+3.440000E-01,+2.736000E+00
-5.866000E-02,+6.120000E+00,+3.280000E-01,+2.728000E+00
-5.864000E-02,+6.120000E+00,+3.360000E-01,+2.736000E+00
-5.862000E-02,+6.120000E+00,+3.440000E-01,+2.736000E+00
-5.860000E-02,+6.120000E+00,+3.440000E-01,+2.736000E+00
-5.858000E-02,+6.120000E+00,+3.360000E-01,+2.744000E+00
-5.856000E-02,+6.120000E+00,+3.440000E-01,+2.736000E+00
-5.854000E-02,+6.040000E+00,+3.360000E-01,+2.736000E+00
-5.852000E-02,+6.040000E+00,+3.440000E-01,+2.736000E+00
-5.850000E-02,+5.960000E+00,+3.440000E-01,+2.736000E+00
-5.848000E-02,+5.920000E+00,+3.440000E-01,+2.736000E+00
-5.846000E-02,+5.840000E+00,+3.360000E-01,+2.736000E+00
-5.844000E-02,+5.760000E+00,+3.360000E-01,+2.744000E+00
-5.842000E-02,+5.680000E+00,+3.440000E-01,+2.744000E+00
-5.840000E-02,+5.600000E+00,+3.440000E-01,+2.744000E+00
-5.838000E-02,+5.520000E+00,+3.440000E-01,+2.744000E+00
-5.836000E-02,+5.360000E+00,+3.440000E-01,+2.736000E+00
-5.834000E-02,+5.240000E+00,+3.440000E-01,+2.744000E+00
-5.832000E-02,+5.120000E+00,+3.440000E-01,+2.744000E+00
-5.830000E-02,+5.000000E+00,+3.440000E-01,+2.736000E+00
-5.828000E-02,+4.880000E+00,+3.520000E-01,+2.744000E+00
-5.826000E-02,+4.720000E+00,+3.440000E-01,+2.744000E+00
-5.824000E-02,+4.600000E+00,+3.440000E-01,+2.744000E+00
-5.822000E-02,+4.480000E+00,+3.520000E-01,+2.752000E+00
-5.820000E-02,+4.320000E+00,+3.520000E-01,+2.752000E+00
-5.818000E-02,+4.200000E+00,+3.520000E-01,+2.744000E+00
-5.816000E-02,+4.040000E+00,+3.520000E-01,+2.744000E+00
-5.814000E-02,+3.920000E+00,+3.520000E-01,+2.744000E+00
-5.812000E-02,+3.760000E+00,+3.520000E-01,+2.744000E+00
-5.810000E-02,+3.640000E+00,+3.520000E-01,+2.752000E+00
-5.808000E-02,+3.520000E+00,+3.440000E-01,+2.744000E+00
-5.806000E-02,+3.360000E+00,+3.440000E-01,+2.752000E+00
-5.804000E-02,+3.240000E+00,+3.520000E-01,+2.752000E+00
-5.802000E-02,+3.120000E+00,+3.520000E-01,+2.744000E+00
-5.800000E-02,+3.000000E+00,+3.520000E-01,+2.760000E+00
-5.798000E-02,+2.880000E+00,+3.600000E-01,+2.744000E+00
-5.796000E-02,+2.800000E+00,+3.520000E-01,+2.752000E+00
-5.794000E-02,+2.680000E+00,+3.600000E-01,+2.752000E+00
-5.792000E-02,+2.560000E+00,+3.600000E-01,+2.752000E+00
-5.790000E-02,+2.480000E+00,+3.600000E-01,+2.752000E+00
-5.788000E-02,+2.400000E+00,+3.440000E-01,+2.752000E+00
-5.786000E-02,+2.320000E+00,+3.520000E-01,+2.752000E+00
-5.784000E-02,+2.240000E+00,+3.600000E-01,+2.760000E+00
-5.782000E-02,+2.160000E+00,+3.600000E-01,+2.752000E+00
-5.780000E-02,+2.120000E+00,+3.520000E-01,+2.752000E+00
-5.778000E-02,+2.080000E+00,+3.600000E-01,+2.752000E+00
-5.776000E-02,+2.040000E+00,+3.680000E-01,+2.752000E+00
-5.774000E-02,+2.040000E+00,+3.680000E-01,+2.752000E+00
-5.772000E-02,+2.000000E+00,+3.600000E-01,+2.760000E+00
-5.770000E-02,+2.040000E+00,+3.600000E-01,+2.760000E+00
-5.768000E-02,+2.040000E+00,+3.520000E-01,+2.768000E+00
-5.766000E-02,+2.040000E+00,+3.600000E-01,+2.760000E+00
-5.764000E-02,+2.040000E+00,+3.600000E-01,+2.760000E+00
-5.762000E-02,+2.080000E+00,+3.600000E-01,+2.760000E+00
-5.760000E-02,+2.160000E+00,+3.600000E-01,+2.760000E+00
-5.758000E-02,+2.240000E+00,+3.680000E-01,+2.760000E+00
-5.756000E-02,+2.320000E+00,+3.600000E-01,+2.760000E+00
-5.754000E-02,+2.400000E+00,+3.680000E-01,+2.760000E+00
-5.752000E-02,+2.520000E+00,+3.680000E-01,+2.760000E+00
-5.750000E-02,+2.640000E+00,+3.680000E-01,+2.760000E+00
-5.748000E-02,+2.800000E+00,+3.600000E-01,+2.760000E+00
-5.746000E-02,+2.920000E+00,+3.600000E-01,+2.760000E+00
-5.744000E-02,+3.040000E+00,+3.760000E-01,+2.768000E+00
-5.742000E-02,+3.200000E+00,+3.680000E-01,+2.760000E+00
-5.740000E-02,+3.360000E+00,+3.680000E-01,+2.768000E+00
-5.738000E-02,+3.520000E+00,+3.680000E-01,+2.760000E+00
-5.736000E-02,+3.720000E+00,+3.520000E-01,+2.776000E+00
-5.734000E-02,+3.880000E+00,+3.600000E-01,+2.768000E+00
-5.732000E-02,+4.040000E+00,+3.680000E-01,+2.760000E+00
-5.730000E-02,+4.200000E+00,+3.680000E-01,+2.768000E+00
-5.728000E-02,+4.400000E+00,+3.680000E-01,+2.768000E+00
-5.726000E-02,+4.560000E+00,+3.760000E-01,+2.768000E+00
-5.724000E-02,+4.680000E+00,+3.760000E-01,+2.768000E+00
