Spectroscopy/data/S2_1.csv

Record Length,Analog:7000
Sample Interval,CH:0.0000099999997
Vertical Units,CH1:V CH2:V CH4:V,,,
Vertical Scale,CH1:+1.000000E+00 CH2:+2.000000E-01 CH4:+2.000000E-01,,,
Vertical Offset,CH1:-4.500000E+00 CH2:+0.000000E+00 CH4:-3.900000E+00,,,
Horizontal Units,us,,,
Horizontal Scale,5000.0000000000,,,
Model Number,SDS1204X-E,,,
Serial Number,SDSMMEBQ4R4722,,,
Software Version,8.1.6.1.35R2,,,
Source,CH1,CH2,CH4
Second,Volt,Volt,Volt
-1.650000E-02,+3.500000E+00,-6.320000E-01,+3.012000E+00
-1.649000E-02,+3.460000E+00,-6.240000E-01,+3.012000E+00
-1.648000E-02,+3.380000E+00,-6.320000E-01,+3.020000E+00
-1.647000E-02,+3.340000E+00,-6.320000E-01,+3.020000E+00
-1.646000E-02,+3.300000E+00,-6.320000E-01,+3.020000E+00
-1.645000E-02,+3.220000E+00,-6.320000E-01,+3.020000E+00
-1.644000E-02,+3.300000E+00,-6.320000E-01,+3.020000E+00
-1.643000E-02,+3.260000E+00,-6.240000E-01,+3.020000E+00
-1.642000E-02,+3.260000E+00,-6.320000E-01,+3.028000E+00
-1.641000E-02,+3.300000E+00,-6.240000E-01,+3.020000E+00
-1.640000E-02,+3.300000E+00,-6.320000E-01,+3.020000E+00
-1.639000E-02,+3.300000E+00,-6.320000E-01,+3.028000E+00
-1.638000E-02,+3.300000E+00,-6.240000E-01,+3.028000E+00
-1.637000E-02,+3.300000E+00,-6.240000E-01,+3.012000E+00
-1.636000E-02,+3.340000E+00,-6.240000E-01,+3.028000E+00
-1.635000E-02,+3.380000E+00,-6.240000E-01,+3.028000E+00
-1.634000E-02,+3.340000E+00,-6.320000E-01,+3.028000E+00
-1.633000E-02,+3.380000E+00,-6.320000E-01,+3.028000E+00
-1.632000E-02,+3.380000E+00,-6.240000E-01,+3.028000E+00
-1.631000E-02,+3.420000E+00,-6.320000E-01,+3.028000E+00
-1.630000E-02,+3.460000E+00,-6.320000E-01,+3.020000E+00
-1.629000E-02,+3.460000E+00,-6.160001E-01,+3.028000E+00
-1.628000E-02,+3.500000E+00,-6.240000E-01,+3.028000E+00
-1.627000E-02,+3.500000E+00,-6.320000E-01,+3.020000E+00
-1.626000E-02,+3.540000E+00,-6.240000E-01,+3.028000E+00
-1.625000E-02,+3.540000E+00,-6.240000E-01,+3.028000E+00
-1.624000E-02,+3.580000E+00,-6.320000E-01,+3.028000E+00
-1.623000E-02,+3.580000E+00,-6.240000E-01,+3.028000E+00
-1.622000E-02,+3.580000E+00,-6.160001E-01,+3.028000E+00
-1.621000E-02,+3.580000E+00,-6.240000E-01,+3.020000E+00
-1.620000E-02,+3.620000E+00,-6.240000E-01,+3.020000E+00
-1.619000E-02,+3.660000E+00,-6.160001E-01,+3.028000E+00
-1.618000E-02,+3.700000E+00,-6.240000E-01,+3.028000E+00
-1.617000E-02,+3.700000E+00,-6.240000E-01,+3.028000E+00
-1.616000E-02,+3.740000E+00,-6.240000E-01,+3.028000E+00
-1.615000E-02,+3.740000E+00,-6.240000E-01,+3.028000E+00
-1.614000E-02,+3.780000E+00,-6.160001E-01,+3.028000E+00
-1.613000E-02,+3.780000E+00,-6.160001E-01,+3.028000E+00
-1.612000E-02,+3.820000E+00,-6.160001E-01,+3.028000E+00
-1.611000E-02,+3.860000E+00,-6.160001E-01,+3.028000E+00
-1.610000E-02,+3.860000E+00,-6.240000E-01,+3.036000E+00
-1.609000E-02,+3.860000E+00,-6.160001E-01,+3.028000E+00
-1.608000E-02,+3.900000E+00,-6.240000E-01,+3.028000E+00
-1.607000E-02,+3.940000E+00,-6.160001E-01,+3.036000E+00
-1.606000E-02,+3.940000E+00,-6.240000E-01,+3.036000E+00
-1.605000E-02,+3.980000E+00,-6.160001E-01,+3.036000E+00
-1.604000E-02,+3.980000E+00,-6.240000E-01,+3.036000E+00
-1.603000E-02,+3.980000E+00,-6.160001E-01,+3.036000E+00
-1.602000E-02,+4.020000E+00,-6.080000E-01,+3.036000E+00
-1.601000E-02,+4.060000E+00,-6.080000E-01,+3.036000E+00
-1.600000E-02,+4.060000E+00,-6.160001E-01,+3.036000E+00
-1.599000E-02,+4.060000E+00,-6.080000E-01,+3.028000E+00
-1.598000E-02,+4.060000E+00,-6.240000E-01,+3.036000E+00
-1.597000E-02,+4.100000E+00,-6.080000E-01,+3.036000E+00
-1.596000E-02,+4.140000E+00,-6.080000E-01,+3.036000E+00
-1.595000E-02,+4.140000E+00,-6.080000E-01,+3.036000E+00
-1.594000E-02,+4.140000E+00,-6.080000E-01,+3.036000E+00
-1.593000E-02,+4.180000E+00,-6.160001E-01,+3.036000E+00
-1.592000E-02,+4.220000E+00,-6.160001E-01,+3.036000E+00
-1.591000E-02,+4.220000E+00,-6.160001E-01,+3.036000E+00
-1.590000E-02,+4.220000E+00,-6.080000E-01,+3.036000E+00
-1.589000E-02,+4.260000E+00,-6.080000E-01,+3.044000E+00
-1.588000E-02,+4.260000E+00,-6.080000E-01,+3.036000E+00
-1.587000E-02,+4.300000E+00,-6.160001E-01,+3.044000E+00
-1.586000E-02,+4.300000E+00,-6.000000E-01,+3.044000E+00
-1.585000E-02,+4.300000E+00,-6.080000E-01,+3.036000E+00
-1.584000E-02,+4.340000E+00,-6.160001E-01,+3.044000E+00
-1.583000E-02,+4.380000E+00,-6.000000E-01,+3.044000E+00
-1.582000E-02,+4.380000E+00,-6.160001E-01,+3.044000E+00
-1.581000E-02,+4.380000E+00,-6.080000E-01,+3.044000E+00
-1.580000E-02,+4.380000E+00,-6.160001E-01,+3.036000E+00
-1.579000E-02,+4.380000E+00,-6.080000E-01,+3.044000E+00
-1.578000E-02,+4.380000E+00,-6.160001E-01,+3.044000E+00
-1.577000E-02,+4.380000E+00,-6.080000E-01,+3.044000E+00
-1.576000E-02,+4.420000E+00,-6.080000E-01,+3.036000E+00
-1.575000E-02,+4.420000E+00,-6.080000E-01,+3.044000E+00
-1.574000E-02,+4.420000E+00,-6.000000E-01,+3.044000E+00
-1.573000E-02,+4.420000E+00,-6.160001E-01,+3.044000E+00
-1.572000E-02,+4.420000E+00,-6.080000E-01,+3.044000E+00
-1.571000E-02,+4.460000E+00,-6.000000E-01,+3.044000E+00
-1.570000E-02,+4.460000E+00,-6.000000E-01,+3.044000E+00
-1.569000E-02,+4.460000E+00,-5.920000E-01,+3.036000E+00
-1.568000E-02,+4.460000E+00,-6.080000E-01,+3.044000E+00
-1.567000E-02,+4.460000E+00,-6.000000E-01,+3.044000E+00
-1.566000E-02,+4.460000E+00,-6.080000E-01,+3.052000E+00
-1.565000E-02,+4.460000E+00,-6.000000E-01,+3.044000E+00
-1.564000E-02,+4.460000E+00,-5.920000E-01,+3.036000E+00
-1.563000E-02,+4.460000E+00,-6.080000E-01,+3.036000E+00
-1.562000E-02,+4.460000E+00,-6.000000E-01,+3.044000E+00
-1.561000E-02,+4.460000E+00,-6.000000E-01,+3.044000E+00
-1.560000E-02,+4.460000E+00,-6.080000E-01,+3.044000E+00
-1.559000E-02,+4.460000E+00,-6.080000E-01,+3.044000E+00
-1.558000E-02,+4.460000E+00,-5.920000E-01,+3.052000E+00
-1.557000E-02,+4.420000E+00,-6.000000E-01,+3.044000E+00
-1.556000E-02,+4.420000E+00,-6.000000E-01,+3.044000E+00
-1.555000E-02,+4.420000E+00,-6.000000E-01,+3.044000E+00
-1.554000E-02,+4.420000E+00,-5.920000E-01,+3.052000E+00
-1.553000E-02,+4.420000E+00,-6.000000E-01,+3.052000E+00
-1.552000E-02,+4.420000E+00,-5.920000E-01,+3.052000E+00
-1.551000E-02,+4.380000E+00,-5.920000E-01,+3.052000E+00
-1.550000E-02,+4.380000E+00,-6.000000E-01,+3.052000E+00
-1.549000E-02,+4.380000E+00,-6.000000E-01,+3.052000E+00
-1.548000E-02,+4.420000E+00,-6.000000E-01,+3.052000E+00
-1.547000E-02,+4.380000E+00,-5.920000E-01,+3.052000E+00
-1.546000E-02,+4.340000E+00,-5.920000E-01,+3.044000E+00
-1.545000E-02,+4.380000E+00,-5.920000E-01,+3.052000E+00
-1.544000E-02,+4.300000E+00,-5.920000E-01,+3.052000E+00
-1.543000E-02,+4.300000E+00,-6.000000E-01,+3.052000E+00
-1.542000E-02,+4.300000E+00,-5.920000E-01,+3.052000E+00
-1.541000E-02,+4.300000E+00,-5.920000E-01,+3.052000E+00
-1.540000E-02,+4.260000E+00,-6.000000E-01,+3.052000E+00
-1.539000E-02,+4.220000E+00,-5.920000E-01,+3.052000E+00
-1.538000E-02,+4.220000E+00,-5.920000E-01,+3.060000E+00
-1.537000E-02,+4.220000E+00,-5.840001E-01,+3.052000E+00
-1.536000E-02,+4.180000E+00,-6.000000E-01,+3.052000E+00
-1.535000E-02,+4.180000E+00,-5.760000E-01,+3.060000E+00
-1.534000E-02,+4.140000E+00,-5.840001E-01,+3.060000E+00
-1.533000E-02,+4.140000E+00,-5.920000E-01,+3.060000E+00
-1.532000E-02,+4.140000E+00,-5.920000E-01,+3.060000E+00
-1.531000E-02,+4.140000E+00,-5.840001E-01,+3.060000E+00
-1.530000E-02,+4.100000E+00,-5.840001E-01,+3.060000E+00
-1.529000E-02,+4.060000E+00,-5.920000E-01,+3.060000E+00
-1.528000E-02,+4.060000E+00,-5.840001E-01,+3.060000E+00
-1.527000E-02,+4.020000E+00,-6.000000E-01,+3.060000E+00
-1.526000E-02,+4.020000E+00,-5.840001E-01,+3.060000E+00
-1.525000E-02,+3.980000E+00,-5.920000E-01,+3.052000E+00
-1.524000E-02,+3.980000E+00,-5.840001E-01,+3.060000E+00
-1.523000E-02,+3.940000E+00,-5.840001E-01,+3.068000E+00
-1.522000E-02,+3.900000E+00,-5.760000E-01,+3.060000E+00
-1.521000E-02,+3.900000E+00,-5.760000E-01,+3.060000E+00
-1.520000E-02,+3.860000E+00,-5.840001E-01,+3.060000E+00
-1.519000E-02,+3.860000E+00,-5.920000E-01,+3.068000E+00
-1.518000E-02,+3.820000E+00,-5.840001E-01,+3.060000E+00
-1.517000E-02,+3.780000E+00,-5.760000E-01,+3.068000E+00
-1.516000E-02,+3.780000E+00,-5.840001E-01,+3.068000E+00
-1.515000E-02,+3.740000E+00,-5.920000E-01,+3.068000E+00
-1.514000E-02,+3.780000E+00,-5.920000E-01,+3.060000E+00
-1.513000E-02,+3.700000E+00,-5.760000E-01,+3.068000E+00
-1.512000E-02,+3.660000E+00,-5.760000E-01,+3.060000E+00
-1.511000E-02,+3.660000E+00,-5.840001E-01,+3.068000E+00
-1.510000E-02,+3.620000E+00,-5.840001E-01,+3.068000E+00
-1.509000E-02,+3.620000E+00,-5.840001E-01,+3.068000E+00
-1.508000E-02,+3.580000E+00,-5.760000E-01,+3.068000E+00
-1.507000E-02,+3.540000E+00,-5.760000E-01,+3.068000E+00
-1.506000E-02,+3.500000E+00,-5.680000E-01,+3.068000E+00
-1.505000E-02,+3.500000E+00,-5.760000E-01,+3.068000E+00
-1.504000E-02,+3.460000E+00,-5.840001E-01,+3.068000E+00
-1.503000E-02,+3.420000E+00,-5.840001E-01,+3.068000E+00
-1.502000E-02,+3.420000E+00,-5.680000E-01,+3.068000E+00
-1.501000E-02,+3.380000E+00,-5.840001E-01,+3.068000E+00
-1.500000E-02,+3.420000E+00,-5.840001E-01,+3.068000E+00
-1.499000E-02,+3.340000E+00,-5.680000E-01,+3.068000E+00
-1.498000E-02,+3.300000E+00,-5.840001E-01,+3.068000E+00
-1.497000E-02,+3.300000E+00,-5.760000E-01,+3.068000E+00
-1.496000E-02,+3.300000E+00,-5.840001E-01,+3.068000E+00
-1.495000E-02,+3.260000E+00,-5.760000E-01,+3.060000E+00
-1.494000E-02,+3.180000E+00,-5.760000E-01,+3.068000E+00
-1.493000E-02,+3.180000E+00,-5.680000E-01,+3.068000E+00
-1.492000E-02,+3.140000E+00,-5.680000E-01,+3.068000E+00
-1.491000E-02,+3.100000E+00,-5.840001E-01,+3.068000E+00
-1.490000E-02,+3.060000E+00,-5.680000E-01,+3.076000E+00
-1.489000E-02,+3.060000E+00,-5.680000E-01,+3.076000E+00
-1.488000E-02,+3.020000E+00,-5.680000E-01,+3.076000E+00
-1.487000E-02,+2.940000E+00,-5.760000E-01,+3.068000E+00
-1.486000E-02,+2.980000E+00,-5.760000E-01,+3.068000E+00
-1.485000E-02,+2.980000E+00,-5.680000E-01,+3.076000E+00
-1.484000E-02,+2.900000E+00,-5.680000E-01,+3.076000E+00
-1.483000E-02,+2.900000E+00,-5.760000E-01,+3.076000E+00
-1.482000E-02,+2.860000E+00,-5.600000E-01,+3.068000E+00
-1.481000E-02,+2.820000E+00,-5.600000E-01,+3.076000E+00
-1.480000E-02,+2.820000E+00,-5.600000E-01,+3.076000E+00
-1.479000E-02,+2.740000E+00,-5.600000E-01,+3.068000E+00
-1.478000E-02,+2.700000E+00,-5.760000E-01,+3.076000E+00
-1.477000E-02,+2.700000E+00,-5.760000E-01,+3.076000E+00
-1.476000E-02,+2.660000E+00,-5.680000E-01,+3.076000E+00
-1.475000E-02,+2.660000E+00,-5.680000E-01,+3.084000E+00
-1.474000E-02,+2.620000E+00,-5.680000E-01,+3.076000E+00
-1.473000E-02,+2.580000E+00,-5.600000E-01,+3.076000E+00
-1.472000E-02,+2.540000E+00,-5.600000E-01,+3.084000E+00
-1.471000E-02,+2.540000E+00,-5.520000E-01,+3.084000E+00
-1.470000E-02,+2.500000E+00,-5.520000E-01,+3.084000E+00
-1.469000E-02,+2.540000E+00,-5.680000E-01,+3.084000E+00
-1.468000E-02,+2.500000E+00,-5.600000E-01,+3.084000E+00
-1.467000E-02,+2.460000E+00,-5.600000E-01,+3.084000E+00
-1.466000E-02,+2.380000E+00,-5.520000E-01,+3.076000E+00
-1.465000E-02,+2.380000E+00,-5.600000E-01,+3.076000E+00
-1.464000E-02,+2.340000E+00,-5.520000E-01,+3.084000E+00
-1.463000E-02,+2.300000E+00,-5.680000E-01,+3.084000E+00
-1.462000E-02,+2.300000E+00,-5.600000E-01,+3.076000E+00
-1.461000E-02,+2.260000E+00,-5.600000E-01,+3.084000E+00
-1.460000E-02,+2.260000E+00,-5.600000E-01,+3.076000E+00
-1.459000E-02,+2.180000E+00,-5.520000E-01,+3.084000E+00
-1.458000E-02,+2.220000E+00,-5.520000E-01,+3.084000E+00
-1.457000E-02,+2.140000E+00,-5.600000E-01,+3.084000E+00
-1.456000E-02,+2.140000E+00,-5.520000E-01,+3.092000E+00
-1.455000E-02,+2.100000E+00,-5.600000E-01,+3.084000E+00
-1.454000E-02,+2.060000E+00,-5.600000E-01,+3.092000E+00
-1.453000E-02,+2.100000E+00,-5.520000E-01,+3.084000E+00
-1.452000E-02,+2.020000E+00,-5.520000E-01,+3.084000E+00
-1.451000E-02,+1.980000E+00,-5.520000E-01,+3.092000E+00
-1.450000E-02,+1.980000E+00,-5.520000E-01,+3.092000E+00
-1.449000E-02,+1.980000E+00,-5.520000E-01,+3.084000E+00
-1.448000E-02,+1.940000E+00,-5.520000E-01,+3.092000E+00
-1.447000E-02,+1.900000E+00,-5.600000E-01,+3.084000E+00
-1.446000E-02,+1.900000E+00,-5.520000E-01,+3.084000E+00
-1.445000E-02,+1.860000E+00,-5.520000E-01,+3.084000E+00
-1.444000E-02,+1.820000E+00,-5.520000E-01,+3.084000E+00
-1.443000E-02,+1.860000E+00,-5.520000E-01,+3.092000E+00
-1.442000E-02,+1.780000E+00,-5.520000E-01,+3.092000E+00
-1.441000E-02,+1.780000E+00,-5.440000E-01,+3.092000E+00
-1.440000E-02,+1.740000E+00,-5.520000E-01,+3.092000E+00
-1.439000E-02,+1.700000E+00,-5.600000E-01,+3.092000E+00
-1.438000E-02,+1.700000E+00,-5.440000E-01,+3.084000E+00
-1.437000E-02,+1.660000E+00,-5.600000E-01,+3.092000E+00
-1.436000E-02,+1.660000E+00,-5.440000E-01,+3.084000E+00
-1.435000E-02,+1.700000E+00,-5.440000E-01,+3.092000E+00
-1.434000E-02,+1.620000E+00,-5.520000E-01,+3.084000E+00
-1.433000E-02,+1.620000E+00,-5.440000E-01,+3.092000E+00
-1.432000E-02,+1.580000E+00,-5.600000E-01,+3.092000E+00
-1.431000E-02,+1.580000E+00,-5.440000E-01,+3.092000E+00
-1.430000E-02,+1.580000E+00,-5.600000E-01,+3.092000E+00
-1.429000E-02,+1.540000E+00,-5.520000E-01,+3.092000E+00
-1.428000E-02,+1.580000E+00,-5.520000E-01,+3.092000E+00
-1.427000E-02,+1.540000E+00,-5.440000E-01,+3.092000E+00
-1.426000E-02,+1.500000E+00,-5.520000E-01,+3.084000E+00
-1.425000E-02,+1.500000E+00,-5.520000E-01,+3.092000E+00
-1.424000E-02,+1.500000E+00,-5.520000E-01,+3.100000E+00
-1.423000E-02,+1.460000E+00,-5.440000E-01,+3.100000E+00
-1.422000E-02,+1.500000E+00,-5.440000E-01,+3.100000E+00
-1.421000E-02,+1.460000E+00,-5.360000E-01,+3.092000E+00
-1.420000E-02,+1.500000E+00,-5.440000E-01,+3.100000E+00
-1.419000E-02,+1.460000E+00,-5.360000E-01,+3.092000E+00
-1.418000E-02,+1.500000E+00,-5.440000E-01,+3.100000E+00
-1.417000E-02,+1.460000E+00,-5.520000E-01,+3.100000E+00
-1.416000E-02,+1.460000E+00,-5.360000E-01,+3.100000E+00
-1.415000E-02,+1.420000E+00,-5.440000E-01,+3.092000E+00
-1.414000E-02,+1.420000E+00,-5.360000E-01,+3.100000E+00
-1.413000E-02,+1.460000E+00,-5.440000E-01,+3.100000E+00
-1.412000E-02,+1.420000E+00,-5.280000E-01,+3.092000E+00
-1.411000E-02,+1.460000E+00,-5.440000E-01,+3.100000E+00
-1.410000E-02,+1.460000E+00,-5.440000E-01,+3.100000E+00
-1.409000E-02,+1.460000E+00,-5.440000E-01,+3.100000E+00
-1.408000E-02,+1.460000E+00,-5.360000E-01,+3.100000E+00
-1.407000E-02,+1.460000E+00,-5.280000E-01,+3.108000E+00
-1.406000E-02,+1.460000E+00,-5.360000E-01,+3.100000E+00
-1.405000E-02,+1.540000E+00,-5.360000E-01,+3.108000E+00
-1.404000E-02,+1.500000E+00,-5.280000E-01,+3.108000E+00
-1.403000E-02,+1.500000E+00,-5.360000E-01,+3.108000E+00
-1.402000E-02,+1.540000E+00,-5.280000E-01,+3.108000E+00
-1.401000E-02,+1.540000E+00,-5.280000E-01,+3.108000E+00
-1.400000E-02,+1.540000E+00,-5.280000E-01,+3.100000E+00
-1.399000E-02,+1.620000E+00,-5.360000E-01,+3.108000E+00
-1.398000E-02,+1.580000E+00,-5.280000E-01,+3.108000E+00
-1.397000E-02,+1.620000E+00,-5.360000E-01,+3.108000E+00
-1.396000E-02,+1.620000E+00,-5.360000E-01,+3.108000E+00
-1.395000E-02,+1.700000E+00,-5.440000E-01,+3.108000E+00
-1.394000E-02,+1.700000E+00,-5.280000E-01,+3.108000E+00
-1.393000E-02,+1.700000E+00,-5.360000E-01,+3.108000E+00
-1.392000E-02,+1.700000E+00,-5.280000E-01,+3.108000E+00
-1.391000E-02,+1.780000E+00,-5.360000E-01,+3.108000E+00
-1.390000E-02,+1.780000E+00,-5.280000E-01,+3.108000E+00
-1.389000E-02,+1.780000E+00,-5.360000E-01,+3.108000E+00
-1.388000E-02,+1.900000E+00,-5.280000E-01,+3.108000E+00
-1.387000E-02,+1.860000E+00,-5.280000E-01,+3.108000E+00
-1.386000E-02,+1.900000E+00,-5.280000E-01,+3.108000E+00
-1.385000E-02,+1.940000E+00,-5.280000E-01,+3.108000E+00
-1.384000E-02,+1.980000E+00,-5.360000E-01,+3.108000E+00
-1.383000E-02,+2.060000E+00,-5.280000E-01,+3.108000E+00
-1.382000E-02,+2.060000E+00,-5.280000E-01,+3.108000E+00
-1.381000E-02,+2.140000E+00,-5.360000E-01,+3.108000E+00
-1.380000E-02,+2.140000E+00,-5.280000E-01,+3.108000E+00
-1.379000E-02,+2.180000E+00,-5.280000E-01,+3.100000E+00
-1.378000E-02,+2.220000E+00,-5.280000E-01,+3.108000E+00
-1.377000E-02,+2.260000E+00,-5.280000E-01,+3.108000E+00
-1.376000E-02,+2.340000E+00,-5.200000E-01,+3.108000E+00
-1.375000E-02,+2.340000E+00,-5.280000E-01,+3.116000E+00
-1.374000E-02,+2.380000E+00,-5.200000E-01,+3.108000E+00
-1.373000E-02,+2.420000E+00,-5.200000E-01,+3.108000E+00
-1.372000E-02,+2.540000E+00,-5.200000E-01,+3.108000E+00
-1.371000E-02,+2.540000E+00,-5.200000E-01,+3.116000E+00
-1.370000E-02,+2.620000E+00,-5.280000E-01,+3.116000E+00
-1.369000E-02,+2.660000E+00,-5.200000E-01,+3.116000E+00
-1.368000E-02,+2.700000E+00,-5.280000E-01,+3.116000E+00
-1.367000E-02,+2.740000E+00,-5.200000E-01,+3.116000E+00
-1.366000E-02,+2.780000E+00,-5.200000E-01,+3.108000E+00
-1.365000E-02,+2.860000E+00,-5.200000E-01,+3.116000E+00
-1.364000E-02,+2.940000E+00,-5.280000E-01,+3.116000E+00
-1.363000E-02,+2.940000E+00,-5.200000E-01,+3.116000E+00
-1.362000E-02,+2.980000E+00,-5.200000E-01,+3.116000E+00
-1.361000E-02,+3.060000E+00,-5.200000E-01,+3.116000E+00
-1.360000E-02,+3.100000E+00,-5.280000E-01,+3.116000E+00
-1.359000E-02,+3.100000E+00,-5.120000E-01,+3.108000E+00
-1.358000E-02,+3.180000E+00,-5.120000E-01,+3.116000E+00
-1.357000E-02,+3.220000E+00,-5.200000E-01,+3.124000E+00
-1.356000E-02,+3.260000E+00,-5.200000E-01,+3.116000E+00
-1.355000E-02,+3.300000E+00,-5.200000E-01,+3.124000E+00
-1.354000E-02,+3.380000E+00,-5.200000E-01,+3.116000E+00
-1.353000E-02,+3.420000E+00,-5.200000E-01,+3.124000E+00
-1.352000E-02,+3.460000E+00,-5.120000E-01,+3.124000E+00
-1.351000E-02,+3.540000E+00,-5.200000E-01,+3.124000E+00
-1.350000E-02,+3.580000E+00,-5.120000E-01,+3.124000E+00
-1.349000E-02,+3.620000E+00,-5.120000E-01,+3.124000E+00
-1.348000E-02,+3.740000E+00,-5.200000E-01,+3.124000E+00
-1.347000E-02,+3.740000E+00,-5.120000E-01,+3.124000E+00
-1.346000E-02,+3.740000E+00,-5.200000E-01,+3.124000E+00
-1.345000E-02,+3.820000E+00,-5.120000E-01,+3.124000E+00
-1.344000E-02,+3.900000E+00,-5.040000E-01,+3.124000E+00
-1.343000E-02,+3.900000E+00,-5.120000E-01,+3.124000E+00
-1.342000E-02,+3.940000E+00,-5.040000E-01,+3.124000E+00
-1.341000E-02,+3.980000E+00,-5.120000E-01,+3.124000E+00
-1.340000E-02,+4.020000E+00,-5.040000E-01,+3.124000E+00
-1.339000E-02,+4.100000E+00,-5.120000E-01,+3.124000E+00
-1.338000E-02,+4.100000E+00,-5.120000E-01,+3.124000E+00
-1.337000E-02,+4.140000E+00,-5.200000E-01,+3.124000E+00
-1.336000E-02,+4.220000E+00,-5.200000E-01,+3.124000E+00
-1.335000E-02,+4.180000E+00,-5.120000E-01,+3.124000E+00
-1.334000E-02,+4.220000E+00,-5.040000E-01,+3.132000E+00
-1.333000E-02,+4.260000E+00,-5.040000E-01,+3.124000E+00
-1.332000E-02,+4.300000E+00,-5.120000E-01,+3.124000E+00
-1.331000E-02,+4.340000E+00,-5.120000E-01,+3.124000E+00
-1.330000E-02,+4.340000E+00,-5.120000E-01,+3.124000E+00
-1.329000E-02,+4.380000E+00,-5.200000E-01,+3.124000E+00
-1.328000E-02,+4.420000E+00,-5.120000E-01,+3.132000E+00
-1.327000E-02,+4.420000E+00,-5.040000E-01,+3.124000E+00
-1.326000E-02,+4.460000E+00,-5.040000E-01,+3.132000E+00
-1.325000E-02,+4.460000E+00,-5.120000E-01,+3.132000E+00
-1.324000E-02,+4.460000E+00,-5.040000E-01,+3.132000E+00
-1.323000E-02,+4.500000E+00,-5.040000E-01,+3.132000E+00
-1.322000E-02,+4.500000E+00,-4.960000E-01,+3.124000E+00
-1.321000E-02,+4.540000E+00,-5.040000E-01,+3.132000E+00
-1.320000E-02,+4.540000E+00,-5.120000E-01,+3.132000E+00
-1.319000E-02,+4.540000E+00,-4.960000E-01,+3.132000E+00
-1.318000E-02,+4.540000E+00,-5.040000E-01,+3.132000E+00
-1.317000E-02,+4.580000E+00,-5.120000E-01,+3.132000E+00
-1.316000E-02,+4.580000E+00,-5.040000E-01,+3.124000E+00
-1.315000E-02,+4.580000E+00,-4.960000E-01,+3.132000E+00
-1.314000E-02,+4.580000E+00,-4.960000E-01,+3.124000E+00
-1.313000E-02,+4.580000E+00,-4.960000E-01,+3.124000E+00
-1.312000E-02,+4.580000E+00,-4.960000E-01,+3.124000E+00
-1.311000E-02,+4.580000E+00,-5.040000E-01,+3.132000E+00
-1.310000E-02,+4.580000E+00,-4.960000E-01,+3.132000E+00
-1.309000E-02,+4.580000E+00,-5.040000E-01,+3.132000E+00
-1.308000E-02,+4.580000E+00,-5.040000E-01,+3.132000E+00
-1.307000E-02,+4.540000E+00,-4.880000E-01,+3.132000E+00
-1.306000E-02,+4.540000E+00,-5.040000E-01,+3.140000E+00
-1.305000E-02,+4.540000E+00,-5.040000E-01,+3.140000E+00
-1.304000E-02,+4.540000E+00,-5.040000E-01,+3.132000E+00
-1.303000E-02,+4.540000E+00,-4.960000E-01,+3.140000E+00
-1.302000E-02,+4.500000E+00,-4.880000E-01,+3.132000E+00
